test/sdram_tb.vcd
$date
	Thu Oct 26 01:11:07 2023
$end
$version
	Icarus Verilog
$end
$timescale
	1ps
$end
$scope module sdram_tb $end
$var wire 1 ! we_n $end
$var wire 3 " sdram_cmd [2:0] $end
$var wire 1 # ras_n $end
$var wire 1 $ p0_ready $end
$var wire 32 % p0_q [31:0] $end
$var wire 1 & init_complete $end
$var wire 4 ' dqm [3:0] $end
$var wire 32 ( dq_o [31:0] $end
$var wire 32 ) dq [31:0] $end
$var wire 1 * cs_n $end
$var wire 1 + cke $end
$var wire 1 , chip_clk $end
$var wire 1 - cas_n $end
$var wire 2 . ba [1:0] $end
$var wire 11 / addr [10:0] $end
$var reg 1 0 clk $end
$var reg 21 1 p0_addr [20:0] $end
$var reg 4 2 p0_byte_en [3:0] $end
$var reg 32 3 p0_data [31:0] $end
$var reg 1 4 p0_rd_req $end
$var reg 1 5 p0_wr_req $end
$var reg 1 6 reset $end
$scope module sdram $end
$var wire 1 , SDRAM_CLK $end
$var wire 32 7 SDRAM_DQ_o [31:0] $end
$var wire 1 0 clk $end
$var wire 3 8 concrete_burst_length [2:0] $end
$var wire 13 9 configured_mode [12:0] $end
$var wire 21 : p0_addr [20:0] $end
$var wire 1 ; p0_available $end
$var wire 4 < p0_byte_en [3:0] $end
$var wire 32 = p0_data [31:0] $end
$var wire 1 4 p0_rd_req $end
$var wire 1 > p0_req $end
$var wire 1 ? p0_req_queue $end
$var wire 1 5 p0_wr_req $end
$var wire 1 @ port_req $end
$var wire 1 6 reset $end
$var wire 1 A sdram_clk $end
$var wire 21 B p0_addr_current [20:0] $end
$var wire 1 & init_complete $end
$var wire 1 ! SDRAM_nWE $end
$var wire 1 # SDRAM_nRAS $end
$var wire 1 * SDRAM_nCS $end
$var wire 1 - SDRAM_nCAS $end
$var wire 32 C SDRAM_DQ [31:0] $end
$var parameter 32 D BANK_WIDTH $end
$var parameter 32 E BURST_LENGTH $end
$var parameter 32 F BURST_TYPE $end
$var parameter 32 G CAS_LATENCY $end
$var real 1 H CLOCK_PERIOD_NANO_SEC $end
$var parameter 32 I CLOCK_SPEED_MHZ $end
$var parameter 32 J COL_WIDTH $end
$var parameter 33 K CYCLES_AFTER_WRITE_FOR_NEXT_COMMAND $end
$var parameter 33 L CYCLES_BETWEEN_ACTIVE_COMMAND $end
$var parameter 33 M CYCLES_FOR_ACTIVE_ROW $end
$var parameter 33 N CYCLES_FOR_AUTOREFRESH $end
$var parameter 33 O CYCLES_PER_REFRESH $end
$var parameter 34 P CYCLES_UNTIL_CLEAR_INHIBIT $end
$var parameter 36 Q CYCLES_UNTIL_INIT_PRECHARGE_END $end
$var parameter 37 R CYCLES_UNTIL_REFRESH1_END $end
$var parameter 38 S CYCLES_UNTIL_REFRESH2_END $end
$var parameter 33 T CYCLES_UNTIL_START_INHIBIT $end
$var parameter 32 U DATA_WIDTH $end
$var parameter 32 V DQM_WIDTH $end
$var parameter 32 W P0_BURST_LENGTH $end
$var parameter 65 X P0_OUTPUT_WIDTH $end
$var parameter 32 Y ROW_WIDTH $end
$var parameter 32 Z SETTING_INHIBIT_DELAY_MICRO_SEC $end
$var parameter 32 [ SETTING_REFRESH_TIMER_NANO_SEC $end
$var parameter 32 \ SETTING_T_CK_MIN_CLOCK_CYCLE_TIME_NANO_SEC $end
$var parameter 32 ] SETTING_T_MRD_MIN_LOAD_MODE_CLOCK_CYCLES $end
$var parameter 32 ^ SETTING_T_RAS_MIN_ROW_ACTIVE_TIME_NANO_SEC $end
$var parameter 32 _ SETTING_T_RCD_MIN_READ_WRITE_DELAY_NANO_SEC $end
$var parameter 32 ` SETTING_T_RC_MIN_ACTIVE_TO_ACTIVE_PERIOD_NANO_SEC $end
$var parameter 32 a SETTING_T_RC_MIN_ROW_CYCLE_TIME_NANO_SEC $end
$var parameter 32 b SETTING_T_RFC_MIN_AUTOREFRESH_PERIOD_NANO_SEC $end
$var parameter 32 c SETTING_T_RP_MIN_PRECHARGE_CMD_PERIOD_NANO_SEC $end
$var parameter 32 d SETTING_T_WR_MIN_WRITE_AUTO_PRECHARGE_RECOVERY_NANO_SEC $end
$var parameter 32 e SETTING_USE_FAST_INPUT_REGISTER $end
$var parameter 32 f WRITE_BURST $end
$var reg 11 g SDRAM_A [10:0] $end
$var reg 2 h SDRAM_BA [1:0] $end
$var reg 1 + SDRAM_CKE $end
$var reg 4 i SDRAM_DQM [3:0] $end
$var reg 2 j active_port [1:0] $end
$var reg 32 k delay_counter [31:0] $end
$var reg 1 l dq_output $end
$var reg 21 m p0_addr_queue [20:0] $end
$var reg 4 n p0_byte_en_queue [3:0] $end
$var reg 32 o p0_data_queue [31:0] $end
$var reg 32 p p0_q [31:0] $end
$var reg 1 q p0_rd_queue $end
$var reg 1 $ p0_ready $end
$var reg 1 r p0_wr_queue $end
$var reg 4 s read_counter [3:0] $end
$var reg 16 t refresh_counter [15:0] $end
$var reg 32 u sdram_data [31:0] $end
$var reg 2 v current_io_operation [1:0] $end
$var reg 3 w delay_state [2:0] $end
$var reg 4 x sdram_command [3:0] $end
$var reg 3 y state [2:0] $end
$scope function get_active_port $end
$var reg 46 z selection [45:0] $end
$upscope $end
$scope begin $unm_blk_22 $end
$var reg 46 { active_port_entries [45:0] $end
$upscope $end
$scope begin $unm_blk_23 $end
$var reg 46 | active_port_entries [45:0] $end
$upscope $end
$scope task set_active_command $end
$var reg 21 } addr [20:0] $end
$var reg 2 ~ port [1:0] $end
$upscope $end
$upscope $end
$scope module sdram0 $end
$var wire 1 !" Active_enable $end
$var wire 11 "" Addr [10:0] $end
$var wire 1 #" Aref_enable $end
$var wire 2 $" Ba [1:0] $end
$var wire 1 %" Burst_length_1 $end
$var wire 1 &" Burst_length_2 $end
$var wire 1 '" Burst_length_4 $end
$var wire 1 (" Burst_length_8 $end
$var wire 1 )" Burst_length_f $end
$var wire 1 *" Burst_term $end
$var wire 1 +" Cas_latency_1 $end
$var wire 1 ," Cas_latency_2 $end
$var wire 1 -" Cas_latency_3 $end
$var wire 1 - Cas_n $end
$var wire 1 + Cke $end
$var wire 1 , Clk $end
$var wire 1 * Cs_n $end
$var wire 1 ." Debug $end
$var wire 32 /" Dq [31:0] $end
$var wire 1 0" Dq_chk $end
$var wire 32 1" Dq_o [31:0] $end
$var wire 4 2" Dqm [3:0] $end
$var wire 1 3" Mode_reg_enable $end
$var wire 1 4" Prech_enable $end
$var wire 1 # Ras_n $end
$var wire 1 5" Read_enable $end
$var wire 1 ! We_n $end
$var wire 1 6" Write_enable $end
$var wire 1 7" Write_burst_mode $end
$var parameter 32 8" addr_bits $end
$var parameter 32 9" col_bits $end
$var parameter 32 :" data_bits $end
$var parameter 32 ;" mem_sizes $end
$var real 1 <" tAC $end
$var real 1 =" tAH $end
$var real 1 >" tAS $end
$var real 1 ?" tCH $end
$var real 1 @" tCK $end
$var real 1 A" tCKH $end
$var real 1 B" tCKS $end
$var real 1 C" tCL $end
$var real 1 D" tCMH $end
$var real 1 E" tCMS $end
$var real 1 F" tDH $end
$var real 1 G" tDS $end
$var real 1 H" tHZ $end
$var real 1 I" tMRD $end
$var parameter 32 J" tOH $end
$var real 1 K" tRAS $end
$var real 1 L" tRC $end
$var real 1 M" tRCD $end
$var real 1 N" tRFC $end
$var real 1 O" tRP $end
$var real 1 P" tRRD $end
$var real 1 Q" tWRa $end
$var real 1 R" tWRm $end
$var reg 1 S" Act_b0 $end
$var reg 1 T" Act_b1 $end
$var reg 1 U" Act_b2 $end
$var reg 1 V" Act_b3 $end
$var reg 11 W" B0_row_addr [10:0] $end
$var reg 11 X" B1_row_addr [10:0] $end
$var reg 11 Y" B2_row_addr [10:0] $end
$var reg 11 Z" B3_row_addr [10:0] $end
$var reg 2 [" Bank [1:0] $end
$var reg 8 \" Burst_counter [7:0] $end
$var reg 1 ]" CkeZ $end
$var reg 8 ^" Col [7:0] $end
$var reg 8 _" Col_brst [7:0] $end
$var reg 8 `" Col_temp [7:0] $end
$var reg 1 a" Data_in_enable $end
$var reg 1 b" Data_out_enable $end
$var reg 32 c" Dq_dqm [31:0] $end
$var reg 32 d" Dq_reg [31:0] $end
$var reg 4 e" Dqm_reg0 [3:0] $end
$var reg 4 f" Dqm_reg1 [3:0] $end
$var reg 64 g" MRD_chk [63:0] $end
$var reg 11 h" Mode_reg [10:0] $end
$var reg 1 i" Pc_b0 $end
$var reg 1 j" Pc_b1 $end
$var reg 1 k" Pc_b2 $end
$var reg 1 l" Pc_b3 $end
$var reg 2 m" Prev_bank [1:0] $end
$var reg 64 n" RAS_chk0 [63:0] $end
$var reg 64 o" RAS_chk1 [63:0] $end
$var reg 64 p" RAS_chk2 [63:0] $end
$var reg 64 q" RAS_chk3 [63:0] $end
$var reg 64 r" RCD_chk0 [63:0] $end
$var reg 64 s" RCD_chk1 [63:0] $end
$var reg 64 t" RCD_chk2 [63:0] $end
$var reg 64 u" RCD_chk3 [63:0] $end
$var reg 64 v" RC_chk0 [63:0] $end
$var reg 64 w" RC_chk1 [63:0] $end
$var reg 64 x" RC_chk2 [63:0] $end
$var reg 64 y" RC_chk3 [63:0] $end
$var reg 64 z" RFC_chk [63:0] $end
$var reg 64 {" RP_chk0 [63:0] $end
$var reg 64 |" RP_chk1 [63:0] $end
$var reg 64 }" RP_chk2 [63:0] $end
$var reg 64 ~" RP_chk3 [63:0] $end
$var reg 64 !# RRD_chk [63:0] $end
$var reg 2 "# RW_interrupt_bank [1:0] $end
$var reg 11 ## Row [10:0] $end
$var reg 1 $# Sys_clk $end
$scope task Burst_decode $end
$upscope $end
$upscope $end
$upscope $end
$enddefinitions $end
$comment Show the parameter values. $end
$dumpall
r12 R"
r6 Q"
r12 P"
r18 O"
r60 N"
r18 M"
r60 L"
r42 K"
b11 J"
r2 I"
r5.4 H"
r1.5 G"
r1 F"
r1.5 E"
r1 D"
r2.5 C"
r1.5 B"
r1 A"
r6 @"
r2.5 ?"
r1.5 >"
r1 ="
r5.4 <"
b1111111111111111111 ;"
b100000 :"
b1000 9"
b1011 8"
b0 f
b1 e
b1111 d
b10010 c
b1010000 b
b111100 a
b111100 `
b10010 _
b110000 ^
b10 ]
b110 \
b1110101001100 [
b1100100 Z
b1011 Y
b11111 X
b1 W
b100 V
b100000 U
b1001110001001 T
b10011110010011 S
b10011110001010 R
b10011110000001 Q
b10011101110101 P
b1011101111 O
b1001 N
b10 M
b111 L
b100 K
b1000 J
b1100100 I
r10 H
b11 G
b0 F
b1 E
b10 D
$end
#0
$dumpvars
x$#
bx ##
bx "#
b0 !#
b0 ~"
b0 }"
b0 |"
b0 {"
b0 z"
b0 y"
b0 x"
b0 w"
b0 v"
b0 u"
b0 t"
b0 s"
b0 r"
b0 q"
b0 p"
b0 o"
b0 n"
bx m"
0l"
0k"
0j"
0i"
bx h"
b0 g"
bx f"
bx e"
bz d"
bx c"
0b"
0a"
bx `"
bx _"
bx ^"
x]"
bx \"
bx ["
bx Z"
bx Y"
bx X"
bx W"
1V"
1U"
1T"
1S"
x7"
06"
05"
04"
13"
bx 2"
bz 1"
00"
b0 /"
1."
x-"
x,"
x+"
0*"
x)"
x("
x'"
x&"
x%"
bx $"
0#"
bx ""
0!"
bx ~
bx }
bx |
bx {
bx z
b0 y
b0 x
b0 w
b0 v
b0 u
b0 t
b0 s
0r
0q
bx p
b0 o
b0 n
b0 m
0l
b0 k
b0 j
bx i
bx h
bx g
bz C
b0 B
0A
0@
0?
0>
b0 =
b0 <
0;
b0 :
b1000110000 9
b0 8
b0 7
16
05
04
b0 3
b0 2
b0 1
10
bx /
bx .
0-
0,
x+
0*
b0 )
bz (
bx '
0&
bx %
0$
0#
b0 "
0!
$end
#5000
1,
1A
00
#10000
0!"
03"
0#"
1#
1-
b111 "
1!
b0 %
b0 p
b111 x
b1 w
0+
0$#
0,
0A
10
#15000
b1 g"
0]"
x$#
1,
1A
00
#20000
0$#
0,
0A
10
#25000
1,
1A
00
#30000
0,
0A
10
#35000
1,
1A
00
#40000
b1 k
0,
0A
10
06
#45000
1,
1A
00
#50000
b10 k
0,
0A
10
#55000
1,
1A
00
#60000
b11 k
0,
0A
10
#65000
1,
1A
00
#70000
b100 k
0,
0A
10
#75000
1,
1A
00
#80000
b101 k
0,
0A
10
#85000
1,
1A
00
#90000
b110 k
0,
0A
10
#95000
1,
1A
00
#100000
b111 k
0,
0A
10
#105000
1,
1A
00
#110000
b1000 k
0,
0A
10
#115000
1,
1A
00
#120000
b1001 k
0,
0A
10
#125000
1,
1A
00
#130000
b1010 k
0,
0A
10
#135000
1,
1A
00
#140000
b1011 k
0,
0A
10
#145000
1,
1A
00
#150000
b1100 k
0,
0A
10
#155000
1,
1A
00
#160000
b1101 k
0,
0A
10
#165000
1,
1A
00
#170000
b1110 k
0,
0A
10
#175000
1,
1A
00
#180000
b1111 k
0,
0A
10
#185000
1,
1A
00
#190000
b10000 k
0,
0A
10
#195000
1,
1A
00
#200000
b10001 k
0,
0A
10
#205000
1,
1A
00
#210000
b10010 k
0,
0A
10
#215000
1,
1A
00
#220000
b10011 k
0,
0A
10
#225000
1,
1A
00
#230000
b10100 k
0,
0A
10
#235000
1,
1A
00
#240000
b10101 k
0,
0A
10
#245000
1,
1A
00
#250000
b10110 k
0,
0A
10
#255000
1,
1A
00
#260000
b10111 k
0,
0A
10
#265000
1,
1A
00
#270000
b11000 k
0,
0A
10
#275000
1,
1A
00
#280000
b11001 k
0,
0A
10
#285000
1,
1A
00
#290000
b11010 k
0,
0A
10
#295000
1,
1A
00
#300000
b11011 k
0,
0A
10
#305000
1,
1A
00
#310000
b11100 k
0,
0A
10
#315000
1,
1A
00
#320000
b11101 k
0,
0A
10
#325000
1,
1A
00
#330000
b11110 k
0,
0A
10
#335000
1,
1A
00
#340000
b11111 k
0,
0A
10
#345000
1,
1A
00
#350000
b100000 k
0,
0A
10
#355000
1,
1A
00
#360000
b100001 k
0,
0A
10
#365000
1,
1A
00
#370000
b100010 k
0,
0A
10
#375000
1,
1A
00
#380000
b100011 k
0,
0A
10
#385000
1,
1A
00
#390000
b100100 k
0,
0A
10
#395000
1,
1A
00
#400000
b100101 k
0,
0A
10
#405000
1,
1A
00
#410000
b100110 k
0,
0A
10
#415000
1,
1A
00
#420000
b100111 k
0,
0A
10
#425000
1,
1A
00
#430000
b101000 k
0,
0A
10
#435000
1,
1A
00
#440000
b101001 k
0,
0A
10
#445000
1,
1A
00
#450000
b101010 k
0,
0A
10
#455000
1,
1A
00
#460000
b101011 k
0,
0A
10
#465000
1,
1A
00
#470000
b101100 k
0,
0A
10
#475000
1,
1A
00
#480000
b101101 k
0,
0A
10
#485000
1,
1A
00
#490000
b101110 k
0,
0A
10
#495000
1,
1A
00
#500000
b101111 k
0,
0A
10
#505000
1,
1A
00
#510000
b110000 k
0,
0A
10
#515000
1,
1A
00
#520000
b110001 k
0,
0A
10
#525000
1,
1A
00
#530000
b110010 k
0,
0A
10
#535000
1,
1A
00
#540000
b110011 k
0,
0A
10
#545000
1,
1A
00
#550000
b110100 k
0,
0A
10
#555000
1,
1A
00
#560000
b110101 k
0,
0A
10
#565000
1,
1A
00
#570000
b110110 k
0,
0A
10
#575000
1,
1A
00
#580000
b110111 k
0,
0A
10
#585000
1,
1A
00
#590000
b111000 k
0,
0A
10
#595000
1,
1A
00
#600000
b111001 k
0,
0A
10
#605000
1,
1A
00
#610000
b111010 k
0,
0A
10
#615000
1,
1A
00
#620000
b111011 k
0,
0A
10
#625000
1,
1A
00
#630000
b111100 k
0,
0A
10
#635000
1,
1A
00
#640000
b111101 k
0,
0A
10
#645000
1,
1A
00
#650000
b111110 k
0,
0A
10
#655000
1,
1A
00
#660000
b111111 k
0,
0A
10
#665000
1,
1A
00
#670000
b1000000 k
0,
0A
10
#675000
1,
1A
00
#680000
b1000001 k
0,
0A
10
#685000
1,
1A
00
#690000
b1000010 k
0,
0A
10
#695000
1,
1A
00
#700000
b1000011 k
0,
0A
10
#705000
1,
1A
00
#710000
b1000100 k
0,
0A
10
#715000
1,
1A
00
#720000
b1000101 k
0,
0A
10
#725000
1,
1A
00
#730000
b1000110 k
0,
0A
10
#735000
1,
1A
00
#740000
b1000111 k
0,
0A
10
#745000
1,
1A
00
#750000
b1001000 k
0,
0A
10
#755000
1,
1A
00
#760000
b1001001 k
0,
0A
10
#765000
1,
1A
00
#770000
b1001010 k
0,
0A
10
#775000
1,
1A
00
#780000
b1001011 k
0,
0A
10
#785000
1,
1A
00
#790000
b1001100 k
0,
0A
10
#795000
1,
1A
00
#800000
b1001101 k
0,
0A
10
#805000
1,
1A
00
#810000
b1001110 k
0,
0A
10
#815000
1,
1A
00
#820000
b1001111 k
0,
0A
10
#825000
1,
1A
00
#830000
b1010000 k
0,
0A
10
#835000
1,
1A
00
#840000
b1010001 k
0,
0A
10
#845000
1,
1A
00
#850000
b1010010 k
0,
0A
10
#855000
1,
1A
00
#860000
b1010011 k
0,
0A
10
#865000
1,
1A
00
#870000
b1010100 k
0,
0A
10
#875000
1,
1A
00
#880000
b1010101 k
0,
0A
10
#885000
1,
1A
00
#890000
b1010110 k
0,
0A
10
#895000
1,
1A
00
#900000
b1010111 k
0,
0A
10
#905000
1,
1A
00
#910000
b1011000 k
0,
0A
10
#915000
1,
1A
00
#920000
b1011001 k
0,
0A
10
#925000
1,
1A
00
#930000
b1011010 k
0,
0A
10
#935000
1,
1A
00
#940000
b1011011 k
0,
0A
10
#945000
1,
1A
00
#950000
b1011100 k
0,
0A
10
#955000
1,
1A
00
#960000
b1011101 k
0,
0A
10
#965000
1,
1A
00
#970000
b1011110 k
0,
0A
10
#975000
1,
1A
00
#980000
b1011111 k
0,
0A
10
#985000
1,
1A
00
#990000
b1100000 k
0,
0A
10
#995000
1,
1A
00
#1000000
b1100001 k
0,
0A
10
#1005000
1,
1A
00
#1010000
b1100010 k
0,
0A
10
#1015000
1,
1A
00
#1020000
b1100011 k
0,
0A
10
#1025000
1,
1A
00
#1030000
b1100100 k
0,
0A
10
#1035000
1,
1A
00
#1040000
b1100101 k
0,
0A
10
#1045000
1,
1A
00
#1050000
b1100110 k
0,
0A
10
#1055000
1,
1A
00
#1060000
b1100111 k
0,
0A
10
#1065000
1,
1A
00
#1070000
b1101000 k
0,
0A
10
#1075000
1,
1A
00
#1080000
b1101001 k
0,
0A
10
#1085000
1,
1A
00
#1090000
b1101010 k
0,
0A
10
#1095000
1,
1A
00
#1100000
b1101011 k
0,
0A
10
#1105000
1,
1A
00
#1110000
b1101100 k
0,
0A
10
#1115000
1,
1A
00
#1120000
b1101101 k
0,
0A
10
#1125000
1,
1A
00
#1130000
b1101110 k
0,
0A
10
#1135000
1,
1A
00
#1140000
b1101111 k
0,
0A
10
#1145000
1,
1A
00
#1150000
b1110000 k
0,
0A
10
#1155000
1,
1A
00
#1160000
b1110001 k
0,
0A
10
#1165000
1,
1A
00
#1170000
b1110010 k
0,
0A
10
#1175000
1,
1A
00
#1180000
b1110011 k
0,
0A
10
#1185000
1,
1A
00
#1190000
b1110100 k
0,
0A
10
#1195000
1,
1A
00
#1200000
b1110101 k
0,
0A
10
#1205000
1,
1A
00
#1210000
b1110110 k
0,
0A
10
#1215000
1,
1A
00
#1220000
b1110111 k
0,
0A
10
#1225000
1,
1A
00
#1230000
b1111000 k
0,
0A
10
#1235000
1,
1A
00
#1240000
b1111001 k
0,
0A
10
#1245000
1,
1A
00
#1250000
b1111010 k
0,
0A
10
#1255000
1,
1A
00
#1260000
b1111011 k
0,
0A
10
#1265000
1,
1A
00
#1270000
b1111100 k
0,
0A
10
#1275000
1,
1A
00
#1280000
b1111101 k
0,
0A
10
#1285000
1,
1A
00
#1290000
b1111110 k
0,
0A
10
#1295000
1,
1A
00
#1300000
b1111111 k
0,
0A
10
#1305000
1,
1A
00
#1310000
b10000000 k
0,
0A
10
#1315000
1,
1A
00
#1320000
b10000001 k
0,
0A
10
#1325000
1,
1A
00
#1330000
b10000010 k
0,
0A
10
#1335000
1,
1A
00
#1340000
b10000011 k
0,
0A
10
#1345000
1,
1A
00
#1350000
b10000100 k
0,
0A
10
#1355000
1,
1A
00
#1360000
b10000101 k
0,
0A
10
#1365000
1,
1A
00
#1370000
b10000110 k
0,
0A
10
#1375000
1,
1A
00
#1380000
b10000111 k
0,
0A
10
#1385000
1,
1A
00
#1390000
b10001000 k
0,
0A
10
#1395000
1,
1A
00
#1400000
b10001001 k
0,
0A
10
#1405000
1,
1A
00
#1410000
b10001010 k
0,
0A
10
#1415000
1,
1A
00
#1420000
b10001011 k
0,
0A
10
#1425000
1,
1A
00
#1430000
b10001100 k
0,
0A
10
#1435000
1,
1A
00
#1440000
b10001101 k
0,
0A
10
#1445000
1,
1A
00
#1450000
b10001110 k
0,
0A
10
#1455000
1,
1A
00
#1460000
b10001111 k
0,
0A
10
#1465000
1,
1A
00
#1470000
b10010000 k
0,
0A
10
#1475000
1,
1A
00
#1480000
b10010001 k
0,
0A
10
#1485000
1,
1A
00
#1490000
b10010010 k
0,
0A
10
#1495000
1,
1A
00
#1500000
b10010011 k
0,
0A
10
#1505000
1,
1A
00
#1510000
b10010100 k
0,
0A
10
#1515000
1,
1A
00
#1520000
b10010101 k
0,
0A
10
#1525000
1,
1A
00
#1530000
b10010110 k
0,
0A
10
#1535000
1,
1A
00
#1540000
b10010111 k
0,
0A
10
#1545000
1,
1A
00
#1550000
b10011000 k
0,
0A
10
#1555000
1,
1A
00
#1560000
b10011001 k
0,
0A
10
#1565000
1,
1A
00
#1570000
b10011010 k
0,
0A
10
#1575000
1,
1A
00
#1580000
b10011011 k
0,
0A
10
#1585000
1,
1A
00
#1590000
b10011100 k
0,
0A
10
#1595000
1,
1A
00
#1600000
b10011101 k
0,
0A
10
#1605000
1,
1A
00
#1610000
b10011110 k
0,
0A
10
#1615000
1,
1A
00
#1620000
b10011111 k
0,
0A
10
#1625000
1,
1A
00
#1630000
b10100000 k
0,
0A
10
#1635000
1,
1A
00
#1640000
b10100001 k
0,
0A
10
#1645000
1,
1A
00
#1650000
b10100010 k
0,
0A
10
#1655000
1,
1A
00
#1660000
b10100011 k
0,
0A
10
#1665000
1,
1A
00
#1670000
b10100100 k
0,
0A
10
#1675000
1,
1A
00
#1680000
b10100101 k
0,
0A
10
#1685000
1,
1A
00
#1690000
b10100110 k
0,
0A
10
#1695000
1,
1A
00
#1700000
b10100111 k
0,
0A
10
#1705000
1,
1A
00
#1710000
b10101000 k
0,
0A
10
#1715000
1,
1A
00
#1720000
b10101001 k
0,
0A
10
#1725000
1,
1A
00
#1730000
b10101010 k
0,
0A
10
#1735000
1,
1A
00
#1740000
b10101011 k
0,
0A
10
#1745000
1,
1A
00
#1750000
b10101100 k
0,
0A
10
#1755000
1,
1A
00
#1760000
b10101101 k
0,
0A
10
#1765000
1,
1A
00
#1770000
b10101110 k
0,
0A
10
#1775000
1,
1A
00
#1780000
b10101111 k
0,
0A
10
#1785000
1,
1A
00
#1790000
b10110000 k
0,
0A
10
#1795000
1,
1A
00
#1800000
b10110001 k
0,
0A
10
#1805000
1,
1A
00
#1810000
b10110010 k
0,
0A
10
#1815000
1,
1A
00
#1820000
b10110011 k
0,
0A
10
#1825000
1,
1A
00
#1830000
b10110100 k
0,
0A
10
#1835000
1,
1A
00
#1840000
b10110101 k
0,
0A
10
#1845000
1,
1A
00
#1850000
b10110110 k
0,
0A
10
#1855000
1,
1A
00
#1860000
b10110111 k
0,
0A
10
#1865000
1,
1A
00
#1870000
b10111000 k
0,
0A
10
#1875000
1,
1A
00
#1880000
b10111001 k
0,
0A
10
#1885000
1,
1A
00
#1890000
b10111010 k
0,
0A
10
#1895000
1,
1A
00
#1900000
b10111011 k
0,
0A
10
#1905000
1,
1A
00
#1910000
b10111100 k
0,
0A
10
#1915000
1,
1A
00
#1920000
b10111101 k
0,
0A
10
#1925000
1,
1A
00
#1930000
b10111110 k
0,
0A
10
#1935000
1,
1A
00
#1940000
b10111111 k
0,
0A
10
#1945000
1,
1A
00
#1950000
b11000000 k
0,
0A
10
#1955000
1,
1A
00
#1960000
b11000001 k
0,
0A
10
#1965000
1,
1A
00
#1970000
b11000010 k
0,
0A
10
#1975000
1,
1A
00
#1980000
b11000011 k
0,
0A
10
#1985000
1,
1A
00
#1990000
b11000100 k
0,
0A
10
#1995000
1,
1A
00
#2000000
b11000101 k
0,
0A
10
#2005000
1,
1A
00
#2010000
b11000110 k
0,
0A
10
#2015000
1,
1A
00
#2020000
b11000111 k
0,
0A
10
#2025000
1,
1A
00
#2030000
b11001000 k
0,
0A
10
#2035000
1,
1A
00
#2040000
b11001001 k
0,
0A
10
#2045000
1,
1A
00
#2050000
b11001010 k
0,
0A
10
#2055000
1,
1A
00
#2060000
b11001011 k
0,
0A
10
#2065000
1,
1A
00
#2070000
b11001100 k
0,
0A
10
#2075000
1,
1A
00
#2080000
b11001101 k
0,
0A
10
#2085000
1,
1A
00
#2090000
b11001110 k
0,
0A
10
#2095000
1,
1A
00
#2100000
b11001111 k
0,
0A
10
#2105000
1,
1A
00
#2110000
b11010000 k
0,
0A
10
#2115000
1,
1A
00
#2120000
b11010001 k
0,
0A
10
#2125000
1,
1A
00
#2130000
b11010010 k
0,
0A
10
#2135000
1,
1A
00
#2140000
b11010011 k
0,
0A
10
#2145000
1,
1A
00
#2150000
b11010100 k
0,
0A
10
#2155000
1,
1A
00
#2160000
b11010101 k
0,
0A
10
#2165000
1,
1A
00
#2170000
b11010110 k
0,
0A
10
#2175000
1,
1A
00
#2180000
b11010111 k
0,
0A
10
#2185000
1,
1A
00
#2190000
b11011000 k
0,
0A
10
#2195000
1,
1A
00
#2200000
b11011001 k
0,
0A
10
#2205000
1,
1A
00
#2210000
b11011010 k
0,
0A
10
#2215000
1,
1A
00
#2220000
b11011011 k
0,
0A
10
#2225000
1,
1A
00
#2230000
b11011100 k
0,
0A
10
#2235000
1,
1A
00
#2240000
b11011101 k
0,
0A
10
#2245000
1,
1A
00
#2250000
b11011110 k
0,
0A
10
#2255000
1,
1A
00
#2260000
b11011111 k
0,
0A
10
#2265000
1,
1A
00
#2270000
b11100000 k
0,
0A
10
#2275000
1,
1A
00
#2280000
b11100001 k
0,
0A
10
#2285000
1,
1A
00
#2290000
b11100010 k
0,
0A
10
#2295000
1,
1A
00
#2300000
b11100011 k
0,
0A
10
#2305000
1,
1A
00
#2310000
b11100100 k
0,
0A
10
#2315000
1,
1A
00
#2320000
b11100101 k
0,
0A
10
#2325000
1,
1A
00
#2330000
b11100110 k
0,
0A
10
#2335000
1,
1A
00
#2340000
b11100111 k
0,
0A
10
#2345000
1,
1A
00
#2350000
b11101000 k
0,
0A
10
#2355000
1,
1A
00
#2360000
b11101001 k
0,
0A
10
#2365000
1,
1A
00
#2370000
b11101010 k
0,
0A
10
#2375000
1,
1A
00
#2380000
b11101011 k
0,
0A
10
#2385000
1,
1A
00
#2390000
b11101100 k
0,
0A
10
#2395000
1,
1A
00
#2400000
b11101101 k
0,
0A
10
#2405000
1,
1A
00
#2410000
b11101110 k
0,
0A
10
#2415000
1,
1A
00
#2420000
b11101111 k
0,
0A
10
#2425000
1,
1A
00
#2430000
b11110000 k
0,
0A
10
#2435000
1,
1A
00
#2440000
b11110001 k
0,
0A
10
#2445000
1,
1A
00
#2450000
b11110010 k
0,
0A
10
#2455000
1,
1A
00
#2460000
b11110011 k
0,
0A
10
#2465000
1,
1A
00
#2470000
b11110100 k
0,
0A
10
#2475000
1,
1A
00
#2480000
b11110101 k
0,
0A
10
#2485000
1,
1A
00
#2490000
b11110110 k
0,
0A
10
#2495000
1,
1A
00
#2500000
b11110111 k
0,
0A
10
#2505000
1,
1A
00
#2510000
b11111000 k
0,
0A
10
#2515000
1,
1A
00
#2520000
b11111001 k
0,
0A
10
#2525000
1,
1A
00
#2530000
b11111010 k
0,
0A
10
#2535000
1,
1A
00
#2540000
b11111011 k
0,
0A
10
#2545000
1,
1A
00
#2550000
b11111100 k
0,
0A
10
#2555000
1,
1A
00
#2560000
b11111101 k
0,
0A
10
#2565000
1,
1A
00
#2570000
b11111110 k
0,
0A
10
#2575000
1,
1A
00
#2580000
b11111111 k
0,
0A
10
#2585000
1,
1A
00
#2590000
b100000000 k
0,
0A
10
#2595000
1,
1A
00
#2600000
b100000001 k
0,
0A
10
#2605000
1,
1A
00
#2610000
b100000010 k
0,
0A
10
#2615000
1,
1A
00
#2620000
b100000011 k
0,
0A
10
#2625000
1,
1A
00
#2630000
b100000100 k
0,
0A
10
#2635000
1,
1A
00
#2640000
b100000101 k
0,
0A
10
#2645000
1,
1A
00
#2650000
b100000110 k
0,
0A
10
#2655000
1,
1A
00
#2660000
b100000111 k
0,
0A
10
#2665000
1,
1A
00
#2670000
b100001000 k
0,
0A
10
#2675000
1,
1A
00
#2680000
b100001001 k
0,
0A
10
#2685000
1,
1A
00
#2690000
b100001010 k
0,
0A
10
#2695000
1,
1A
00
#2700000
b100001011 k
0,
0A
10
#2705000
1,
1A
00
#2710000
b100001100 k
0,
0A
10
#2715000
1,
1A
00
#2720000
b100001101 k
0,
0A
10
#2725000
1,
1A
00
#2730000
b100001110 k
0,
0A
10
#2735000
1,
1A
00
#2740000
b100001111 k
0,
0A
10
#2745000
1,
1A
00
#2750000
b100010000 k
0,
0A
10
#2755000
1,
1A
00
#2760000
b100010001 k
0,
0A
10
#2765000
1,
1A
00
#2770000
b100010010 k
0,
0A
10
#2775000
1,
1A
00
#2780000
b100010011 k
0,
0A
10
#2785000
1,
1A
00
#2790000
b100010100 k
0,
0A
10
#2795000
1,
1A
00
#2800000
b100010101 k
0,
0A
10
#2805000
1,
1A
00
#2810000
b100010110 k
0,
0A
10
#2815000
1,
1A
00
#2820000
b100010111 k
0,
0A
10
#2825000
1,
1A
00
