test/sdram32_tb.vcd
$date
	Sun Oct 29 15:43:42 2023
$end
$version
	Icarus Verilog
$end
$timescale
	1ps
$end
$scope module sdram32_tb $end
$var wire 32 ! dq [31:0] $end
$var wire 1 " p0_available $end
$var wire 32 # p0_q [31:0] $end
$var wire 1 $ p0_ready $end
$var wire 1 % p1_available $end
$var wire 32 & p1_q [31:0] $end
$var wire 1 ' p1_ready $end
$var wire 1 ( we_n $end
$var wire 3 ) sdram_cmd [2:0] $end
$var wire 1 * ras_n $end
$var wire 1 + init_complete $end
$var wire 4 , dqm [3:0] $end
$var wire 1 - cs_n $end
$var wire 1 . cke $end
$var wire 1 / chip_clk $end
$var wire 1 0 cas_n $end
$var wire 2 1 ba [1:0] $end
$var wire 11 2 addr [10:0] $end
$var parameter 32 3 DATA_WIDTH $end
$var parameter 32 4 DQM_WIDTH $end
$var parameter 32 5 NUM_PORTS $end
$var parameter 32 6 PORT_ADDR_WIDTH $end
$var parameter 32 7 PORT_OUTPUT_WIDTH $end
$var reg 1 8 clk $end
$var reg 21 9 p0_addr [20:0] $end
$var reg 4 : p0_byte_en [3:0] $end
$var reg 32 ; p0_data [31:0] $end
$var reg 1 < p0_rd_req $end
$var reg 1 = p0_wr_req $end
$var reg 21 > p1_addr [20:0] $end
$var reg 4 ? p1_byte_en [3:0] $end
$var reg 32 @ p1_data [31:0] $end
$var reg 1 A p1_rd_req $end
$var reg 1 B p1_wr_req $end
$var reg 1 C reset $end
$scope module sdram $end
$var wire 1 / SDRAM_CLK $end
$var wire 32 D SDRAM_DQ [31:0] $end
$var wire 1 8 clk $end
$var wire 3 E concrete_burst_length [2:0] $end
$var wire 13 F configured_mode [12:0] $end
$var wire 1 C reset $end
$var wire 1 G sdram_clk $end
$var wire 1 + init_complete $end
$var wire 1 ( SDRAM_nWE $end
$var wire 1 * SDRAM_nRAS $end
$var wire 1 - SDRAM_nCS $end
$var wire 1 0 SDRAM_nCAS $end
$var parameter 32 H BANK_WIDTH $end
$var parameter 32 I BURST_LENGTH $end
$var parameter 32 J BURST_TYPE $end
$var parameter 32 K CAS_LATENCY $end
$var real 1 L CLOCK_PERIOD_NANO_SEC $end
$var parameter 32 M CLOCK_SPEED_MHZ $end
$var parameter 32 N COL_WIDTH $end
$var parameter 33 O CYCLES_AFTER_WRITE_FOR_NEXT_COMMAND $end
$var parameter 33 P CYCLES_BETWEEN_ACTIVE_COMMAND $end
$var parameter 33 Q CYCLES_FOR_ACTIVE_ROW $end
$var parameter 33 R CYCLES_FOR_AUTOREFRESH $end
$var parameter 33 S CYCLES_PER_REFRESH $end
$var parameter 34 T CYCLES_UNTIL_CLEAR_INHIBIT $end
$var parameter 36 U CYCLES_UNTIL_INIT_PRECHARGE_END $end
$var parameter 37 V CYCLES_UNTIL_REFRESH1_END $end
$var parameter 38 W CYCLES_UNTIL_REFRESH2_END $end
$var parameter 33 X CYCLES_UNTIL_START_INHIBIT $end
$var parameter 32 Y DATA_WIDTH $end
$var parameter 32 Z DQM_WIDTH $end
$var parameter 32 [ NUM_PORTS $end
$var parameter 32 \ PORT_ADDR_WIDTH $end
$var parameter 33 ] PORT_BITS $end
$var parameter 32 ^ PORT_BURST_LENGTH $end
$var parameter 32 _ PORT_OUTPUT_WIDTH $end
$var parameter 32 ` PRECHARGE_BIT $end
$var parameter 32 a ROW_WIDTH $end
$var parameter 32 b SETTING_INHIBIT_DELAY_MICRO_SEC $end
$var parameter 32 c SETTING_REFRESH_TIMER_NANO_SEC $end
$var parameter 32 d SETTING_T_CK_MIN_CLOCK_CYCLE_TIME_NANO_SEC $end
$var parameter 32 e SETTING_T_MRD_MIN_LOAD_MODE_CLOCK_CYCLES $end
$var parameter 32 f SETTING_T_RAS_MIN_ROW_ACTIVE_TIME_NANO_SEC $end
$var parameter 32 g SETTING_T_RCD_MIN_READ_WRITE_DELAY_NANO_SEC $end
$var parameter 32 h SETTING_T_RC_MIN_ACTIVE_TO_ACTIVE_PERIOD_NANO_SEC $end
$var parameter 32 i SETTING_T_RC_MIN_ROW_CYCLE_TIME_NANO_SEC $end
$var parameter 32 j SETTING_T_RFC_MIN_AUTOREFRESH_PERIOD_NANO_SEC $end
$var parameter 32 k SETTING_T_RP_MIN_PRECHARGE_CMD_PERIOD_NANO_SEC $end
$var parameter 32 l SETTING_T_WR_MIN_WRITE_AUTO_PRECHARGE_RECOVERY_NANO_SEC $end
$var parameter 32 m SETTING_USE_FAST_INPUT_REGISTER $end
$var parameter 32 n WRITE_BURST $end
$var reg 11 o SDRAM_A [10:0] $end
$var reg 2 p SDRAM_BA [1:0] $end
$var reg 1 . SDRAM_CKE $end
$var reg 4 q SDRAM_DQM [3:0] $end
$var reg 1 r active_port $end
$var reg 32 s delay_counter [31:0] $end
$var reg 1 t dq_output $end
$var reg 4 u read_counter [3:0] $end
$var reg 16 v refresh_counter [15:0] $end
$var reg 32 w sdram_data [31:0] $end
$var reg 32 x sdram_dq_reg [31:0] $end
$var reg 2 y current_io_operation [1:0] $end
$var reg 3 z delay_state [2:0] $end
$var reg 4 { sdram_command [3:0] $end
$var reg 3 | state [2:0] $end
$scope function get_active_port $end
$var reg 44 } selection [43:0] $end
$upscope $end
$scope function get_priority_port $end
$scope begin $ivl_for_loop0 $end
$upscope $end
$upscope $end
$scope function port_rd_pending $end
$scope begin $ivl_for_loop2 $end
$var integer 32 ~ i [31:0] $end
$upscope $end
$upscope $end
$scope function port_wr_pending $end
$scope begin $ivl_for_loop1 $end
$var integer 32 !" i [31:0] $end
$upscope $end
$upscope $end
$scope begin port_loop[0] $end
$var parameter 2 "" i $end
$upscope $end
$scope begin port_loop[1] $end
$var parameter 2 #" i $end
$upscope $end
$scope begin $ivl_for_loop3 $end
$var integer 32 $" i [31:0] $end
$upscope $end
$scope begin $ivl_for_loop4 $end
$var integer 32 %" i [31:0] $end
$upscope $end
$scope begin $ivl_for_loop5 $end
$var integer 32 &" i [31:0] $end
$upscope $end
$scope begin $unm_blk_30 $end
$var reg 44 '" active_port_entries [43:0] $end
$upscope $end
$scope begin $unm_blk_31 $end
$var reg 44 (" active_port_entries [43:0] $end
$upscope $end
$scope begin $unm_blk_34 $end
$var reg 4 )" expected_count [3:0] $end
$var reg 256 *" temp [255:0] $end
$upscope $end
$scope task set_active_command $end
$var reg 1 +" port $end
$upscope $end
$upscope $end
$scope module sdram0 $end
$var wire 1 ," Active_enable $end
$var wire 11 -" Addr [10:0] $end
$var wire 1 ." Aref_enable $end
$var wire 2 /" Ba [1:0] $end
$var wire 1 0" Burst_length_1 $end
$var wire 1 1" Burst_length_2 $end
$var wire 1 2" Burst_length_4 $end
$var wire 1 3" Burst_length_8 $end
$var wire 1 4" Burst_length_f $end
$var wire 1 5" Burst_term $end
$var wire 1 6" Cas_latency_1 $end
$var wire 1 7" Cas_latency_2 $end
$var wire 1 8" Cas_latency_3 $end
$var wire 1 0 Cas_n $end
$var wire 1 . Cke $end
$var wire 1 / Clk $end
$var wire 1 - Cs_n $end
$var wire 1 9" Debug $end
$var wire 32 :" Dq [31:0] $end
$var wire 1 ;" Dq_chk $end
$var wire 4 <" Dqm [3:0] $end
$var wire 1 =" Mode_reg_enable $end
$var wire 1 >" Prech_enable $end
$var wire 1 * Ras_n $end
$var wire 1 ?" Read_enable $end
$var wire 1 ( We_n $end
$var wire 1 @" Write_enable $end
$var wire 1 A" Write_burst_mode $end
$var parameter 32 B" addr_bits $end
$var parameter 32 C" col_bits $end
$var parameter 32 D" data_bits $end
$var parameter 32 E" mem_sizes $end
$var real 1 F" tAC $end
$var real 1 G" tAH $end
$var real 1 H" tAS $end
$var real 1 I" tCH $end
$var real 1 J" tCK $end
$var real 1 K" tCKH $end
$var real 1 L" tCKS $end
$var real 1 M" tCL $end
$var real 1 N" tCMH $end
$var real 1 O" tCMS $end
$var real 1 P" tDH $end
$var real 1 Q" tDS $end
$var real 1 R" tHZ $end
$var real 1 S" tMRD $end
$var real 1 T" tOH $end
$var real 1 U" tRAS $end
$var real 1 V" tRC $end
$var real 1 W" tRCD $end
$var real 1 X" tRFC $end
$var real 1 Y" tRP $end
$var real 1 Z" tRRD $end
$var real 1 [" tWRa $end
$var real 1 \" tWRm $end
$var reg 1 ]" Act_b0 $end
$var reg 1 ^" Act_b1 $end
$var reg 1 _" Act_b2 $end
$var reg 1 `" Act_b3 $end
$var reg 11 a" B0_row_addr [10:0] $end
$var reg 11 b" B1_row_addr [10:0] $end
$var reg 11 c" B2_row_addr [10:0] $end
$var reg 11 d" B3_row_addr [10:0] $end
$var reg 2 e" Bank [1:0] $end
$var reg 8 f" Burst_counter [7:0] $end
$var reg 1 g" CkeZ $end
$var reg 8 h" Col [7:0] $end
$var reg 8 i" Col_brst [7:0] $end
$var reg 8 j" Col_temp [7:0] $end
$var reg 1 k" Data_in_enable $end
$var reg 1 l" Data_out_enable $end
$var reg 32 m" Dq_dqm [31:0] $end
$var reg 32 n" Dq_reg [31:0] $end
$var reg 4 o" Dqm_reg0 [3:0] $end
$var reg 4 p" Dqm_reg1 [3:0] $end
$var reg 64 q" MRD_chk [63:0] $end
$var reg 11 r" Mode_reg [10:0] $end
$var reg 1 s" Pc_b0 $end
$var reg 1 t" Pc_b1 $end
$var reg 1 u" Pc_b2 $end
$var reg 1 v" Pc_b3 $end
$var reg 2 w" Prev_bank [1:0] $end
$var reg 64 x" RAS_chk0 [63:0] $end
$var reg 64 y" RAS_chk1 [63:0] $end
$var reg 64 z" RAS_chk2 [63:0] $end
$var reg 64 {" RAS_chk3 [63:0] $end
$var reg 64 |" RCD_chk0 [63:0] $end
$var reg 64 }" RCD_chk1 [63:0] $end
$var reg 64 ~" RCD_chk2 [63:0] $end
$var reg 64 !# RCD_chk3 [63:0] $end
$var reg 64 "# RC_chk0 [63:0] $end
$var reg 64 ## RC_chk1 [63:0] $end
$var reg 64 $# RC_chk2 [63:0] $end
$var reg 64 %# RC_chk3 [63:0] $end
$var reg 64 &# RFC_chk [63:0] $end
$var reg 64 '# RP_chk0 [63:0] $end
$var reg 64 (# RP_chk1 [63:0] $end
$var reg 64 )# RP_chk2 [63:0] $end
$var reg 64 *# RP_chk3 [63:0] $end
$var reg 64 +# RRD_chk [63:0] $end
$var reg 2 ,# RW_interrupt_bank [1:0] $end
$var reg 11 -# Row [10:0] $end
$var reg 1 .# Sys_clk $end
$scope task Burst_decode $end
$upscope $end
$upscope $end
$upscope $end
$enddefinitions $end
$comment Show the parameter values. $end
$dumpall
r12 \"
r6 ["
r12 Z"
r18 Y"
r60 X"
r18 W"
r60 V"
r42 U"
r2.5 T"
r2 S"
r5.5 R"
r1.5 Q"
r1 P"
r1.5 O"
r1 N"
r2.5 M"
r1.5 L"
r1 K"
r6 J"
r2.5 I"
r1.5 H"
r1 G"
r5.5 F"
b1111111111111111111 E"
b100000 D"
b1000 C"
b1011 B"
b1 #"
b0 ""
b0 n
b1 m
b10000 l
b10010 k
b1010000 j
b111100 i
b111100 h
b10010 g
b110000 f
b10 e
b110 d
b11101010011000 c
b1100100 b
b1011 a
b1010 `
b100000 _
b1 ^
b0 ]
b10101 \
b10 [
b100 Z
b100000 Y
b1001110001001 X
b10011110010011 W
b10011110001010 V
b10011110000001 U
b10011101110101 T
b10111011101 S
b1001 R
b10 Q
b111 P
b100 O
b1000 N
b1100100 M
r10 L
b10 K
b0 J
b1 I
b10 H
b100000 7
b10101 6
b10 5
b100 4
b100000 3
$end
#0
$dumpvars
x.#
bx -#
bx ,#
b0 +#
b0 *#
b0 )#
b0 (#
b0 '#
b0 &#
b0 %#
b0 $#
b0 ##
b0 "#
b0 !#
b0 ~"
b0 }"
b0 |"
b0 {"
b0 z"
b0 y"
b0 x"
bx w"
0v"
0u"
0t"
0s"
bx r"
b0 q"
bx p"
bx o"
bz n"
bx m"
0l"
0k"
bx j"
bx i"
bx h"
xg"
bx f"
bx e"
bx d"
bx c"
bx b"
bx a"
1`"
1_"
1^"
1]"
xA"
0@"
0?"
0>"
1="
bx <"
0;"
bz :"
19"
x8"
x7"
x6"
05"
x4"
x3"
x2"
x1"
x0"
bx /"
0."
bx -"
0,"
x+"
bx *"
bx )"
bx ("
bx '"
b0 &"
b0 %"
b0 $"
b0 !"
b0 ~
bx }
b0 |
b0 {
b0 z
b0 y
bx x
b0 w
b0 v
b0 u
0t
b0 s
0r
bx q
bx p
bx o
0G
b1000100000 F
b0 E
bz D
1C
0B
0A
b0 @
b0 ?
b0 >
0=
0<
b0 ;
b0 :
b0 9
18
bx 2
bx 1
00
0/
x.
0-
bx ,
0+
0*
b0 )
0(
x'
bx &
0%
x$
bx #
0"
bz !
$end
#5000
bz x
1/
1G
08
#10000
0,"
0="
0."
1*
10
b111 )
1(
b0 &
0'
b0 #
0$
b111 {
b1 z
0.
0.#
b10 $"
0/
0G
18
#15000
b1 q"
0g"
x.#
1/
1G
08
#20000
0.#
b10 $"
0/
0G
18
#25000
1/
1G
08
#30000
b10 $"
0/
0G
18
#35000
1/
1G
08
#40000
b1 s
b10 %"
0/
0G
18
0C
#45000
1/
1G
08
#50000
b10 s
b10 %"
0/
0G
18
#55000
1/
1G
08
#60000
b11 s
b10 %"
0/
0G
18
#65000
1/
1G
08
#70000
b100 s
b10 %"
0/
0G
18
#75000
1/
1G
08
#80000
b101 s
b10 %"
0/
0G
18
#85000
1/
1G
08
#90000
b110 s
b10 %"
0/
0G
18
#95000
1/
1G
08
#100000
b111 s
b10 %"
0/
0G
18
#105000
1/
1G
08
#110000
b1000 s
b10 %"
0/
0G
18
#115000
1/
1G
08
#120000
b1001 s
b10 %"
0/
0G
18
#125000
1/
1G
08
#130000
b1010 s
b10 %"
0/
0G
18
#135000
1/
1G
08
#140000
b1011 s
b10 %"
0/
0G
18
#145000
1/
1G
08
#150000
b1100 s
b10 %"
0/
0G
18
#155000
1/
1G
08
#160000
b1101 s
b10 %"
0/
0G
18
#165000
1/
1G
08
#170000
b1110 s
b10 %"
0/
0G
18
#175000
1/
1G
08
#180000
b1111 s
b10 %"
0/
0G
18
#185000
1/
1G
08
#190000
b10000 s
b10 %"
0/
0G
18
#195000
1/
1G
08
#200000
b10001 s
b10 %"
0/
0G
18
#205000
1/
1G
08
#210000
b10010 s
b10 %"
0/
0G
18
#215000
1/
1G
08
#220000
b10011 s
b10 %"
0/
0G
18
#225000
1/
1G
08
#230000
b10100 s
b10 %"
0/
0G
18
#235000
1/
1G
08
#240000
b10101 s
b10 %"
0/
0G
18
#245000
1/
1G
08
#250000
b10110 s
b10 %"
0/
0G
18
#255000
1/
1G
08
#260000
b10111 s
b10 %"
0/
0G
18
#265000
1/
1G
08
#270000
b11000 s
b10 %"
0/
0G
18
#275000
1/
1G
08
#280000
b11001 s
b10 %"
0/
0G
18
#285000
1/
1G
08
#290000
b11010 s
b10 %"
0/
0G
18
#295000
1/
1G
08
#300000
b11011 s
b10 %"
0/
0G
18
#305000
1/
1G
08
#310000
b11100 s
b10 %"
0/
0G
18
#315000
1/
1G
08
#320000
b11101 s
b10 %"
0/
0G
18
#325000
1/
1G
08
#330000
b11110 s
b10 %"
0/
0G
18
#335000
1/
1G
08
#340000
b11111 s
b10 %"
0/
0G
18
#345000
1/
1G
08
#350000
b100000 s
b10 %"
0/
0G
18
#355000
1/
1G
08
#360000
b100001 s
b10 %"
0/
0G
18
#365000
1/
1G
08
#370000
b100010 s
b10 %"
0/
0G
18
#375000
1/
1G
08
#380000
b100011 s
b10 %"
0/
0G
18
#385000
1/
1G
08
#390000
b100100 s
b10 %"
0/
0G
18
#395000
1/
1G
08
#400000
b100101 s
b10 %"
0/
0G
18
#405000
1/
1G
08
#410000
b100110 s
b10 %"
0/
0G
18
#415000
1/
1G
08
#420000
b100111 s
b10 %"
0/
0G
18
#425000
1/
1G
08
#430000
b101000 s
b10 %"
0/
0G
18
#435000
1/
1G
08
#440000
b101001 s
b10 %"
0/
0G
18
#445000
1/
1G
08
#450000
b101010 s
b10 %"
0/
0G
18
#455000
1/
1G
08
#460000
b101011 s
b10 %"
0/
0G
18
#465000
1/
1G
08
#470000
b101100 s
b10 %"
0/
0G
18
#475000
1/
1G
08
#480000
b101101 s
b10 %"
0/
0G
18
#485000
1/
1G
08
#490000
b101110 s
b10 %"
0/
0G
18
#495000
1/
1G
08
#500000
b101111 s
b10 %"
0/
0G
18
#505000
1/
1G
08
#510000
b110000 s
b10 %"
0/
0G
18
#515000
1/
1G
08
#520000
b110001 s
b10 %"
0/
0G
18
#525000
1/
1G
08
#530000
b110010 s
b10 %"
0/
0G
18
#535000
1/
1G
08
#540000
b110011 s
b10 %"
0/
0G
18
#545000
1/
1G
08
#550000
b110100 s
b10 %"
0/
0G
18
#555000
1/
1G
08
#560000
b110101 s
b10 %"
0/
0G
18
#565000
1/
1G
08
#570000
b110110 s
b10 %"
0/
0G
18
#575000
1/
1G
08
#580000
b110111 s
b10 %"
0/
0G
18
#585000
1/
1G
08
#590000
b111000 s
b10 %"
0/
0G
18
#595000
1/
1G
08
#600000
b111001 s
b10 %"
0/
0G
18
#605000
1/
1G
08
#610000
b111010 s
b10 %"
0/
0G
18
#615000
1/
1G
08
#620000
b111011 s
b10 %"
0/
0G
18
#625000
1/
1G
08
#630000
b111100 s
b10 %"
0/
0G
18
#635000
1/
1G
08
#640000
b111101 s
b10 %"
0/
0G
18
#645000
1/
1G
08
#650000
b111110 s
b10 %"
0/
0G
18
#655000
1/
1G
08
#660000
b111111 s
b10 %"
0/
0G
18
#665000
1/
1G
08
#670000
b1000000 s
b10 %"
0/
0G
18
#675000
1/
1G
08
#680000
b1000001 s
b10 %"
0/
0G
18
#685000
1/
1G
08
#690000
b1000010 s
b10 %"
0/
0G
18
#695000
1/
1G
08
#700000
b1000011 s
b10 %"
0/
0G
18
#705000
1/
1G
08
#710000
b1000100 s
b10 %"
0/
0G
18
#715000
1/
1G
08
#720000
b1000101 s
b10 %"
0/
0G
18
#725000
1/
1G
08
#730000
b1000110 s
b10 %"
0/
0G
18
#735000
1/
1G
08
#740000
b1000111 s
b10 %"
0/
0G
18
#745000
1/
1G
08
#750000
b1001000 s
b10 %"
0/
0G
18
#755000
1/
1G
08
#760000
b1001001 s
b10 %"
0/
0G
18
#765000
1/
1G
08
#770000
b1001010 s
b10 %"
0/
0G
18
#775000
1/
1G
08
#780000
b1001011 s
b10 %"
0/
0G
18
#785000
1/
1G
08
#790000
b1001100 s
b10 %"
0/
0G
18
#795000
1/
1G
08
#800000
b1001101 s
b10 %"
0/
0G
18
#805000
1/
1G
08
#810000
b1001110 s
b10 %"
0/
0G
18
#815000
1/
1G
08
#820000
b1001111 s
b10 %"
0/
0G
18
#825000
1/
1G
08
#830000
b1010000 s
b10 %"
0/
0G
18
#835000
1/
1G
08
#840000
b1010001 s
b10 %"
0/
0G
18
#845000
1/
1G
08
#850000
b1010010 s
b10 %"
0/
0G
18
#855000
1/
1G
08
#860000
b1010011 s
b10 %"
0/
0G
18
#865000
1/
1G
08
#870000
b1010100 s
b10 %"
0/
0G
18
#875000
1/
1G
08
#880000
b1010101 s
b10 %"
0/
0G
18
#885000
1/
1G
08
#890000
b1010110 s
b10 %"
0/
0G
18
#895000
1/
1G
08
#900000
b1010111 s
b10 %"
0/
0G
18
#905000
1/
1G
08
#910000
b1011000 s
b10 %"
0/
0G
18
#915000
1/
1G
08
#920000
b1011001 s
b10 %"
0/
0G
18
#925000
1/
1G
08
#930000
b1011010 s
b10 %"
0/
0G
18
#935000
1/
1G
08
#940000
b1011011 s
b10 %"
0/
0G
18
#945000
1/
1G
08
#950000
b1011100 s
b10 %"
0/
0G
18
#955000
1/
1G
08
#960000
b1011101 s
b10 %"
0/
0G
18
#965000
1/
1G
08
#970000
b1011110 s
b10 %"
0/
0G
18
#975000
1/
1G
08
#980000
b1011111 s
b10 %"
0/
0G
18
#985000
1/
1G
08
#990000
b1100000 s
b10 %"
0/
0G
18
#995000
1/
1G
08
#1000000
b1100001 s
b10 %"
0/
0G
18
#1005000
1/
1G
08
#1010000
b1100010 s
b10 %"
0/
0G
18
#1015000
1/
1G
08
#1020000
b1100011 s
b10 %"
0/
0G
18
#1025000
1/
1G
08
#1030000
b1100100 s
b10 %"
0/
0G
18
#1035000
1/
1G
08
#1040000
b1100101 s
b10 %"
0/
0G
18
#1045000
1/
1G
08
#1050000
b1100110 s
b10 %"
0/
0G
18
#1055000
1/
1G
08
#1060000
b1100111 s
b10 %"
0/
0G
18
#1065000
1/
1G
08
#1070000
b1101000 s
b10 %"
0/
0G
18
#1075000
1/
1G
08
#1080000
b1101001 s
b10 %"
0/
0G
18
#1085000
1/
1G
08
#1090000
b1101010 s
b10 %"
0/
0G
18
#1095000
1/
1G
08
#1100000
b1101011 s
b10 %"
0/
0G
18
#1105000
1/
1G
08
#1110000
b1101100 s
b10 %"
0/
0G
18
#1115000
1/
1G
08
#1120000
b1101101 s
b10 %"
0/
0G
18
#1125000
1/
1G
08
#1130000
b1101110 s
b10 %"
0/
0G
18
#1135000
1/
1G
08
#1140000
b1101111 s
b10 %"
0/
0G
18
#1145000
1/
1G
08
#1150000
b1110000 s
b10 %"
0/
0G
18
#1155000
1/
1G
08
#1160000
b1110001 s
b10 %"
0/
0G
18
#1165000
1/
1G
08
#1170000
b1110010 s
b10 %"
0/
0G
18
#1175000
1/
1G
08
#1180000
b1110011 s
b10 %"
0/
0G
18
#1185000
1/
1G
08
#1190000
b1110100 s
b10 %"
0/
0G
18
#1195000
1/
1G
08
#1200000
b1110101 s
b10 %"
0/
0G
18
#1205000
1/
1G
08
#1210000
b1110110 s
b10 %"
0/
0G
18
#1215000
1/
1G
08
#1220000
b1110111 s
b10 %"
0/
0G
18
#1225000
1/
1G
08
#1230000
b1111000 s
b10 %"
0/
0G
18
#1235000
1/
1G
08
#1240000
b1111001 s
b10 %"
0/
0G
18
#1245000
1/
1G
08
#1250000
b1111010 s
b10 %"
0/
0G
18
#1255000
1/
1G
08
#1260000
b1111011 s
b10 %"
0/
0G
18
#1265000
1/
1G
08
#1270000
b1111100 s
b10 %"
0/
0G
18
#1275000
1/
1G
08
#1280000
b1111101 s
b10 %"
0/
0G
18
#1285000
1/
1G
08
#1290000
b1111110 s
b10 %"
0/
0G
18
#1295000
1/
1G
08
#1300000
b1111111 s
b10 %"
0/
0G
18
#1305000
1/
1G
08
#1310000
b10000000 s
b10 %"
0/
0G
18
#1315000
1/
1G
08
#1320000
b10000001 s
b10 %"
0/
0G
18
#1325000
1/
1G
08
#1330000
b10000010 s
b10 %"
0/
0G
18
#1335000
1/
1G
08
#1340000
b10000011 s
b10 %"
0/
0G
18
#1345000
1/
1G
08
#1350000
b10000100 s
b10 %"
0/
0G
18
#1355000
1/
1G
08
#1360000
b10000101 s
b10 %"
0/
0G
18
#1365000
1/
1G
08
#1370000
b10000110 s
b10 %"
0/
0G
18
#1375000
1/
1G
08
#1380000
b10000111 s
b10 %"
0/
0G
18
#1385000
1/
1G
08
#1390000
b10001000 s
b10 %"
0/
0G
18
#1395000
1/
1G
08
#1400000
b10001001 s
b10 %"
0/
0G
18
#1405000
1/
1G
08
#1410000
b10001010 s
b10 %"
0/
0G
18
#1415000
1/
1G
08
#1420000
b10001011 s
b10 %"
0/
0G
18
#1425000
1/
1G
08
#1430000
b10001100 s
b10 %"
0/
0G
18
#1435000
1/
1G
08
#1440000
b10001101 s
b10 %"
0/
0G
18
#1445000
1/
1G
08
#1450000
b10001110 s
b10 %"
0/
0G
18
#1455000
1/
1G
08
#1460000
b10001111 s
b10 %"
0/
0G
18
#1465000
1/
1G
08
#1470000
b10010000 s
b10 %"
0/
0G
18
#1475000
1/
1G
08
#1480000
b10010001 s
b10 %"
0/
0G
18
#1485000
1/
1G
08
#1490000
b10010010 s
b10 %"
0/
0G
18
#1495000
1/
1G
08
#1500000
b10010011 s
b10 %"
0/
0G
18
#1505000
1/
1G
08
#1510000
b10010100 s
b10 %"
0/
0G
18
#1515000
1/
1G
08
#1520000
b10010101 s
b10 %"
0/
0G
18
#1525000
1/
1G
08
#1530000
b10010110 s
b10 %"
0/
0G
18
#1535000
1/
1G
08
#1540000
b10010111 s
b10 %"
0/
0G
18
#1545000
1/
1G
08
#1550000
b10011000 s
b10 %"
0/
0G
18
#1555000
1/
1G
08
#1560000
b10011001 s
b10 %"
0/
0G
18
#1565000
1/
1G
08
#1570000
b10011010 s
b10 %"
0/
0G
18
#1575000
1/
1G
08
#1580000
b10011011 s
b10 %"
0/
0G
18
#1585000
1/
1G
08
#1590000
b10011100 s
b10 %"
0/
0G
18
#1595000
1/
1G
08
#1600000
b10011101 s
b10 %"
0/
0G
18
#1605000
1/
1G
08
#1610000
b10011110 s
b10 %"
0/
0G
18
#1615000
1/
1G
08
#1620000
b10011111 s
b10 %"
0/
0G
18
#1625000
1/
1G
08
#1630000
b10100000 s
b10 %"
0/
0G
18
#1635000
1/
1G
08
#1640000
b10100001 s
b10 %"
0/
0G
18
#1645000
1/
1G
08
#1650000
b10100010 s
b10 %"
0/
0G
18
#1655000
1/
1G
08
#1660000
b10100011 s
b10 %"
0/
0G
18
#1665000
1/
1G
08
#1670000
b10100100 s
b10 %"
0/
0G
18
#1675000
1/
1G
08
#1680000
b10100101 s
b10 %"
0/
0G
18
#1685000
1/
1G
08
#1690000
b10100110 s
b10 %"
0/
0G
18
#1695000
1/
1G
08
#1700000
b10100111 s
b10 %"
0/
0G
18
#1705000
1/
1G
08
#1710000
b10101000 s
b10 %"
0/
0G
18
#1715000
1/
1G
08
#1720000
b10101001 s
b10 %"
0/
0G
18
#1725000
1/
1G
08
#1730000
b10101010 s
b10 %"
0/
0G
18
#1735000
1/
1G
08
#1740000
b10101011 s
b10 %"
0/
0G
18
#1745000
1/
1G
08
#1750000
b10101100 s
b10 %"
0/
0G
18
#1755000
1/
1G
08
#1760000
b10101101 s
b10 %"
0/
0G
18
#1765000
1/
1G
08
#1770000
b10101110 s
b10 %"
0/
0G
18
#1775000
1/
1G
08
#1780000
b10101111 s
b10 %"
0/
0G
18
#1785000
1/
1G
08
#1790000
b10110000 s
b10 %"
0/
0G
18
#1795000
1/
1G
08
#1800000
b10110001 s
b10 %"
0/
0G
18
#1805000
1/
1G
08
#1810000
b10110010 s
b10 %"
0/
0G
18
#1815000
1/
1G
08
#1820000
b10110011 s
b10 %"
0/
0G
18
#1825000
1/
1G
08
#1830000
b10110100 s
b10 %"
0/
0G
18
#1835000
1/
1G
08
#1840000
b10110101 s
b10 %"
0/
0G
18
#1845000
1/
1G
08
#1850000
b10110110 s
b10 %"
0/
0G
18
#1855000
1/
1G
08
#1860000
b10110111 s
b10 %"
0/
0G
18
#1865000
1/
1G
08
#1870000
b10111000 s
b10 %"
0/
0G
18
#1875000
1/
1G
08
#1880000
b10111001 s
b10 %"
0/
0G
18
#1885000
1/
1G
08
#1890000
b10111010 s
b10 %"
0/
0G
18
#1895000
1/
1G
08
#1900000
b10111011 s
b10 %"
0/
0G
18
#1905000
1/
1G
08
#1910000
b10111100 s
b10 %"
0/
0G
18
#1915000
1/
1G
08
#1920000
b10111101 s
b10 %"
0/
0G
18
#1925000
1/
1G
08
#1930000
b10111110 s
b10 %"
0/
0G
18
#1935000
1/
1G
08
#1940000
b10111111 s
b10 %"
0/
0G
18
#1945000
1/
1G
08
#1950000
b11000000 s
b10 %"
0/
0G
18
#1955000
1/
1G
08
#1960000
b11000001 s
b10 %"
0/
0G
18
#1965000
1/
1G
08
#1970000
b11000010 s
b10 %"
0/
0G
18
#1975000
1/
1G
08
#1980000
b11000011 s
b10 %"
0/
0G
18
#1985000
1/
1G
08
#1990000
b11000100 s
b10 %"
0/
0G
18
#1995000
1/
1G
08
#2000000
b11000101 s
b10 %"
0/
0G
18
#2005000
1/
1G
08
#2010000
b11000110 s
b10 %"
0/
0G
18
#2015000
1/
1G
08
#2020000
b11000111 s
b10 %"
0/
0G
18
#2025000
1/
1G
08
#2030000
b11001000 s
b10 %"
0/
0G
18
#2035000
1/
1G
08
#2040000
b11001001 s
b10 %"
0/
0G
18
#2045000
1/
1G
08
#2050000
b11001010 s
b10 %"
0/
0G
18
#2055000
1/
1G
08
#2060000
b11001011 s
b10 %"
0/
0G
18
#2065000
1/
1G
08
#2070000
b11001100 s
b10 %"
0/
0G
18
#2075000
1/
1G
08
#2080000
b11001101 s
b10 %"
0/
0G
18
#2085000
1/
1G
08
#2090000
b11001110 s
b10 %"
0/
0G
18
#2095000
1/
1G
08
#2100000
b11001111 s
b10 %"
0/
0G
18
#2105000
1/
1G
08
#2110000
b11010000 s
b10 %"
0/
0G
18
#2115000
1/
1G
08
#2120000
b11010001 s
b10 %"
0/
0G
18
#2125000
1/
1G
08
#2130000
b11010010 s
b10 %"
0/
0G
18
#2135000
1/
1G
08
#2140000
b11010011 s
b10 %"
0/
0G
18
#2145000
1/
1G
08
#2150000
b11010100 s
b10 %"
0/
0G
18
#2155000
1/
1G
08
#2160000
b11010101 s
b10 %"
0/
0G
18
#2165000
1/
1G
08
#2170000
b11010110 s
b10 %"
0/
0G
18
#2175000
1/
1G
08
#2180000
b11010111 s
b10 %"
0/
0G
18
#2185000
1/
1G
08
#2190000
b11011000 s
b10 %"
0/
0G
18
#2195000
1/
1G
08
#2200000
b11011001 s
b10 %"
0/
0G
18
#2205000
1/
1G
08
#2210000
b11011010 s
b10 %"
0/
0G
18
#2215000
1/
1G
08
#2220000
b11011011 s
b10 %"
0/
0G
18
#2225000
1/
1G
08
#2230000
b11011100 s
b10 %"
0/
0G
18
#2235000
1/
1G
08
#2240000
b11011101 s
b10 %"
0/
0G
18
#2245000
1/
1G
08
#2250000
b11011110 s
b10 %"
0/
0G
18
#2255000
1/
1G
08
#2260000
b11011111 s
b10 %"
0/
0G
18
#2265000
1/
1G
08
