test/sdram32_tb.vcd
$date
	Fri Oct 27 17:42:41 2023
$end
$version
	Icarus Verilog
$end
$timescale
	1ps
$end
$scope module sdram32_tb $end
$var wire 32 ! dq [31:0] $end
$var wire 1 " rdq $end
$var wire 1 # wrq $end
$var wire 1 $ we_n $end
$var wire 3 % sdram_cmd [2:0] $end
$var wire 1 & ras_n $end
$var wire 1 ' p0_ready $end
$var wire 32 ( p0_q [31:0] $end
$var wire 1 ) p0_available $end
$var wire 1 * init_complete $end
$var wire 4 + dqm [3:0] $end
$var wire 1 , cs_n $end
$var wire 1 - cke $end
$var wire 1 . chip_clk $end
$var wire 1 / cas_n $end
$var wire 2 0 ba [1:0] $end
$var wire 11 1 addr [10:0] $end
$var reg 1 2 clk $end
$var reg 21 3 p0_addr [20:0] $end
$var reg 4 4 p0_byte_en [3:0] $end
$var reg 32 5 p0_data [31:0] $end
$var reg 1 6 p0_rd_req $end
$var reg 1 7 p0_wr_req $end
$var reg 1 8 reset $end
$scope module sdram $end
$var wire 1 . SDRAM_CLK $end
$var wire 32 9 SDRAM_DQ [31:0] $end
$var wire 1 2 clk $end
$var wire 3 : concrete_burst_length [2:0] $end
$var wire 13 ; configured_mode [12:0] $end
$var wire 25 < p0_addr [24:0] $end
$var wire 1 ) p0_available $end
$var wire 4 = p0_byte_en [3:0] $end
$var wire 32 > p0_data [31:0] $end
$var wire 1 6 p0_rd_req $end
$var wire 1 ? p0_rd_start $end
$var wire 1 @ p0_req $end
$var wire 1 A p0_req_queue $end
$var wire 1 7 p0_wr_req $end
$var wire 1 B p0_wr_start $end
$var wire 1 C port_req $end
$var wire 1 8 reset $end
$var wire 1 D sdram_clk $end
$var wire 25 E p0_addr_current [24:0] $end
$var wire 1 * init_complete $end
$var wire 1 $ SDRAM_nWE $end
$var wire 1 & SDRAM_nRAS $end
$var wire 1 , SDRAM_nCS $end
$var wire 1 / SDRAM_nCAS $end
$var parameter 32 F BANK_WIDTH $end
$var parameter 32 G BURST_LENGTH $end
$var parameter 32 H BURST_TYPE $end
$var parameter 32 I CAS_LATENCY $end
$var real 1 J CLOCK_PERIOD_NANO_SEC $end
$var parameter 32 K CLOCK_SPEED_MHZ $end
$var parameter 32 L COL_WIDTH $end
$var parameter 33 M CYCLES_AFTER_WRITE_FOR_NEXT_COMMAND $end
$var parameter 33 N CYCLES_BETWEEN_ACTIVE_COMMAND $end
$var parameter 33 O CYCLES_FOR_ACTIVE_ROW $end
$var parameter 33 P CYCLES_FOR_AUTOREFRESH $end
$var parameter 33 Q CYCLES_PER_REFRESH $end
$var parameter 34 R CYCLES_UNTIL_CLEAR_INHIBIT $end
$var parameter 36 S CYCLES_UNTIL_INIT_PRECHARGE_END $end
$var parameter 37 T CYCLES_UNTIL_REFRESH1_END $end
$var parameter 38 U CYCLES_UNTIL_REFRESH2_END $end
$var parameter 33 V CYCLES_UNTIL_START_INHIBIT $end
$var parameter 32 W DATA_WIDTH $end
$var parameter 32 X DQM_WIDTH $end
$var parameter 32 Y P0_BURST_LENGTH $end
$var parameter 64 Z P0_OUTPUT_WIDTH $end
$var parameter 32 [ PORT_ADDR_WIDTH $end
$var parameter 32 \ PRECHARGE_BIT $end
$var parameter 32 ] ROW_WIDTH $end
$var parameter 32 ^ SETTING_INHIBIT_DELAY_MICRO_SEC $end
$var parameter 32 _ SETTING_REFRESH_TIMER_NANO_SEC $end
$var parameter 32 ` SETTING_T_CK_MIN_CLOCK_CYCLE_TIME_NANO_SEC $end
$var parameter 32 a SETTING_T_MRD_MIN_LOAD_MODE_CLOCK_CYCLES $end
$var parameter 32 b SETTING_T_RAS_MIN_ROW_ACTIVE_TIME_NANO_SEC $end
$var parameter 32 c SETTING_T_RCD_MIN_READ_WRITE_DELAY_NANO_SEC $end
$var parameter 32 d SETTING_T_RC_MIN_ACTIVE_TO_ACTIVE_PERIOD_NANO_SEC $end
$var parameter 32 e SETTING_T_RC_MIN_ROW_CYCLE_TIME_NANO_SEC $end
$var parameter 32 f SETTING_T_RFC_MIN_AUTOREFRESH_PERIOD_NANO_SEC $end
$var parameter 32 g SETTING_T_RP_MIN_PRECHARGE_CMD_PERIOD_NANO_SEC $end
$var parameter 32 h SETTING_T_WR_MIN_WRITE_AUTO_PRECHARGE_RECOVERY_NANO_SEC $end
$var parameter 32 i SETTING_USE_FAST_INPUT_REGISTER $end
$var parameter 32 j WRITE_BURST $end
$var reg 11 k SDRAM_A [10:0] $end
$var reg 2 l SDRAM_BA [1:0] $end
$var reg 1 - SDRAM_CKE $end
$var reg 4 m SDRAM_DQM [3:0] $end
$var reg 2 n active_port [1:0] $end
$var reg 32 o delay_counter [31:0] $end
$var reg 1 p dq_output $end
$var reg 25 q p0_addr_queue [24:0] $end
$var reg 4 r p0_byte_en_queue [3:0] $end
$var reg 32 s p0_data_queue [31:0] $end
$var reg 32 t p0_q [31:0] $end
$var reg 1 u p0_rd_prev $end
$var reg 1 v p0_rd_queue $end
$var reg 1 ' p0_ready $end
$var reg 1 w p0_wr_prev $end
$var reg 1 x p0_wr_queue $end
$var reg 4 y read_counter [3:0] $end
$var reg 16 z refresh_counter [15:0] $end
$var reg 32 { sdram_data [31:0] $end
$var reg 32 | sdram_dq_reg [31:0] $end
$var reg 2 } current_io_operation [1:0] $end
$var reg 3 ~ delay_state [2:0] $end
$var reg 4 !" sdram_command [3:0] $end
$var reg 3 "" state [2:0] $end
$scope function get_active_port $end
$var reg 45 #" selection [44:0] $end
$upscope $end
$scope begin $unm_blk_22 $end
$var reg 45 $" active_port_entries [44:0] $end
$upscope $end
$scope begin $unm_blk_23 $end
$var reg 45 %" active_port_entries [44:0] $end
$upscope $end
$scope begin $unm_blk_26 $end
$var reg 4 &" expected_count [3:0] $end
$var reg 32 '" temp [31:0] $end
$upscope $end
$scope task set_active_command $end
$var reg 25 (" addr [24:0] $end
$var reg 2 )" port [1:0] $end
$upscope $end
$upscope $end
$scope module sdram0 $end
$var wire 1 *" Active_enable $end
$var wire 11 +" Addr [10:0] $end
$var wire 1 ," Aref_enable $end
$var wire 2 -" Ba [1:0] $end
$var wire 1 ." Burst_length_1 $end
$var wire 1 /" Burst_length_2 $end
$var wire 1 0" Burst_length_4 $end
$var wire 1 1" Burst_length_8 $end
$var wire 1 2" Burst_length_f $end
$var wire 1 3" Burst_term $end
$var wire 1 4" Cas_latency_1 $end
$var wire 1 5" Cas_latency_2 $end
$var wire 1 6" Cas_latency_3 $end
$var wire 1 / Cas_n $end
$var wire 1 - Cke $end
$var wire 1 . Clk $end
$var wire 1 , Cs_n $end
$var wire 1 7" Debug $end
$var wire 32 8" Dq [31:0] $end
$var wire 1 9" Dq_chk $end
$var wire 4 :" Dqm [3:0] $end
$var wire 1 ;" Mode_reg_enable $end
$var wire 1 <" Prech_enable $end
$var wire 1 & Ras_n $end
$var wire 1 =" Read_enable $end
$var wire 1 $ We_n $end
$var wire 1 >" Write_enable $end
$var wire 1 ?" Write_burst_mode $end
$var parameter 32 @" addr_bits $end
$var parameter 32 A" col_bits $end
$var parameter 32 B" data_bits $end
$var parameter 32 C" mem_sizes $end
$var real 1 D" tAC $end
$var real 1 E" tAH $end
$var real 1 F" tAS $end
$var real 1 G" tCH $end
$var real 1 H" tCK $end
$var real 1 I" tCKH $end
$var real 1 J" tCKS $end
$var real 1 K" tCL $end
$var real 1 L" tCMH $end
$var real 1 M" tCMS $end
$var real 1 N" tDH $end
$var real 1 O" tDS $end
$var real 1 P" tHZ $end
$var real 1 Q" tMRD $end
$var real 1 R" tOH $end
$var real 1 S" tRAS $end
$var real 1 T" tRC $end
$var real 1 U" tRCD $end
$var real 1 V" tRFC $end
$var real 1 W" tRP $end
$var real 1 X" tRRD $end
$var real 1 Y" tWRa $end
$var real 1 Z" tWRm $end
$var reg 1 [" Act_b0 $end
$var reg 1 \" Act_b1 $end
$var reg 1 ]" Act_b2 $end
$var reg 1 ^" Act_b3 $end
$var reg 11 _" B0_row_addr [10:0] $end
$var reg 11 `" B1_row_addr [10:0] $end
$var reg 11 a" B2_row_addr [10:0] $end
$var reg 11 b" B3_row_addr [10:0] $end
$var reg 2 c" Bank [1:0] $end
$var reg 8 d" Burst_counter [7:0] $end
$var reg 1 e" CkeZ $end
$var reg 8 f" Col [7:0] $end
$var reg 8 g" Col_brst [7:0] $end
$var reg 8 h" Col_temp [7:0] $end
$var reg 1 i" Data_in_enable $end
$var reg 1 j" Data_out_enable $end
$var reg 32 k" Dq_dqm [31:0] $end
$var reg 32 l" Dq_reg [31:0] $end
$var reg 4 m" Dqm_reg0 [3:0] $end
$var reg 4 n" Dqm_reg1 [3:0] $end
$var reg 64 o" MRD_chk [63:0] $end
$var reg 11 p" Mode_reg [10:0] $end
$var reg 1 q" Pc_b0 $end
$var reg 1 r" Pc_b1 $end
$var reg 1 s" Pc_b2 $end
$var reg 1 t" Pc_b3 $end
$var reg 2 u" Prev_bank [1:0] $end
$var reg 64 v" RAS_chk0 [63:0] $end
$var reg 64 w" RAS_chk1 [63:0] $end
$var reg 64 x" RAS_chk2 [63:0] $end
$var reg 64 y" RAS_chk3 [63:0] $end
$var reg 64 z" RCD_chk0 [63:0] $end
$var reg 64 {" RCD_chk1 [63:0] $end
$var reg 64 |" RCD_chk2 [63:0] $end
$var reg 64 }" RCD_chk3 [63:0] $end
$var reg 64 ~" RC_chk0 [63:0] $end
$var reg 64 !# RC_chk1 [63:0] $end
$var reg 64 "# RC_chk2 [63:0] $end
$var reg 64 ## RC_chk3 [63:0] $end
$var reg 64 $# RFC_chk [63:0] $end
$var reg 64 %# RP_chk0 [63:0] $end
$var reg 64 &# RP_chk1 [63:0] $end
$var reg 64 '# RP_chk2 [63:0] $end
$var reg 64 (# RP_chk3 [63:0] $end
$var reg 64 )# RRD_chk [63:0] $end
$var reg 2 *# RW_interrupt_bank [1:0] $end
$var reg 11 +# Row [10:0] $end
$var reg 1 ,# Sys_clk $end
$scope task Burst_decode $end
$upscope $end
$upscope $end
$upscope $end
$enddefinitions $end
$comment Show the parameter values. $end
$dumpall
r12 Z"
r6 Y"
r12 X"
r18 W"
r60 V"
r18 U"
r60 T"
r42 S"
r2.5 R"
r2 Q"
r5.5 P"
r1.5 O"
r1 N"
r1.5 M"
r1 L"
r2.5 K"
r1.5 J"
r1 I"
r6 H"
r2.5 G"
r1.5 F"
r1 E"
r5.5 D"
b1111111111111111111 C"
b100000 B"
b1000 A"
b1011 @"
b0 j
b1 i
b1111 h
b10010 g
b1010000 f
b111100 e
b111100 d
b10010 c
b110000 b
b10 a
b110 `
b1110101001100 _
b1100100 ^
b1011 ]
b1010 \
b11001 [
b100000 Z
b1 Y
b100 X
b100000 W
b1001110001001 V
b10011110010011 U
b10011110001010 T
b10011110000001 S
b10011101110101 R
b1011101111 Q
b1001 P
b10 O
b111 N
b100 M
b1001 L
b1100100 K
r10 J
b10 I
b0 H
b1 G
b10 F
$end
#0
$dumpvars
x,#
bx +#
bx *#
b0 )#
b0 (#
b0 '#
b0 &#
b0 %#
b0 $#
b0 ##
b0 "#
b0 !#
b0 ~"
b0 }"
b0 |"
b0 {"
b0 z"
b0 y"
b0 x"
b0 w"
b0 v"
bx u"
0t"
0s"
0r"
0q"
bx p"
b0 o"
bx n"
bx m"
bz l"
bx k"
0j"
0i"
bx h"
bx g"
bx f"
xe"
bx d"
bx c"
bx b"
bx a"
bx `"
bx _"
1^"
1]"
1\"
1["
x?"
0>"
0="
0<"
1;"
bx :"
09"
bz 8"
17"
x6"
x5"
x4"
03"
x2"
x1"
x0"
x/"
x."
bx -"
0,"
bx +"
0*"
bx )"
bx ("
bx '"
bx &"
bx %"
bx $"
bx #"
b0 ""
b0 !"
b0 ~
b0 }
bx |
b0 {
b0 z
b0 y
0x
0w
0v
0u
bx t
b0 s
b0 r
b0 q
0p
b0 o
b0 n
bx m
bx l
bx k
b0 E
0D
0C
0B
0A
0@
0?
b0 >
b0 =
b0 <
b1000100000 ;
b0 :
bz 9
18
07
06
b0 5
b0 4
b0 3
12
bx 1
bx 0
0/
0.
x-
0,
bx +
0*
0)
bx (
0'
0&
b0 %
0$
0#
0"
bz !
$end
#5000
bz |
1.
1D
02
#10000
0*"
0;"
0,"
1&
1/
b111 %
1$
b0 (
b0 t
b111 !"
b1 ~
0-
0,#
0.
0D
12
#15000
b1 o"
0e"
x,#
1.
1D
02
#20000
0,#
0.
0D
12
#25000
1.
1D
02
#30000
0.
0D
12
#35000
1.
1D
02
#40000
b1 o
0.
0D
12
08
#45000
1.
1D
02
#50000
b10 o
0.
0D
12
#55000
1.
1D
02
#60000
b11 o
0.
0D
12
#65000
1.
1D
02
#70000
b100 o
0.
0D
12
#75000
1.
1D
02
#80000
b101 o
0.
0D
12
#85000
1.
1D
02
#90000
b110 o
0.
0D
12
#95000
1.
1D
02
#100000
b111 o
0.
0D
12
#105000
1.
1D
02
#110000
b1000 o
0.
0D
12
#115000
1.
1D
02
#120000
b1001 o
0.
0D
12
#125000
1.
1D
02
#130000
b1010 o
0.
0D
12
#135000
1.
1D
02
#140000
b1011 o
0.
0D
12
#145000
1.
1D
02
#150000
b1100 o
0.
0D
12
#155000
1.
1D
02
#160000
b1101 o
0.
0D
12
#165000
1.
1D
02
#170000
b1110 o
0.
0D
12
#175000
1.
1D
02
#180000
b1111 o
0.
0D
12
#185000
1.
1D
02
#190000
b10000 o
0.
0D
12
#195000
1.
1D
02
#200000
b10001 o
0.
0D
12
#205000
1.
1D
02
#210000
b10010 o
0.
0D
12
#215000
1.
1D
02
#220000
b10011 o
0.
0D
12
#225000
1.
1D
02
#230000
b10100 o
0.
0D
12
#235000
1.
1D
02
#240000
b10101 o
0.
0D
12
#245000
1.
1D
02
#250000
b10110 o
0.
0D
12
#255000
1.
1D
02
#260000
b10111 o
0.
0D
12
#265000
1.
1D
02
#270000
b11000 o
0.
0D
12
#275000
1.
1D
02
#280000
b11001 o
0.
0D
12
#285000
1.
1D
02
#290000
b11010 o
0.
0D
12
#295000
1.
1D
02
#300000
b11011 o
0.
0D
12
#305000
1.
1D
02
#310000
b11100 o
0.
0D
12
#315000
1.
1D
02
#320000
b11101 o
0.
0D
12
#325000
1.
1D
02
#330000
b11110 o
0.
0D
12
#335000
1.
1D
02
#340000
b11111 o
0.
0D
12
#345000
1.
1D
02
#350000
b100000 o
0.
0D
12
#355000
1.
1D
02
#360000
b100001 o
0.
0D
12
#365000
1.
1D
02
#370000
b100010 o
0.
0D
12
#375000
1.
1D
02
#380000
b100011 o
0.
0D
12
#385000
1.
1D
02
#390000
b100100 o
0.
0D
12
#395000
1.
1D
02
#400000
b100101 o
0.
0D
12
#405000
1.
1D
02
#410000
b100110 o
0.
0D
12
#415000
1.
1D
02
#420000
b100111 o
0.
0D
12
#425000
1.
1D
02
#430000
b101000 o
0.
0D
12
#435000
1.
1D
02
#440000
b101001 o
0.
0D
12
#445000
1.
1D
02
#450000
b101010 o
0.
0D
12
#455000
1.
1D
02
#460000
b101011 o
0.
0D
12
#465000
1.
1D
02
#470000
b101100 o
0.
0D
12
#475000
1.
1D
02
#480000
b101101 o
0.
0D
12
#485000
1.
1D
02
#490000
b101110 o
0.
0D
12
#495000
1.
1D
02
#500000
b101111 o
0.
0D
12
#505000
1.
1D
02
#510000
b110000 o
0.
0D
12
#515000
1.
1D
02
#520000
b110001 o
0.
0D
12
#525000
1.
1D
02
#530000
b110010 o
0.
0D
12
#535000
1.
1D
02
#540000
b110011 o
0.
0D
12
#545000
1.
1D
02
#550000
b110100 o
0.
0D
12
#555000
1.
1D
02
#560000
b110101 o
0.
0D
12
#565000
1.
1D
02
#570000
b110110 o
0.
0D
12
#575000
1.
1D
02
#580000
b110111 o
0.
0D
12
#585000
1.
1D
02
#590000
b111000 o
0.
0D
12
#595000
1.
1D
02
#600000
b111001 o
0.
0D
12
#605000
1.
1D
02
#610000
b111010 o
0.
0D
12
#615000
1.
1D
02
#620000
b111011 o
0.
0D
12
#625000
1.
1D
02
#630000
b111100 o
0.
0D
12
#635000
1.
1D
02
#640000
b111101 o
0.
0D
12
#645000
1.
1D
02
#650000
b111110 o
0.
0D
12
#655000
1.
1D
02
#660000
b111111 o
0.
0D
12
#665000
1.
1D
02
#670000
b1000000 o
0.
0D
12
#675000
1.
1D
02
#680000
b1000001 o
0.
0D
12
#685000
1.
1D
02
#690000
b1000010 o
0.
0D
12
#695000
1.
1D
02
#700000
b1000011 o
0.
0D
12
#705000
1.
1D
02
#710000
b1000100 o
0.
0D
12
#715000
1.
1D
02
#720000
b1000101 o
0.
0D
12
#725000
1.
1D
02
#730000
b1000110 o
0.
0D
12
#735000
1.
1D
02
#740000
b1000111 o
0.
0D
12
#745000
1.
1D
02
#750000
b1001000 o
0.
0D
12
#755000
1.
1D
02
#760000
b1001001 o
0.
0D
12
#765000
1.
1D
02
#770000
b1001010 o
0.
0D
12
#775000
1.
1D
02
#780000
b1001011 o
0.
0D
12
#785000
1.
1D
02
#790000
b1001100 o
0.
0D
12
#795000
1.
1D
02
#800000
b1001101 o
0.
0D
12
#805000
1.
1D
02
#810000
b1001110 o
0.
0D
12
#815000
1.
1D
02
#820000
b1001111 o
0.
0D
12
#825000
1.
1D
02
#830000
b1010000 o
0.
0D
12
#835000
1.
1D
02
#840000
b1010001 o
0.
0D
12
#845000
1.
1D
02
#850000
b1010010 o
0.
0D
12
#855000
1.
1D
02
#860000
b1010011 o
0.
0D
12
#865000
1.
1D
02
#870000
b1010100 o
0.
0D
12
#875000
1.
1D
02
#880000
b1010101 o
0.
0D
12
#885000
1.
1D
02
#890000
b1010110 o
0.
0D
12
#895000
1.
1D
02
#900000
b1010111 o
0.
0D
12
#905000
1.
1D
02
#910000
b1011000 o
0.
0D
12
#915000
1.
1D
02
#920000
b1011001 o
0.
0D
12
#925000
1.
1D
02
#930000
b1011010 o
0.
0D
12
#935000
1.
1D
02
#940000
b1011011 o
0.
0D
12
#945000
1.
1D
02
#950000
b1011100 o
0.
0D
12
#955000
1.
1D
02
#960000
b1011101 o
0.
0D
12
#965000
1.
1D
02
#970000
b1011110 o
0.
0D
12
#975000
1.
1D
02
#980000
b1011111 o
0.
0D
12
#985000
1.
1D
02
#990000
b1100000 o
0.
0D
12
#995000
1.
1D
02
#1000000
b1100001 o
0.
0D
12
#1005000
1.
1D
02
#1010000
b1100010 o
0.
0D
12
#1015000
1.
1D
02
#1020000
b1100011 o
0.
0D
12
#1025000
1.
1D
02
#1030000
b1100100 o
0.
0D
12
#1035000
1.
1D
02
#1040000
b1100101 o
0.
0D
12
#1045000
1.
1D
02
#1050000
b1100110 o
0.
0D
12
#1055000
1.
1D
02
#1060000
b1100111 o
0.
0D
12
#1065000
1.
1D
02
#1070000
b1101000 o
0.
0D
12
#1075000
1.
1D
02
#1080000
b1101001 o
0.
0D
12
#1085000
1.
1D
02
#1090000
b1101010 o
0.
0D
12
#1095000
1.
1D
02
#1100000
b1101011 o
0.
0D
12
#1105000
1.
1D
02
#1110000
b1101100 o
0.
0D
12
#1115000
1.
1D
02
#1120000
b1101101 o
0.
0D
12
#1125000
1.
1D
02
#1130000
b1101110 o
0.
0D
12
#1135000
1.
1D
02
#1140000
b1101111 o
0.
0D
12
#1145000
1.
1D
02
#1150000
b1110000 o
0.
0D
12
#1155000
1.
1D
02
#1160000
b1110001 o
0.
0D
12
#1165000
1.
1D
02
#1170000
b1110010 o
0.
0D
12
#1175000
1.
1D
02
#1180000
b1110011 o
0.
0D
12
#1185000
1.
1D
02
#1190000
b1110100 o
0.
0D
12
#1195000
1.
1D
02
#1200000
b1110101 o
0.
0D
12
#1205000
1.
1D
02
#1210000
b1110110 o
0.
0D
12
#1215000
1.
1D
02
#1220000
b1110111 o
0.
0D
12
#1225000
1.
1D
02
#1230000
b1111000 o
0.
0D
12
#1235000
1.
1D
02
#1240000
b1111001 o
0.
0D
12
#1245000
1.
1D
02
#1250000
b1111010 o
0.
0D
12
#1255000
1.
1D
02
#1260000
b1111011 o
0.
0D
12
#1265000
1.
1D
02
#1270000
b1111100 o
0.
0D
12
#1275000
1.
1D
02
#1280000
b1111101 o
0.
0D
12
#1285000
1.
1D
02
#1290000
b1111110 o
0.
0D
12
#1295000
1.
1D
02
#1300000
b1111111 o
0.
0D
12
#1305000
1.
1D
02
#1310000
b10000000 o
0.
0D
12
#1315000
1.
1D
02
#1320000
b10000001 o
0.
0D
12
#1325000
1.
1D
02
#1330000
b10000010 o
0.
0D
12
#1335000
1.
1D
02
#1340000
b10000011 o
0.
0D
12
#1345000
1.
1D
02
#1350000
b10000100 o
0.
0D
12
#1355000
1.
1D
02
#1360000
b10000101 o
0.
0D
12
#1365000
1.
1D
02
#1370000
b10000110 o
0.
0D
12
#1375000
1.
1D
02
#1380000
b10000111 o
0.
0D
12
#1385000
1.
1D
02
#1390000
b10001000 o
0.
0D
12
#1395000
1.
1D
02
#1400000
b10001001 o
0.
0D
12
#1405000
1.
1D
02
#1410000
b10001010 o
0.
0D
12
#1415000
1.
1D
02
#1420000
b10001011 o
0.
0D
12
#1425000
1.
1D
02
#1430000
b10001100 o
0.
0D
12
#1435000
1.
1D
02
#1440000
b10001101 o
0.
0D
12
#1445000
1.
1D
02
#1450000
b10001110 o
0.
0D
12
#1455000
1.
1D
02
#1460000
b10001111 o
0.
0D
12
#1465000
1.
1D
02
#1470000
b10010000 o
0.
0D
12
#1475000
1.
1D
02
#1480000
b10010001 o
0.
0D
12
#1485000
1.
1D
02
#1490000
b10010010 o
0.
0D
12
#1495000
1.
1D
02
#1500000
b10010011 o
0.
0D
12
#1505000
1.
1D
02
#1510000
b10010100 o
0.
0D
12
#1515000
1.
1D
02
#1520000
b10010101 o
0.
0D
12
#1525000
1.
1D
02
#1530000
b10010110 o
0.
0D
12
#1535000
1.
1D
02
#1540000
b10010111 o
0.
0D
12
#1545000
1.
1D
02
#1550000
b10011000 o
0.
0D
12
#1555000
1.
1D
02
#1560000
b10011001 o
0.
0D
12
#1565000
1.
1D
02
#1570000
b10011010 o
0.
0D
12
#1575000
1.
1D
02
#1580000
b10011011 o
0.
0D
12
#1585000
1.
1D
02
#1590000
b10011100 o
0.
0D
12
#1595000
1.
1D
02
#1600000
b10011101 o
0.
0D
12
#1605000
1.
1D
02
#1610000
b10011110 o
0.
0D
12
#1615000
1.
1D
02
#1620000
b10011111 o
0.
0D
12
#1625000
1.
1D
02
#1630000
b10100000 o
0.
0D
12
#1635000
1.
1D
02
#1640000
b10100001 o
0.
0D
12
#1645000
1.
1D
02
#1650000
b10100010 o
0.
0D
12
#1655000
1.
1D
02
#1660000
b10100011 o
0.
0D
12
#1665000
1.
1D
02
#1670000
b10100100 o
0.
0D
12
#1675000
1.
1D
02
#1680000
b10100101 o
0.
0D
12
#1685000
1.
1D
02
#1690000
b10100110 o
0.
0D
12
#1695000
1.
1D
02
#1700000
b10100111 o
0.
0D
12
#1705000
1.
1D
02
#1710000
b10101000 o
0.
0D
12
#1715000
1.
1D
02
#1720000
b10101001 o
0.
0D
12
#1725000
1.
1D
02
#1730000
b10101010 o
0.
0D
12
#1735000
1.
1D
02
#1740000
b10101011 o
0.
0D
12
#1745000
1.
1D
02
#1750000
b10101100 o
0.
0D
12
#1755000
1.
1D
02
#1760000
b10101101 o
0.
0D
12
#1765000
1.
1D
02
#1770000
b10101110 o
0.
0D
12
#1775000
1.
1D
02
#1780000
b10101111 o
0.
0D
12
#1785000
1.
1D
02
#1790000
b10110000 o
0.
0D
12
#1795000
1.
1D
02
#1800000
b10110001 o
0.
0D
12
#1805000
1.
1D
02
#1810000
b10110010 o
0.
0D
12
#1815000
1.
1D
02
#1820000
b10110011 o
0.
0D
12
#1825000
1.
1D
02
#1830000
b10110100 o
0.
0D
12
#1835000
1.
1D
02
#1840000
b10110101 o
0.
0D
12
#1845000
1.
1D
02
#1850000
b10110110 o
0.
0D
12
#1855000
1.
1D
02
#1860000
b10110111 o
0.
0D
12
#1865000
1.
1D
02
#1870000
b10111000 o
0.
0D
12
#1875000
1.
1D
02
#1880000
b10111001 o
0.
0D
12
#1885000
1.
1D
02
#1890000
b10111010 o
0.
0D
12
#1895000
1.
1D
02
#1900000
b10111011 o
0.
0D
12
#1905000
1.
1D
02
#1910000
b10111100 o
0.
0D
12
#1915000
1.
1D
02
#1920000
b10111101 o
0.
0D
12
#1925000
1.
1D
02
#1930000
b10111110 o
0.
0D
12
#1935000
1.
1D
02
#1940000
b10111111 o
0.
0D
12
#1945000
1.
1D
02
#1950000
b11000000 o
0.
0D
12
#1955000
1.
1D
02
#1960000
b11000001 o
0.
0D
12
#1965000
1.
1D
02
#1970000
b11000010 o
0.
0D
12
#1975000
1.
1D
02
#1980000
b11000011 o
0.
0D
12
#1985000
1.
1D
02
#1990000
b11000100 o
0.
0D
12
#1995000
1.
1D
02
#2000000
b11000101 o
0.
0D
12
#2005000
1.
1D
02
#2010000
b11000110 o
0.
0D
12
#2015000
1.
1D
02
#2020000
b11000111 o
0.
0D
12
#2025000
1.
1D
02
#2030000
b11001000 o
0.
0D
12
#2035000
1.
1D
02
#2040000
b11001001 o
0.
0D
12
#2045000
1.
1D
02
#2050000
b11001010 o
0.
0D
12
#2055000
1.
1D
02
#2060000
b11001011 o
0.
0D
12
#2065000
1.
1D
02
#2070000
b11001100 o
0.
0D
12
#2075000
1.
1D
02
#2080000
b11001101 o
0.
0D
12
#2085000
1.
1D
02
#2090000
b11001110 o
0.
0D
12
#2095000
1.
1D
02
#2100000
b11001111 o
0.
0D
12
#2105000
1.
1D
02
#2110000
b11010000 o
0.
0D
12
#2115000
1.
1D
02
#2120000
b11010001 o
0.
0D
12
#2125000
1.
1D
02
#2130000
b11010010 o
0.
0D
12
#2135000
1.
1D
02
#2140000
b11010011 o
0.
0D
12
#2145000
1.
1D
02
#2150000
b11010100 o
0.
0D
12
#2155000
1.
1D
02
#2160000
b11010101 o
0.
0D
12
#2165000
1.
1D
02
#2170000
b11010110 o
0.
0D
12
#2175000
1.
1D
02
#2180000
b11010111 o
0.
0D
12
#2185000
1.
1D
02
#2190000
b11011000 o
0.
0D
12
#2195000
1.
1D
02
#2200000
b11011001 o
0.
0D
12
#2205000
1.
1D
02
#2210000
b11011010 o
0.
0D
12
#2215000
1.
1D
02
#2220000
b11011011 o
0.
0D
12
#2225000
1.
1D
02
#2230000
b11011100 o
0.
0D
12
#2235000
1.
1D
02
#2240000
b11011101 o
0.
0D
12
#2245000
1.
1D
02
#2250000
b11011110 o
0.
0D
12
#2255000
1.
1D
02
#2260000
b11011111 o
0.
0D
12
#2265000
1.
1D
02
#2270000
b11100000 o
0.
0D
12
#2275000
1.
1D
02
#2280000
b11100001 o
0.
0D
12
#2285000
1.
1D
02
#2290000
b11100010 o
0.
0D
12
#2295000
1.
1D
02
#2300000
b11100011 o
0.
0D
12
#2305000
1.
1D
02
#2310000
b11100100 o
0.
0D
12
#2315000
1.
1D
02
#2320000
b11100101 o
0.
0D
12
#2325000
1.
1D
02
#2330000
b11100110 o
0.
0D
12
#2335000
1.
1D
02
#2340000
b11100111 o
0.
0D
12
#2345000
1.
1D
02
#2350000
b11101000 o
0.
0D
12
#2355000
1.
1D
02
#2360000
b11101001 o
0.
0D
12
#2365000
1.
1D
02
#2370000
b11101010 o
0.
0D
12
#2375000
1.
1D
02
#2380000
b11101011 o
0.
0D
12
#2385000
1.
1D
02
#2390000
b11101100 o
0.
0D
12
#2395000
1.
1D
02
#2400000
b11101101 o
0.
0D
12
#2405000
1.
1D
02
#2410000
b11101110 o
0.
0D
12
#2415000
1.
1D
02
#2420000
b11101111 o
0.
0D
12
#2425000
1.
1D
02
#2430000
b11110000 o
0.
0D
12
#2435000
1.
1D
02
#2440000
b11110001 o
0.
0D
12
#2445000
1.
1D
02
#2450000
b11110010 o
0.
0D
12
#2455000
1.
1D
02
#2460000
b11110011 o
0.
0D
12
#2465000
1.
1D
02
#2470000
b11110100 o
0.
0D
12
#2475000
1.
1D
02
#2480000
b11110101 o
0.
0D
12
#2485000
1.
1D
02
#2490000
b11110110 o
0.
0D
12
#2495000
1.
1D
02
#2500000
b11110111 o
0.
0D
12
#2505000
1.
1D
02
#2510000
b11111000 o
0.
0D
12
#2515000
1.
1D
02
#2520000
b11111001 o
0.
0D
12
#2525000
1.
1D
02
#2530000
b11111010 o
0.
0D
12
#2535000
1.
1D
02
#2540000
b11111011 o
0.
0D
12
#2545000
1.
1D
02
#2550000
b11111100 o
0.
0D
12
#2555000
1.
1D
02
#2560000
b11111101 o
0.
0D
12
#2565000
1.
1D
02
#2570000
b11111110 o
0.
0D
12
#2575000
1.
1D
02
#2580000
b11111111 o
0.
0D
12
#2585000
1.
1D
02
#2590000
b100000000 o
0.
0D
12
#2595000
1.
1D
02
#2600000
b100000001 o
0.
0D
12
#2605000
1.
1D
02
#2610000
b100000010 o
0.
0D
12
#2615000
1.
1D
02
#2620000
b100000011 o
0.
0D
12
#2625000
1.
1D
02
#2630000
b100000100 o
0.
0D
12
#2635000
1.
1D
02
#2640000
b100000101 o
0.
0D
12
#2645000
1.
1D
02
#2650000
b100000110 o
0.
0D
12
#2655000
1.
1D
02
#2660000
b100000111 o
0.
0D
12
#2665000
1.
1D
02
#2670000
b100001000 o
0.
0D
12
#2675000
1.
1D
02
#2680000
b100001001 o
0.
0D
12
#2685000
1.
1D
02
#2690000
b100001010 o
0.
0D
12
#2695000
1.
1D
02
#2700000
b100001011 o
0.
0D
12
#2705000
1.
1D
02
#2710000
b100001100 o
0.
0D
12
#2715000
1.
1D
02
#2720000
b100001101 o
0.
0D
12
#2725000
1.
1D
02
#2730000
b100001110 o
0.
0D
12
#2735000
1.
1D
02
#2740000
b100001111 o
0.
0D
12
#2745000
1.
1D
02
#2750000
b100010000 o
0.
0D
12
#2755000
1.
1D
02
