test/sdram_tb.vcd
$date
	Thu Oct 26 18:52:53 2023
$end
$version
	Icarus Verilog
$end
$timescale
	1ps
$end
$scope module sdram_tb $end
$var wire 1 ! rdq $end
$var wire 1 " wrq $end
$var wire 1 # we_n $end
$var wire 3 $ sdram_cmd [2:0] $end
$var wire 1 % ras_n $end
$var wire 1 & p0_ready $end
$var wire 32 ' p0_q [31:0] $end
$var wire 1 ( p0_available $end
$var wire 1 ) init_complete $end
$var wire 4 * dqm [3:0] $end
$var wire 32 + dq_o [31:0] $end
$var wire 32 , dq [31:0] $end
$var wire 1 - cs_n $end
$var wire 1 . cke $end
$var wire 1 / chip_clk $end
$var wire 1 0 cas_n $end
$var wire 2 1 ba [1:0] $end
$var wire 11 2 addr [10:0] $end
$var reg 1 3 clk $end
$var reg 21 4 p0_addr [20:0] $end
$var reg 4 5 p0_byte_en [3:0] $end
$var reg 32 6 p0_data [31:0] $end
$var reg 1 7 p0_rd_req $end
$var reg 1 8 p0_wr_req $end
$var reg 1 9 reset $end
$scope module sdram $end
$var wire 1 / SDRAM_CLK $end
$var wire 32 : SDRAM_DQ_o [31:0] $end
$var wire 1 3 clk $end
$var wire 3 ; concrete_burst_length [2:0] $end
$var wire 13 < configured_mode [12:0] $end
$var wire 21 = p0_addr [20:0] $end
$var wire 1 ( p0_available $end
$var wire 4 > p0_byte_en [3:0] $end
$var wire 32 ? p0_data [31:0] $end
$var wire 1 7 p0_rd_req $end
$var wire 1 @ p0_req $end
$var wire 1 A p0_req_queue $end
$var wire 1 8 p0_wr_req $end
$var wire 1 B port_req $end
$var wire 1 9 reset $end
$var wire 1 C sdram_clk $end
$var wire 21 D p0_addr_current [20:0] $end
$var wire 1 ) init_complete $end
$var wire 1 # SDRAM_nWE $end
$var wire 1 % SDRAM_nRAS $end
$var wire 1 - SDRAM_nCS $end
$var wire 1 0 SDRAM_nCAS $end
$var wire 32 E SDRAM_DQ [31:0] $end
$var parameter 32 F BANK_WIDTH $end
$var parameter 32 G BURST_LENGTH $end
$var parameter 32 H BURST_TYPE $end
$var parameter 32 I CAS_LATENCY $end
$var real 1 J CLOCK_PERIOD_NANO_SEC $end
$var parameter 32 K CLOCK_SPEED_MHZ $end
$var parameter 32 L COL_WIDTH $end
$var parameter 33 M CYCLES_AFTER_WRITE_FOR_NEXT_COMMAND $end
$var parameter 33 N CYCLES_BETWEEN_ACTIVE_COMMAND $end
$var parameter 33 O CYCLES_FOR_ACTIVE_ROW $end
$var parameter 33 P CYCLES_FOR_AUTOREFRESH $end
$var parameter 33 Q CYCLES_PER_REFRESH $end
$var parameter 34 R CYCLES_UNTIL_CLEAR_INHIBIT $end
$var parameter 36 S CYCLES_UNTIL_INIT_PRECHARGE_END $end
$var parameter 37 T CYCLES_UNTIL_REFRESH1_END $end
$var parameter 38 U CYCLES_UNTIL_REFRESH2_END $end
$var parameter 33 V CYCLES_UNTIL_START_INHIBIT $end
$var parameter 32 W DATA_WIDTH $end
$var parameter 32 X DQM_WIDTH $end
$var parameter 32 Y P0_BURST_LENGTH $end
$var parameter 65 Z P0_OUTPUT_WIDTH $end
$var parameter 32 [ ROW_WIDTH $end
$var parameter 32 \ SETTING_INHIBIT_DELAY_MICRO_SEC $end
$var parameter 32 ] SETTING_REFRESH_TIMER_NANO_SEC $end
$var parameter 32 ^ SETTING_T_CK_MIN_CLOCK_CYCLE_TIME_NANO_SEC $end
$var parameter 32 _ SETTING_T_MRD_MIN_LOAD_MODE_CLOCK_CYCLES $end
$var parameter 32 ` SETTING_T_RAS_MIN_ROW_ACTIVE_TIME_NANO_SEC $end
$var parameter 32 a SETTING_T_RCD_MIN_READ_WRITE_DELAY_NANO_SEC $end
$var parameter 32 b SETTING_T_RC_MIN_ACTIVE_TO_ACTIVE_PERIOD_NANO_SEC $end
$var parameter 32 c SETTING_T_RC_MIN_ROW_CYCLE_TIME_NANO_SEC $end
$var parameter 32 d SETTING_T_RFC_MIN_AUTOREFRESH_PERIOD_NANO_SEC $end
$var parameter 32 e SETTING_T_RP_MIN_PRECHARGE_CMD_PERIOD_NANO_SEC $end
$var parameter 32 f SETTING_T_WR_MIN_WRITE_AUTO_PRECHARGE_RECOVERY_NANO_SEC $end
$var parameter 32 g SETTING_USE_FAST_INPUT_REGISTER $end
$var parameter 32 h WRITE_BURST $end
$var reg 11 i SDRAM_A [10:0] $end
$var reg 2 j SDRAM_BA [1:0] $end
$var reg 1 . SDRAM_CKE $end
$var reg 4 k SDRAM_DQM [3:0] $end
$var reg 2 l active_port [1:0] $end
$var reg 32 m delay_counter [31:0] $end
$var reg 1 n dq_output $end
$var reg 32 o dq_reg [31:0] $end
$var reg 21 p p0_addr_queue [20:0] $end
$var reg 4 q p0_byte_en_queue [3:0] $end
$var reg 32 r p0_data_queue [31:0] $end
$var reg 32 s p0_q [31:0] $end
$var reg 1 t p0_rd_queue $end
$var reg 1 & p0_ready $end
$var reg 1 u p0_wr_queue $end
$var reg 4 v read_counter [3:0] $end
$var reg 16 w refresh_counter [15:0] $end
$var reg 32 x sdram_data [31:0] $end
$var reg 2 y current_io_operation [1:0] $end
$var reg 3 z delay_state [2:0] $end
$var reg 4 { sdram_command [3:0] $end
$var reg 3 | state [2:0] $end
$scope function get_active_port $end
$var reg 46 } selection [45:0] $end
$upscope $end
$scope begin $unm_blk_22 $end
$var reg 46 ~ active_port_entries [45:0] $end
$upscope $end
$scope begin $unm_blk_23 $end
$var reg 46 !" active_port_entries [45:0] $end
$upscope $end
$scope task set_active_command $end
$var reg 21 "" addr [20:0] $end
$var reg 2 #" port [1:0] $end
$upscope $end
$upscope $end
$scope module sdram0 $end
$var wire 1 $" Active_enable $end
$var wire 11 %" Addr [10:0] $end
$var wire 1 &" Aref_enable $end
$var wire 2 '" Ba [1:0] $end
$var wire 1 (" Burst_length_1 $end
$var wire 1 )" Burst_length_2 $end
$var wire 1 *" Burst_length_4 $end
$var wire 1 +" Burst_length_8 $end
$var wire 1 ," Burst_length_f $end
$var wire 1 -" Burst_term $end
$var wire 1 ." Cas_latency_1 $end
$var wire 1 /" Cas_latency_2 $end
$var wire 1 0" Cas_latency_3 $end
$var wire 1 0 Cas_n $end
$var wire 1 . Cke $end
$var wire 1 / Clk $end
$var wire 1 - Cs_n $end
$var wire 1 1" Debug $end
$var wire 32 2" Dq [31:0] $end
$var wire 1 3" Dq_chk $end
$var wire 32 4" Dq_o [31:0] $end
$var wire 4 5" Dqm [3:0] $end
$var wire 1 6" Mode_reg_enable $end
$var wire 1 7" Prech_enable $end
$var wire 1 % Ras_n $end
$var wire 1 8" Read_enable $end
$var wire 1 # We_n $end
$var wire 1 9" Write_enable $end
$var wire 1 :" Write_burst_mode $end
$var parameter 32 ;" addr_bits $end
$var parameter 32 <" col_bits $end
$var parameter 32 =" data_bits $end
$var parameter 32 >" mem_sizes $end
$var real 1 ?" tAC $end
$var real 1 @" tAH $end
$var real 1 A" tAS $end
$var real 1 B" tCH $end
$var real 1 C" tCK $end
$var real 1 D" tCKH $end
$var real 1 E" tCKS $end
$var real 1 F" tCL $end
$var real 1 G" tCMH $end
$var real 1 H" tCMS $end
$var real 1 I" tDH $end
$var real 1 J" tDS $end
$var real 1 K" tHZ $end
$var real 1 L" tMRD $end
$var parameter 32 M" tOH $end
$var real 1 N" tRAS $end
$var real 1 O" tRC $end
$var real 1 P" tRCD $end
$var real 1 Q" tRFC $end
$var real 1 R" tRP $end
$var real 1 S" tRRD $end
$var real 1 T" tWRa $end
$var real 1 U" tWRm $end
$var reg 1 V" Act_b0 $end
$var reg 1 W" Act_b1 $end
$var reg 1 X" Act_b2 $end
$var reg 1 Y" Act_b3 $end
$var reg 11 Z" B0_row_addr [10:0] $end
$var reg 11 [" B1_row_addr [10:0] $end
$var reg 11 \" B2_row_addr [10:0] $end
$var reg 11 ]" B3_row_addr [10:0] $end
$var reg 2 ^" Bank [1:0] $end
$var reg 8 _" Burst_counter [7:0] $end
$var reg 1 `" CkeZ $end
$var reg 8 a" Col [7:0] $end
$var reg 8 b" Col_brst [7:0] $end
$var reg 8 c" Col_temp [7:0] $end
$var reg 1 d" Data_in_enable $end
$var reg 1 e" Data_out_enable $end
$var reg 32 f" Dq_dqm [31:0] $end
$var reg 32 g" Dq_reg [31:0] $end
$var reg 4 h" Dqm_reg0 [3:0] $end
$var reg 4 i" Dqm_reg1 [3:0] $end
$var reg 64 j" MRD_chk [63:0] $end
$var reg 11 k" Mode_reg [10:0] $end
$var reg 1 l" Pc_b0 $end
$var reg 1 m" Pc_b1 $end
$var reg 1 n" Pc_b2 $end
$var reg 1 o" Pc_b3 $end
$var reg 2 p" Prev_bank [1:0] $end
$var reg 64 q" RAS_chk0 [63:0] $end
$var reg 64 r" RAS_chk1 [63:0] $end
$var reg 64 s" RAS_chk2 [63:0] $end
$var reg 64 t" RAS_chk3 [63:0] $end
$var reg 64 u" RCD_chk0 [63:0] $end
$var reg 64 v" RCD_chk1 [63:0] $end
$var reg 64 w" RCD_chk2 [63:0] $end
$var reg 64 x" RCD_chk3 [63:0] $end
$var reg 64 y" RC_chk0 [63:0] $end
$var reg 64 z" RC_chk1 [63:0] $end
$var reg 64 {" RC_chk2 [63:0] $end
$var reg 64 |" RC_chk3 [63:0] $end
$var reg 64 }" RFC_chk [63:0] $end
$var reg 64 ~" RP_chk0 [63:0] $end
$var reg 64 !# RP_chk1 [63:0] $end
$var reg 64 "# RP_chk2 [63:0] $end
$var reg 64 ## RP_chk3 [63:0] $end
$var reg 64 $# RRD_chk [63:0] $end
$var reg 2 %# RW_interrupt_bank [1:0] $end
$var reg 11 &# Row [10:0] $end
$var reg 1 '# Sys_clk $end
$scope task Burst_decode $end
$upscope $end
$upscope $end
$upscope $end
$enddefinitions $end
$comment Show the parameter values. $end
$dumpall
r12 U"
r6 T"
r12 S"
r18 R"
r60 Q"
r18 P"
r60 O"
r42 N"
b11 M"
r2 L"
r5.4 K"
r1.5 J"
r1 I"
r1.5 H"
r1 G"
r2.5 F"
r1.5 E"
r1 D"
r6 C"
r2.5 B"
r1.5 A"
r1 @"
r5.4 ?"
b1111111111111111111 >"
b100000 ="
b1000 <"
b1011 ;"
b0 h
b1 g
b1111 f
b10010 e
b1010000 d
b111100 c
b111100 b
b10010 a
b110000 `
b10 _
b110 ^
b1110101001100 ]
b1100100 \
b1011 [
b11111 Z
b1 Y
b100 X
b100000 W
b1001110001001 V
b10011110010011 U
b10011110001010 T
b10011110000001 S
b10011101110101 R
b1011101111 Q
b1001 P
b10 O
b111 N
b100 M
b1000 L
b1100100 K
r10 J
b11 I
b0 H
b1 G
b10 F
$end
#0
$dumpvars
x'#
bx &#
bx %#
b0 $#
b0 ##
b0 "#
b0 !#
b0 ~"
b0 }"
b0 |"
b0 {"
b0 z"
b0 y"
b0 x"
b0 w"
b0 v"
b0 u"
b0 t"
b0 s"
b0 r"
b0 q"
bx p"
0o"
0n"
0m"
0l"
bx k"
b0 j"
bx i"
bx h"
bz g"
bx f"
0e"
0d"
bx c"
bx b"
bx a"
x`"
bx _"
bx ^"
bx ]"
bx \"
bx ["
bx Z"
1Y"
1X"
1W"
1V"
x:"
09"
08"
07"
16"
bx 5"
bz 4"
03"
b0 2"
11"
x0"
x/"
x."
0-"
x,"
x+"
x*"
x)"
x("
bx '"
0&"
bx %"
0$"
bx #"
bx ""
bx !"
bx ~
bx }
b0 |
b0 {
b0 z
b0 y
b0 x
b0 w
b0 v
0u
0t
bx s
b0 r
b0 q
b0 p
bx o
0n
b0 m
b0 l
bx k
bx j
bx i
bz E
b0 D
0C
0B
0A
0@
b0 ?
b0 >
b0 =
b1000110000 <
b0 ;
b0 :
19
08
07
b0 6
b0 5
b0 4
13
bx 2
bx 1
00
0/
x.
0-
b0 ,
bz +
bx *
0)
0(
bx '
0&
0%
b0 $
0#
0"
0!
$end
#5000
bz o
1/
1C
03
#10000
0$"
06"
0&"
1%
10
b111 $
1#
b0 '
b0 s
b111 {
b1 z
0.
0'#
0/
0C
13
#15000
b1 j"
0`"
x'#
1/
1C
03
#20000
0'#
0/
0C
13
#25000
1/
1C
03
#30000
0/
0C
13
#35000
1/
1C
03
#40000
b1 m
0/
0C
13
09
#45000
1/
1C
03
#50000
b10 m
0/
0C
13
#55000
1/
1C
03
#60000
b11 m
0/
0C
13
#65000
1/
1C
03
#70000
b100 m
0/
0C
13
#75000
1/
1C
03
#80000
b101 m
0/
0C
13
#85000
1/
1C
03
#90000
b110 m
0/
0C
13
#95000
1/
1C
03
#100000
b111 m
0/
0C
13
#105000
1/
1C
03
#110000
b1000 m
0/
0C
13
#115000
1/
1C
03
#120000
b1001 m
0/
0C
13
#125000
1/
1C
03
#130000
b1010 m
0/
0C
13
#135000
1/
1C
03
#140000
b1011 m
0/
0C
13
#145000
1/
1C
03
#150000
b1100 m
0/
0C
13
#155000
1/
1C
03
#160000
b1101 m
0/
0C
13
#165000
1/
1C
03
#170000
b1110 m
0/
0C
13
#175000
1/
1C
03
#180000
b1111 m
0/
0C
13
#185000
1/
1C
03
#190000
b10000 m
0/
0C
13
#195000
1/
1C
03
#200000
b10001 m
0/
0C
13
#205000
1/
1C
03
#210000
b10010 m
0/
0C
13
#215000
1/
1C
03
#220000
b10011 m
0/
0C
13
#225000
1/
1C
03
#230000
b10100 m
0/
0C
13
#235000
1/
1C
03
#240000
b10101 m
0/
0C
13
#245000
1/
1C
03
#250000
b10110 m
0/
0C
13
#255000
1/
1C
03
#260000
b10111 m
0/
0C
13
#265000
1/
1C
03
#270000
b11000 m
0/
0C
13
#275000
1/
1C
03
#280000
b11001 m
0/
0C
13
#285000
1/
1C
03
#290000
b11010 m
0/
0C
13
#295000
1/
1C
03
#300000
b11011 m
0/
0C
13
#305000
1/
1C
03
#310000
b11100 m
0/
0C
13
#315000
1/
1C
03
#320000
b11101 m
0/
0C
13
#325000
1/
1C
03
#330000
b11110 m
0/
0C
13
#335000
1/
1C
03
#340000
b11111 m
0/
0C
13
#345000
1/
1C
03
#350000
b100000 m
0/
0C
13
#355000
1/
1C
03
#360000
b100001 m
0/
0C
13
#365000
1/
1C
03
#370000
b100010 m
0/
0C
13
#375000
1/
1C
03
#380000
b100011 m
0/
0C
13
#385000
1/
1C
03
#390000
b100100 m
0/
0C
13
#395000
1/
1C
03
#400000
b100101 m
0/
0C
13
#405000
1/
1C
03
#410000
b100110 m
0/
0C
13
#415000
1/
1C
03
#420000
b100111 m
0/
0C
13
#425000
1/
1C
03
#430000
b101000 m
0/
0C
13
#435000
1/
1C
03
#440000
b101001 m
0/
0C
13
#445000
1/
1C
03
#450000
b101010 m
0/
0C
13
#455000
1/
1C
03
#460000
b101011 m
0/
0C
13
#465000
1/
1C
03
#470000
b101100 m
0/
0C
13
#475000
1/
1C
03
#480000
b101101 m
0/
0C
13
#485000
1/
1C
03
#490000
b101110 m
0/
0C
13
#495000
1/
1C
03
#500000
b101111 m
0/
0C
13
#505000
1/
1C
03
#510000
b110000 m
0/
0C
13
#515000
1/
1C
03
#520000
b110001 m
0/
0C
13
#525000
1/
1C
03
#530000
b110010 m
0/
0C
13
#535000
1/
1C
03
#540000
b110011 m
0/
0C
13
#545000
1/
1C
03
#550000
b110100 m
0/
0C
13
#555000
1/
1C
03
#560000
b110101 m
0/
0C
13
#565000
1/
1C
03
#570000
b110110 m
0/
0C
13
#575000
1/
1C
03
#580000
b110111 m
0/
0C
13
#585000
1/
1C
03
#590000
b111000 m
0/
0C
13
#595000
1/
1C
03
#600000
b111001 m
0/
0C
13
#605000
1/
1C
03
#610000
b111010 m
0/
0C
13
#615000
1/
1C
03
#620000
b111011 m
0/
0C
13
#625000
1/
1C
03
#630000
b111100 m
0/
0C
13
#635000
1/
1C
03
#640000
b111101 m
0/
0C
13
#645000
1/
1C
03
#650000
b111110 m
0/
0C
13
#655000
1/
1C
03
#660000
b111111 m
0/
0C
13
#665000
1/
1C
03
#670000
b1000000 m
0/
0C
13
#675000
1/
1C
03
#680000
b1000001 m
0/
0C
13
#685000
1/
1C
03
#690000
b1000010 m
0/
0C
13
#695000
1/
1C
03
#700000
b1000011 m
0/
0C
13
#705000
1/
1C
03
#710000
b1000100 m
0/
0C
13
#715000
1/
1C
03
#720000
b1000101 m
0/
0C
13
#725000
1/
1C
03
#730000
b1000110 m
0/
0C
13
#735000
1/
1C
03
#740000
b1000111 m
0/
0C
13
#745000
1/
1C
03
#750000
b1001000 m
0/
0C
13
#755000
1/
1C
03
#760000
b1001001 m
0/
0C
13
#765000
1/
1C
03
#770000
b1001010 m
0/
0C
13
#775000
1/
1C
03
#780000
b1001011 m
0/
0C
13
#785000
1/
1C
03
#790000
b1001100 m
0/
0C
13
#795000
1/
1C
03
#800000
b1001101 m
0/
0C
13
#805000
1/
1C
03
#810000
b1001110 m
0/
0C
13
#815000
1/
1C
03
#820000
b1001111 m
0/
0C
13
#825000
1/
1C
03
#830000
b1010000 m
0/
0C
13
#835000
1/
1C
03
#840000
b1010001 m
0/
0C
13
#845000
1/
1C
03
#850000
b1010010 m
0/
0C
13
#855000
1/
1C
03
#860000
b1010011 m
0/
0C
13
#865000
1/
1C
03
#870000
b1010100 m
0/
0C
13
#875000
1/
1C
03
#880000
b1010101 m
0/
0C
13
#885000
1/
1C
03
#890000
b1010110 m
0/
0C
13
#895000
1/
1C
03
#900000
b1010111 m
0/
0C
13
#905000
1/
1C
03
#910000
b1011000 m
0/
0C
13
#915000
1/
1C
03
#920000
b1011001 m
0/
0C
13
#925000
1/
1C
03
#930000
b1011010 m
0/
0C
13
#935000
1/
1C
03
#940000
b1011011 m
0/
0C
13
#945000
1/
1C
03
#950000
b1011100 m
0/
0C
13
#955000
1/
1C
03
#960000
b1011101 m
0/
0C
13
#965000
1/
1C
03
#970000
b1011110 m
0/
0C
13
#975000
1/
1C
03
#980000
b1011111 m
0/
0C
13
#985000
1/
1C
03
#990000
b1100000 m
0/
0C
13
#995000
1/
1C
03
#1000000
b1100001 m
0/
0C
13
#1005000
1/
1C
03
#1010000
b1100010 m
0/
0C
13
#1015000
1/
1C
03
#1020000
b1100011 m
0/
0C
13
#1025000
1/
1C
03
#1030000
b1100100 m
0/
0C
13
#1035000
1/
1C
03
#1040000
b1100101 m
0/
0C
13
#1045000
1/
1C
03
#1050000
b1100110 m
0/
0C
13
#1055000
1/
1C
03
#1060000
b1100111 m
0/
0C
13
#1065000
1/
1C
03
#1070000
b1101000 m
0/
0C
13
#1075000
1/
1C
03
#1080000
b1101001 m
0/
0C
13
#1085000
1/
1C
03
#1090000
b1101010 m
0/
0C
13
#1095000
1/
1C
03
#1100000
b1101011 m
0/
0C
13
#1105000
1/
1C
03
#1110000
b1101100 m
0/
0C
13
#1115000
1/
1C
03
#1120000
b1101101 m
0/
0C
13
#1125000
1/
1C
03
#1130000
b1101110 m
0/
0C
13
#1135000
1/
1C
03
#1140000
b1101111 m
0/
0C
13
#1145000
1/
1C
03
#1150000
b1110000 m
0/
0C
13
#1155000
1/
1C
03
#1160000
b1110001 m
0/
0C
13
#1165000
1/
1C
03
#1170000
b1110010 m
0/
0C
13
#1175000
1/
1C
03
#1180000
b1110011 m
0/
0C
13
#1185000
1/
1C
03
#1190000
b1110100 m
0/
0C
13
#1195000
1/
1C
03
#1200000
b1110101 m
0/
0C
13
#1205000
1/
1C
03
#1210000
b1110110 m
0/
0C
13
#1215000
1/
1C
03
#1220000
b1110111 m
0/
0C
13
#1225000
1/
1C
03
#1230000
b1111000 m
0/
0C
13
#1235000
1/
1C
03
#1240000
b1111001 m
0/
0C
13
#1245000
1/
1C
03
#1250000
b1111010 m
0/
0C
13
#1255000
1/
1C
03
#1260000
b1111011 m
0/
0C
13
#1265000
1/
1C
03
#1270000
b1111100 m
0/
0C
13
#1275000
1/
1C
03
#1280000
b1111101 m
0/
0C
13
#1285000
1/
1C
03
#1290000
b1111110 m
0/
0C
13
#1295000
1/
1C
03
#1300000
b1111111 m
0/
0C
13
#1305000
1/
1C
03
#1310000
b10000000 m
0/
0C
13
#1315000
1/
1C
03
#1320000
b10000001 m
0/
0C
13
#1325000
1/
1C
03
#1330000
b10000010 m
0/
0C
13
#1335000
1/
1C
03
#1340000
b10000011 m
0/
0C
13
#1345000
1/
1C
03
#1350000
b10000100 m
0/
0C
13
#1355000
1/
1C
03
#1360000
b10000101 m
0/
0C
13
#1365000
1/
1C
03
#1370000
b10000110 m
0/
0C
13
#1375000
1/
1C
03
#1380000
b10000111 m
0/
0C
13
#1385000
1/
1C
03
#1390000
b10001000 m
0/
0C
13
#1395000
1/
1C
03
#1400000
b10001001 m
0/
0C
13
#1405000
1/
1C
03
#1410000
b10001010 m
0/
0C
13
#1415000
1/
1C
03
#1420000
b10001011 m
0/
0C
13
#1425000
1/
1C
03
#1430000
b10001100 m
0/
0C
13
#1435000
1/
1C
03
#1440000
b10001101 m
0/
0C
13
#1445000
1/
1C
03
#1450000
b10001110 m
0/
0C
13
#1455000
1/
1C
03
#1460000
b10001111 m
0/
0C
13
#1465000
1/
1C
03
#1470000
b10010000 m
0/
0C
13
#1475000
1/
1C
03
#1480000
b10010001 m
0/
0C
13
#1485000
1/
1C
03
#1490000
b10010010 m
0/
0C
13
#1495000
1/
1C
03
#1500000
b10010011 m
0/
0C
13
#1505000
1/
1C
03
#1510000
b10010100 m
0/
0C
13
#1515000
1/
1C
03
#1520000
b10010101 m
0/
0C
13
#1525000
1/
1C
03
#1530000
b10010110 m
0/
0C
13
#1535000
1/
1C
03
#1540000
b10010111 m
0/
0C
13
#1545000
1/
1C
03
#1550000
b10011000 m
0/
0C
13
#1555000
1/
1C
03
#1560000
b10011001 m
0/
0C
13
#1565000
1/
1C
03
#1570000
b10011010 m
0/
0C
13
#1575000
1/
1C
03
#1580000
b10011011 m
0/
0C
13
#1585000
1/
1C
03
#1590000
b10011100 m
0/
0C
13
#1595000
1/
1C
03
#1600000
b10011101 m
0/
0C
13
#1605000
1/
1C
03
#1610000
b10011110 m
0/
0C
13
#1615000
1/
1C
03
#1620000
b10011111 m
0/
0C
13
#1625000
1/
1C
03
#1630000
b10100000 m
0/
0C
13
#1635000
1/
1C
03
#1640000
b10100001 m
0/
0C
13
#1645000
1/
1C
03
#1650000
b10100010 m
0/
0C
13
#1655000
1/
1C
03
#1660000
b10100011 m
0/
0C
13
#1665000
1/
1C
03
#1670000
b10100100 m
0/
0C
13
#1675000
1/
1C
03
#1680000
b10100101 m
0/
0C
13
#1685000
1/
1C
03
#1690000
b10100110 m
0/
0C
13
#1695000
1/
1C
03
#1700000
b10100111 m
0/
0C
13
#1705000
1/
1C
03
#1710000
b10101000 m
0/
0C
13
#1715000
1/
1C
03
#1720000
b10101001 m
0/
0C
13
#1725000
1/
1C
03
#1730000
b10101010 m
0/
0C
13
#1735000
1/
1C
03
#1740000
b10101011 m
0/
0C
13
#1745000
1/
1C
03
#1750000
b10101100 m
0/
0C
13
#1755000
1/
1C
03
#1760000
b10101101 m
0/
0C
13
#1765000
1/
1C
03
#1770000
b10101110 m
0/
0C
13
#1775000
1/
1C
03
#1780000
b10101111 m
0/
0C
13
#1785000
1/
1C
03
#1790000
b10110000 m
0/
0C
13
#1795000
1/
1C
03
#1800000
b10110001 m
0/
0C
13
#1805000
1/
1C
03
#1810000
b10110010 m
0/
0C
13
#1815000
1/
1C
03
#1820000
b10110011 m
0/
0C
13
#1825000
1/
1C
03
#1830000
b10110100 m
0/
0C
13
#1835000
1/
1C
03
#1840000
b10110101 m
0/
0C
13
#1845000
1/
1C
03
#1850000
b10110110 m
0/
0C
13
#1855000
1/
1C
03
#1860000
b10110111 m
0/
0C
13
#1865000
1/
1C
03
#1870000
b10111000 m
0/
0C
13
#1875000
1/
1C
03
#1880000
b10111001 m
0/
0C
13
#1885000
1/
1C
03
#1890000
b10111010 m
0/
0C
13
#1895000
1/
1C
03
#1900000
b10111011 m
0/
0C
13
#1905000
1/
1C
03
#1910000
b10111100 m
0/
0C
13
#1915000
1/
1C
03
#1920000
b10111101 m
0/
0C
13
#1925000
1/
1C
03
#1930000
b10111110 m
0/
0C
13
#1935000
1/
1C
03
#1940000
b10111111 m
0/
0C
13
#1945000
1/
1C
03
#1950000
b11000000 m
0/
0C
13
#1955000
1/
1C
03
#1960000
b11000001 m
0/
0C
13
#1965000
1/
1C
03
#1970000
b11000010 m
0/
0C
13
#1975000
1/
1C
03
#1980000
b11000011 m
0/
0C
13
#1985000
1/
1C
03
#1990000
b11000100 m
0/
0C
13
#1995000
1/
1C
03
#2000000
b11000101 m
0/
0C
13
#2005000
1/
1C
03
#2010000
b11000110 m
0/
0C
13
#2015000
1/
1C
03
#2020000
b11000111 m
0/
0C
13
#2025000
1/
1C
03
#2030000
b11001000 m
0/
0C
13
#2035000
1/
1C
03
#2040000
b11001001 m
0/
0C
13
#2045000
1/
1C
03
#2050000
b11001010 m
0/
0C
13
#2055000
1/
1C
03
#2060000
b11001011 m
0/
0C
13
#2065000
1/
1C
03
#2070000
b11001100 m
0/
0C
13
#2075000
1/
1C
03
#2080000
b11001101 m
0/
0C
13
#2085000
1/
1C
03
#2090000
b11001110 m
0/
0C
13
#2095000
1/
1C
03
#2100000
b11001111 m
0/
0C
13
#2105000
1/
1C
03
#2110000
b11010000 m
0/
0C
13
#2115000
1/
1C
03
#2120000
b11010001 m
0/
0C
13
#2125000
1/
1C
03
#2130000
b11010010 m
0/
0C
13
#2135000
1/
1C
03
#2140000
b11010011 m
0/
0C
13
#2145000
1/
1C
03
#2150000
b11010100 m
0/
0C
13
#2155000
1/
1C
03
#2160000
b11010101 m
0/
0C
13
#2165000
1/
1C
03
#2170000
b11010110 m
0/
0C
13
#2175000
1/
1C
03
#2180000
b11010111 m
0/
0C
13
#2185000
1/
1C
03
#2190000
b11011000 m
0/
0C
13
#2195000
1/
1C
03
#2200000
b11011001 m
0/
0C
13
#2205000
1/
1C
03
#2210000
b11011010 m
0/
0C
13
#2215000
1/
1C
03
#2220000
b11011011 m
0/
0C
13
#2225000
1/
1C
03
#2230000
b11011100 m
0/
0C
13
#2235000
1/
1C
03
#2240000
b11011101 m
0/
0C
13
#2245000
1/
1C
03
#2250000
b11011110 m
0/
0C
13
#2255000
1/
1C
03
#2260000
b11011111 m
0/
0C
13
#2265000
1/
1C
03
#2270000
b11100000 m
0/
0C
13
#2275000
1/
1C
03
#2280000
b11100001 m
0/
0C
13
#2285000
1/
1C
03
#2290000
b11100010 m
0/
0C
13
#2295000
1/
1C
03
#2300000
b11100011 m
0/
0C
13
#2305000
1/
1C
03
#2310000
b11100100 m
0/
0C
13
#2315000
1/
1C
03
#2320000
b11100101 m
0/
0C
13
#2325000
1/
1C
03
#2330000
b11100110 m
0/
0C
13
#2335000
1/
1C
03
#2340000
b11100111 m
0/
0C
13
#2345000
1/
1C
03
#2350000
b11101000 m
0/
0C
13
#2355000
1/
1C
03
#2360000
b11101001 m
0/
0C
13
#2365000
1/
1C
03
#2370000
b11101010 m
0/
0C
13
#2375000
1/
1C
03
#2380000
b11101011 m
0/
0C
13
#2385000
1/
1C
03
#2390000
b11101100 m
0/
0C
13
#2395000
1/
1C
03
#2400000
b11101101 m
0/
0C
13
#2405000
1/
1C
03
#2410000
b11101110 m
0/
0C
13
#2415000
1/
1C
03
#2420000
b11101111 m
0/
0C
13
#2425000
1/
1C
03
#2430000
b11110000 m
0/
0C
13
#2435000
1/
1C
03
#2440000
b11110001 m
0/
0C
13
#2445000
1/
1C
03
#2450000
b11110010 m
0/
0C
13
#2455000
1/
1C
03
#2460000
b11110011 m
0/
0C
13
#2465000
1/
1C
03
#2470000
b11110100 m
0/
0C
13
#2475000
1/
1C
03
#2480000
b11110101 m
0/
0C
13
#2485000
1/
1C
03
#2490000
b11110110 m
0/
0C
13
#2495000
1/
1C
03
#2500000
b11110111 m
0/
0C
13
#2505000
1/
1C
03
#2510000
b11111000 m
0/
0C
13
#2515000
1/
1C
03
#2520000
b11111001 m
0/
0C
13
#2525000
1/
1C
03
#2530000
b11111010 m
0/
0C
13
#2535000
1/
1C
03
#2540000
b11111011 m
0/
0C
13
#2545000
1/
1C
03
#2550000
b11111100 m
0/
0C
13
#2555000
1/
1C
03
#2560000
b11111101 m
0/
0C
13
#2565000
1/
1C
03
#2570000
b11111110 m
0/
0C
13
#2575000
1/
1C
03
#2580000
b11111111 m
0/
0C
13
#2585000
1/
1C
03
#2590000
b100000000 m
0/
0C
13
#2595000
1/
1C
03
#2600000
b100000001 m
0/
0C
13
#2605000
1/
1C
03
#2610000
b100000010 m
0/
0C
13
#2615000
1/
1C
03
#2620000
b100000011 m
0/
0C
13
#2625000
1/
1C
03
#2630000
b100000100 m
0/
0C
13
#2635000
1/
1C
03
#2640000
b100000101 m
0/
0C
13
#2645000
1/
1C
03
#2650000
b100000110 m
0/
0C
13
#2655000
1/
1C
03
#2660000
b100000111 m
0/
0C
13
#2665000
1/
1C
03
#2670000
b100001000 m
0/
0C
13
#2675000
1/
1C
03
#2680000
b100001001 m
0/
0C
13
#2685000
1/
1C
03
#2690000
b100001010 m
0/
0C
13
#2695000
1/
1C
03
#2700000
b100001011 m
0/
0C
13
#2705000
1/
1C
03
#2710000
b100001100 m
0/
0C
13
#2715000
1/
1C
03
#2720000
b100001101 m
0/
0C
13
#2725000
1/
1C
03
#2730000
b100001110 m
0/
0C
13
#2735000
1/
1C
03
#2740000
b100001111 m
0/
0C
13
#2745000
1/
1C
03
#2750000
b100010000 m
0/
0C
13
#2755000
1/
1C
03
#2760000
b100010001 m
0/
0C
13
#2765000
1/
1C
03
#2770000
b100010010 m
0/
0C
13
#2775000
1/
1C
03
#2780000
b100010011 m
0/
0C
13
#2785000
1/
1C
03
#2790000
b100010100 m
0/
0C
13
#2795000
1/
1C
03
#2800000
b100010101 m
0/
0C
13
