test/sdram_tb.vcd
$date
	Fri Oct 27 08:18:17 2023
$end
$version
	Icarus Verilog
$end
$timescale
	1ps
$end
$scope module sdram_tb $end
$var wire 16 ! dq [15:0] $end
$var wire 1 " we_n $end
$var wire 3 # sdram_cmd [2:0] $end
$var wire 1 $ ras_n $end
$var wire 1 % p0_ready $end
$var wire 128 & p0_q [127:0] $end
$var wire 1 ' p0_available $end
$var wire 1 ( init_complete $end
$var wire 2 ) dqm [1:0] $end
$var wire 1 * cs_n $end
$var wire 1 + cke $end
$var wire 1 , chip_clk $end
$var wire 1 - cas_n $end
$var wire 2 . ba [1:0] $end
$var wire 13 / addr [12:0] $end
$var reg 1 0 clk $end
$var reg 25 1 p0_addr [24:0] $end
$var reg 2 2 p0_byte_en [1:0] $end
$var reg 16 3 p0_data [15:0] $end
$var reg 1 4 p0_rd_req $end
$var reg 1 5 p0_wr_req $end
$var reg 1 6 reset $end
$scope module sdram $end
$var wire 16 7 SDRAM_DQ [15:0] $end
$var wire 1 0 clk $end
$var wire 3 8 concrete_burst_length [2:0] $end
$var wire 13 9 configured_mode [12:0] $end
$var wire 25 : p0_addr [24:0] $end
$var wire 1 ' p0_available $end
$var wire 2 ; p0_byte_en [1:0] $end
$var wire 16 < p0_data [15:0] $end
$var wire 1 4 p0_rd_req $end
$var wire 1 = p0_req $end
$var wire 1 > p0_req_queue $end
$var wire 1 5 p0_wr_req $end
$var wire 1 ? port_req $end
$var wire 1 6 reset $end
$var wire 25 @ p0_addr_current [24:0] $end
$var wire 1 ( init_complete $end
$var wire 1 " SDRAM_nWE $end
$var wire 1 $ SDRAM_nRAS $end
$var wire 1 * SDRAM_nCS $end
$var wire 1 - SDRAM_nCAS $end
$var wire 1 , SDRAM_CLK $end
$var parameter 32 A BURST_LENGTH $end
$var parameter 32 B BURST_TYPE $end
$var parameter 32 C CAS_LATENCY $end
$var real 1 D CLOCK_PERIOD_NANO_SEC $end
$var parameter 32 E CLOCK_SPEED_MHZ $end
$var parameter 33 F CYCLES_AFTER_WRITE_FOR_NEXT_COMMAND $end
$var parameter 33 G CYCLES_BETWEEN_ACTIVE_COMMAND $end
$var parameter 33 H CYCLES_FOR_ACTIVE_ROW $end
$var parameter 33 I CYCLES_FOR_AUTOREFRESH $end
$var parameter 33 J CYCLES_PER_REFRESH $end
$var parameter 34 K CYCLES_UNTIL_CLEAR_INHIBIT $end
$var parameter 36 L CYCLES_UNTIL_INIT_PRECHARGE_END $end
$var parameter 37 M CYCLES_UNTIL_REFRESH1_END $end
$var parameter 38 N CYCLES_UNTIL_REFRESH2_END $end
$var parameter 33 O CYCLES_UNTIL_START_INHIBIT $end
$var parameter 32 P P0_BURST_LENGTH $end
$var parameter 65 Q P0_OUTPUT_WIDTH $end
$var parameter 32 R SETTING_INHIBIT_DELAY_MICRO_SEC $end
$var parameter 32 S SETTING_REFRESH_TIMER_NANO_SEC $end
$var parameter 32 T SETTING_T_CK_MIN_CLOCK_CYCLE_TIME_NANO_SEC $end
$var parameter 32 U SETTING_T_MRD_MIN_LOAD_MODE_CLOCK_CYCLES $end
$var parameter 32 V SETTING_T_RAS_MIN_ROW_ACTIVE_TIME_NANO_SEC $end
$var parameter 32 W SETTING_T_RCD_MIN_READ_WRITE_DELAY_NANO_SEC $end
$var parameter 32 X SETTING_T_RC_MIN_ACTIVE_TO_ACTIVE_PERIOD_NANO_SEC $end
$var parameter 32 Y SETTING_T_RC_MIN_ROW_CYCLE_TIME_NANO_SEC $end
$var parameter 32 Z SETTING_T_RFC_MIN_AUTOREFRESH_PERIOD_NANO_SEC $end
$var parameter 32 [ SETTING_T_RP_MIN_PRECHARGE_CMD_PERIOD_NANO_SEC $end
$var parameter 32 \ SETTING_T_WR_MIN_WRITE_AUTO_PRECHARGE_RECOVERY_NANO_SEC $end
$var parameter 32 ] SETTING_USE_FAST_INPUT_REGISTER $end
$var parameter 32 ^ WRITE_BURST $end
$var reg 13 _ SDRAM_A [12:0] $end
$var reg 2 ` SDRAM_BA [1:0] $end
$var reg 1 + SDRAM_CKE $end
$var reg 2 a SDRAM_DQM [1:0] $end
$var reg 2 b active_port [1:0] $end
$var reg 32 c delay_counter [31:0] $end
$var reg 1 d dq_output $end
$var reg 25 e p0_addr_queue [24:0] $end
$var reg 2 f p0_byte_en_queue [1:0] $end
$var reg 16 g p0_data_queue [15:0] $end
$var reg 128 h p0_q [127:0] $end
$var reg 1 i p0_rd_queue $end
$var reg 1 % p0_ready $end
$var reg 1 j p0_wr_queue $end
$var reg 4 k read_counter [3:0] $end
$var reg 16 l refresh_counter [15:0] $end
$var reg 16 m sdram_data [15:0] $end
$var reg 16 n sdram_dq_reg [15:0] $end
$var reg 2 o current_io_operation [1:0] $end
$var reg 3 p delay_state [2:0] $end
$var reg 4 q sdram_command [3:0] $end
$var reg 3 r state [2:0] $end
$scope function get_active_port $end
$var reg 28 s selection [27:0] $end
$upscope $end
$scope begin $unm_blk_23 $end
$var reg 28 t active_port_entries [27:0] $end
$upscope $end
$scope begin $unm_blk_24 $end
$var reg 28 u active_port_entries [27:0] $end
$upscope $end
$scope begin $unm_blk_27 $end
$var reg 4 v expected_count [3:0] $end
$var reg 128 w temp [127:0] $end
$upscope $end
$scope task set_active_command $end
$var reg 25 x addr [24:0] $end
$var reg 2 y port [1:0] $end
$upscope $end
$upscope $end
$scope module sdram0 $end
$var wire 1 z Active_enable $end
$var wire 13 { Addr [12:0] $end
$var wire 1 | Aref_enable $end
$var wire 2 } Ba [1:0] $end
$var wire 1 ~ Burst_length_1 $end
$var wire 1 !" Burst_length_2 $end
$var wire 1 "" Burst_length_4 $end
$var wire 1 #" Burst_length_8 $end
$var wire 1 $" Burst_length_f $end
$var wire 1 %" Burst_term $end
$var wire 1 - Cas_n $end
$var wire 1 + Cke $end
$var wire 1 , Clk $end
$var wire 1 * Cs_n $end
$var wire 1 &" Debug $end
$var wire 16 '" Dq [15:0] $end
$var wire 1 (" Dq_chk $end
$var wire 2 )" Dqm [1:0] $end
$var wire 1 *" Mode_reg_enable $end
$var wire 1 +" Prech_enable $end
$var wire 1 $ Ras_n $end
$var wire 1 ," Read_enable $end
$var wire 1 " We_n $end
$var wire 1 -" Write_enable $end
$var wire 1 ." Write_burst_mode $end
$var wire 3 /" Cas_latency [2:0] $end
$var parameter 32 0" ADDR_BITS $end
$var parameter 32 1" BA_BITS $end
$var parameter 32 2" COL_BITS $end
$var parameter 32 3" DM_BITS $end
$var parameter 32 4" DQ_BITS $end
$var parameter 32 5" ROW_BITS $end
$var parameter 33 6" mem_sizes $end
$var real 1 7" tAC1 $end
$var real 1 8" tAC2 $end
$var real 1 9" tAC3 $end
$var real 1 :" tAH $end
$var real 1 ;" tAS $end
$var real 1 <" tCH $end
$var real 1 =" tCK $end
$var real 1 >" tCK1_min $end
$var real 1 ?" tCK2_min $end
$var real 1 @" tCK3 $end
$var real 1 A" tCK3_min $end
$var real 1 B" tCKH $end
$var real 1 C" tCKS $end
$var real 1 D" tCL $end
$var real 1 E" tCMH $end
$var real 1 F" tCMS $end
$var real 1 G" tDH $end
$var real 1 H" tDS $end
$var real 1 I" tHZ1 $end
$var real 1 J" tHZ2 $end
$var real 1 K" tHZ3 $end
$var real 1 L" tMRD $end
$var real 1 M" tOH $end
$var real 1 N" tRAS $end
$var real 1 O" tRC $end
$var real 1 P" tRCD $end
$var real 1 Q" tRFC $end
$var real 1 R" tRP $end
$var real 1 S" tRRD $end
$var real 1 T" tWRa $end
$var real 1 U" tWRm $end
$var reg 1 V" Act_b0 $end
$var reg 1 W" Act_b1 $end
$var reg 1 X" Act_b2 $end
$var reg 1 Y" Act_b3 $end
$var reg 13 Z" B0_row_addr [12:0] $end
$var reg 13 [" B1_row_addr [12:0] $end
$var reg 13 \" B2_row_addr [12:0] $end
$var reg 13 ]" B3_row_addr [12:0] $end
$var reg 2 ^" Bank [1:0] $end
$var reg 10 _" Burst_counter [9:0] $end
$var reg 1 `" CkeZ $end
$var reg 10 a" Col [9:0] $end
$var reg 10 b" Col_brst [9:0] $end
$var reg 10 c" Col_temp [9:0] $end
$var reg 1 d" Data_in_enable $end
$var reg 1 e" Data_out_enable $end
$var reg 16 f" Dq_dqm [15:0] $end
$var reg 16 g" Dq_reg [15:0] $end
$var reg 2 h" Dqm_reg0 [1:0] $end
$var reg 2 i" Dqm_reg1 [1:0] $end
$var reg 64 j" MRD_chk [63:0] $end
$var reg 13 k" Mode_reg [12:0] $end
$var reg 1 l" Pc_b0 $end
$var reg 1 m" Pc_b1 $end
$var reg 1 n" Pc_b2 $end
$var reg 1 o" Pc_b3 $end
$var reg 2 p" Prev_bank [1:0] $end
$var reg 64 q" RAS_chk0 [63:0] $end
$var reg 64 r" RAS_chk1 [63:0] $end
$var reg 64 s" RAS_chk2 [63:0] $end
$var reg 64 t" RAS_chk3 [63:0] $end
$var reg 64 u" RCD_chk0 [63:0] $end
$var reg 64 v" RCD_chk1 [63:0] $end
$var reg 64 w" RCD_chk2 [63:0] $end
$var reg 64 x" RCD_chk3 [63:0] $end
$var reg 64 y" RC_chk0 [63:0] $end
$var reg 64 z" RC_chk1 [63:0] $end
$var reg 64 {" RC_chk2 [63:0] $end
$var reg 64 |" RC_chk3 [63:0] $end
$var reg 64 }" RFC_chk [63:0] $end
$var reg 64 ~" RP_chk0 [63:0] $end
$var reg 64 !# RP_chk1 [63:0] $end
$var reg 64 "# RP_chk2 [63:0] $end
$var reg 64 ## RP_chk3 [63:0] $end
$var reg 64 $# RRD_chk [63:0] $end
$var reg 2 %# RW_interrupt_bank [1:0] $end
$var reg 13 &# Row [12:0] $end
$var reg 1 '# Sys_clk $end
$var reg 64 (# tAC [63:0] $end
$var reg 64 )# tHZ [63:0] $end
$scope task Burst_decode $end
$upscope $end
$upscope $end
$upscope $end
$enddefinitions $end
$comment Show the parameter values. $end
$dumpall
r15 U"
r15 T"
r12 S"
r18 R"
r80 Q"
r18 P"
r60 O"
r48 N"
r2.5 M"
r2 L"
r6 K"
r6 J"
r6 I"
r1.5 H"
r0.8 G"
r1.5 F"
r0.8 E"
r2.5 D"
r1.5 C"
r0.8 B"
r6 A"
r7.5 @"
r12 ?"
r12 >"
r6 ="
r2.5 <"
r1.5 ;"
r0.8 :"
r5.5 9"
r6 8"
r22 7"
b11111111111111111111111 6"
b1101 5"
b10000 4"
b10 3"
b1010 2"
b10 1"
b1101 0"
b0 ^
b1 ]
b1111 \
b10010 [
b1010000 Z
b111100 Y
b111100 X
b10010 W
b110000 V
b10 U
b110 T
b1110101001100 S
b1100100 R
b1111111 Q
b1000 P
b1001110001001 O
b10011110010011 N
b10011110001010 M
b10011110000001 L
b10011101110101 K
b1011101111 J
b1001 I
b10 H
b111 G
b100 F
b1100100 E
r10 D
b10 C
b0 B
b1000 A
$end
#0
$dumpvars
bx )#
bx (#
x'#
bx &#
bx %#
b0 $#
b0 ##
b0 "#
b0 !#
b0 ~"
b0 }"
b0 |"
b0 {"
b0 z"
b0 y"
b0 x"
b0 w"
b0 v"
b0 u"
b0 t"
b0 s"
b0 r"
b0 q"
bx p"
0o"
0n"
0m"
0l"
bx k"
b0 j"
bx i"
bx h"
bz g"
bx f"
0e"
0d"
bx c"
bx b"
bx a"
x`"
bx _"
bx ^"
bx ]"
bx \"
bx ["
bx Z"
1Y"
1X"
1W"
1V"
bx /"
x."
0-"
0,"
0+"
1*"
bx )"
0("
bz '"
1&"
0%"
x$"
x#"
x""
x!"
x~
bx }
0|
bx {
0z
bx y
bx x
bx w
bx v
bx u
bx t
bx s
b0 r
b0 q
b0 p
b0 o
b0 n
b0 m
b0 l
b0 k
0j
0i
bx h
b0 g
b0 f
b0 e
0d
b0 c
b0 b
bx a
bx `
bx _
b0 @
0?
0>
0=
b0 <
b0 ;
b0 :
b1000100011 9
b11 8
bz 7
16
05
04
b0 3
b0 2
b0 1
00
bx /
bx .
0-
1,
x+
0*
bx )
0(
0'
bx &
0%
0$
b0 #
0"
bz !
$end
#10000
0z
0*"
0|
1$
1-
b111 #
1"
b0 &
b0 h
b111 q
b1 p
0+
0,
10
#20000
bz n
0`"
1,
00
#30000
0'#
0,
10
#40000
1,
00
06
#50000
b1 c
0,
10
#60000
1,
00
#70000
b10 c
0,
10
#80000
1,
00
#90000
b11 c
0,
10
#100000
1,
00
#110000
b100 c
0,
10
#120000
1,
00
#130000
b101 c
0,
10
#140000
1,
00
#150000
b110 c
0,
10
#160000
1,
00
#170000
b111 c
0,
10
#180000
1,
00
#190000
b1000 c
0,
10
#200000
1,
00
#210000
b1001 c
0,
10
#220000
1,
00
#230000
b1010 c
0,
10
#240000
1,
00
#250000
b1011 c
0,
10
#260000
1,
00
#270000
b1100 c
0,
10
#280000
1,
00
#290000
b1101 c
0,
10
#300000
1,
00
#310000
b1110 c
0,
10
#320000
1,
00
#330000
b1111 c
0,
10
#340000
1,
00
#350000
b10000 c
0,
10
#360000
1,
00
#370000
b10001 c
0,
10
#380000
1,
00
#390000
b10010 c
0,
10
#400000
1,
00
#410000
b10011 c
0,
10
#420000
1,
00
#430000
b10100 c
0,
10
#440000
1,
00
#450000
b10101 c
0,
10
#460000
1,
00
#470000
b10110 c
0,
10
#480000
1,
00
#490000
b10111 c
0,
10
#500000
1,
00
#510000
b11000 c
0,
10
#520000
1,
00
#530000
b11001 c
0,
10
#540000
1,
00
#550000
b11010 c
0,
10
#560000
1,
00
#570000
b11011 c
0,
10
#580000
1,
00
#590000
b11100 c
0,
10
#600000
1,
00
#610000
b11101 c
0,
10
#620000
1,
00
#630000
b11110 c
0,
10
#640000
1,
00
#650000
b11111 c
0,
10
#660000
1,
00
#670000
b100000 c
0,
10
#680000
1,
00
#690000
b100001 c
0,
10
#700000
1,
00
#710000
b100010 c
0,
10
#720000
1,
00
#730000
b100011 c
0,
10
#740000
1,
00
#750000
b100100 c
0,
10
#760000
1,
00
#770000
b100101 c
0,
10
#780000
1,
00
#790000
b100110 c
0,
10
#800000
1,
00
#810000
b100111 c
0,
10
#820000
1,
00
#830000
b101000 c
0,
10
#840000
1,
00
#850000
b101001 c
0,
10
#860000
1,
00
#870000
b101010 c
0,
10
#880000
1,
00
#890000
b101011 c
0,
10
#900000
1,
00
#910000
b101100 c
0,
10
#920000
1,
00
#930000
b101101 c
0,
10
#940000
1,
00
#950000
b101110 c
0,
10
#960000
1,
00
#970000
b101111 c
0,
10
#980000
1,
00
#990000
b110000 c
0,
10
#1000000
1,
00
#1010000
b110001 c
0,
10
#1020000
1,
00
#1030000
b110010 c
0,
10
#1040000
1,
00
#1050000
b110011 c
0,
10
#1060000
1,
00
#1070000
b110100 c
0,
10
#1080000
1,
00
#1090000
b110101 c
0,
10
#1100000
1,
00
#1110000
b110110 c
0,
10
#1120000
1,
00
#1130000
b110111 c
0,
10
#1140000
1,
00
#1150000
b111000 c
0,
10
#1160000
1,
00
#1170000
b111001 c
0,
10
#1180000
1,
00
#1190000
b111010 c
0,
10
#1200000
1,
00
#1210000
b111011 c
0,
10
#1220000
1,
00
#1230000
b111100 c
0,
10
#1240000
1,
00
#1250000
b111101 c
0,
10
#1260000
1,
00
#1270000
b111110 c
0,
10
#1280000
1,
00
#1290000
b111111 c
0,
10
#1300000
1,
00
#1310000
b1000000 c
0,
10
#1320000
1,
00
#1330000
b1000001 c
0,
10
#1340000
1,
00
#1350000
b1000010 c
0,
10
#1360000
1,
00
#1370000
b1000011 c
0,
10
#1380000
1,
00
#1390000
b1000100 c
0,
10
#1400000
1,
00
#1410000
b1000101 c
0,
10
#1420000
1,
00
#1430000
b1000110 c
0,
10
#1440000
1,
00
#1450000
b1000111 c
0,
10
#1460000
1,
00
#1470000
b1001000 c
0,
10
#1480000
1,
00
#1490000
b1001001 c
0,
10
#1500000
1,
00
#1510000
b1001010 c
0,
10
#1520000
1,
00
#1530000
b1001011 c
0,
10
#1540000
1,
00
#1550000
b1001100 c
0,
10
#1560000
1,
00
#1570000
b1001101 c
0,
10
#1580000
1,
00
#1590000
b1001110 c
0,
10
#1600000
1,
00
#1610000
b1001111 c
0,
10
#1620000
1,
00
#1630000
b1010000 c
0,
10
#1640000
1,
00
#1650000
b1010001 c
0,
10
#1660000
1,
00
#1670000
b1010010 c
0,
10
#1680000
1,
00
#1690000
b1010011 c
0,
10
#1700000
1,
00
#1710000
b1010100 c
0,
10
#1720000
1,
00
#1730000
b1010101 c
0,
10
#1740000
1,
00
#1750000
b1010110 c
0,
10
#1760000
1,
00
#1770000
b1010111 c
0,
10
#1780000
1,
00
#1790000
b1011000 c
0,
10
#1800000
1,
00
#1810000
b1011001 c
0,
10
#1820000
1,
00
#1830000
b1011010 c
0,
10
#1840000
1,
00
#1850000
b1011011 c
0,
10
#1860000
1,
00
#1870000
b1011100 c
0,
10
#1880000
1,
00
#1890000
b1011101 c
0,
10
#1900000
1,
00
#1910000
b1011110 c
0,
10
#1920000
1,
00
#1930000
b1011111 c
0,
10
#1940000
1,
00
#1950000
b1100000 c
0,
10
#1960000
1,
00
#1970000
b1100001 c
0,
10
#1980000
1,
00
#1990000
b1100010 c
0,
10
#2000000
1,
00
#2010000
b1100011 c
0,
10
#2020000
1,
00
#2030000
b1100100 c
0,
10
#2040000
1,
00
#2050000
b1100101 c
0,
10
#2060000
1,
00
#2070000
b1100110 c
0,
10
#2080000
1,
00
#2090000
b1100111 c
0,
10
#2100000
1,
00
#2110000
b1101000 c
0,
10
#2120000
1,
00
#2130000
b1101001 c
0,
10
#2140000
1,
00
#2150000
b1101010 c
0,
10
#2160000
1,
00
#2170000
b1101011 c
0,
10
#2180000
1,
00
#2190000
b1101100 c
0,
10
#2200000
1,
00
#2210000
b1101101 c
0,
10
#2220000
1,
00
#2230000
b1101110 c
0,
10
#2240000
1,
00
#2250000
b1101111 c
0,
10
#2260000
1,
00
#2270000
b1110000 c
0,
10
#2280000
1,
00
#2290000
b1110001 c
0,
10
#2300000
1,
00
#2310000
b1110010 c
0,
10
#2320000
1,
00
#2330000
b1110011 c
0,
10
#2340000
1,
00
#2350000
b1110100 c
0,
10
#2360000
1,
00
#2370000
b1110101 c
0,
10
#2380000
1,
00
#2390000
b1110110 c
0,
10
#2400000
1,
00
#2410000
b1110111 c
0,
10
#2420000
1,
00
#2430000
b1111000 c
0,
10
#2440000
1,
00
#2450000
b1111001 c
0,
10
#2460000
1,
00
#2470000
b1111010 c
0,
10
#2480000
1,
00
#2490000
b1111011 c
0,
10
#2500000
1,
00
#2510000
b1111100 c
0,
10
#2520000
1,
00
#2530000
b1111101 c
0,
10
#2540000
1,
00
#2550000
b1111110 c
0,
10
#2560000
1,
00
#2570000
b1111111 c
0,
10
#2580000
1,
00
#2590000
b10000000 c
0,
10
#2600000
1,
00
#2610000
b10000001 c
0,
10
#2620000
1,
00
#2630000
b10000010 c
0,
10
#2640000
1,
00
#2650000
b10000011 c
0,
10
#2660000
1,
00
#2670000
b10000100 c
0,
10
#2680000
1,
00
#2690000
b10000101 c
0,
10
#2700000
1,
00
#2710000
b10000110 c
0,
10
#2720000
1,
00
#2730000
b10000111 c
0,
10
#2740000
1,
00
#2750000
b10001000 c
0,
10
#2760000
1,
00
#2770000
b10001001 c
0,
10
#2780000
1,
00
#2790000
b10001010 c
0,
10
#2800000
1,
00
#2810000
b10001011 c
0,
10
#2820000
1,
00
#2830000
b10001100 c
0,
10
#2840000
1,
00
#2850000
b10001101 c
0,
10
#2860000
1,
00
#2870000
b10001110 c
0,
10
#2880000
1,
00
#2890000
b10001111 c
0,
10
#2900000
1,
00
#2910000
b10010000 c
0,
10
#2920000
1,
00
#2930000
b10010001 c
0,
10
#2940000
1,
00
#2950000
b10010010 c
0,
10
#2960000
1,
00
#2970000
b10010011 c
0,
10
#2980000
1,
00
#2990000
b10010100 c
0,
10
#3000000
1,
00
#3010000
b10010101 c
0,
10
#3020000
1,
00
#3030000
b10010110 c
0,
10
#3040000
1,
00
#3050000
b10010111 c
0,
10
#3060000
1,
00
#3070000
b10011000 c
0,
10
#3080000
1,
00
#3090000
b10011001 c
0,
10
#3100000
1,
00
#3110000
b10011010 c
0,
10
#3120000
1,
00
#3130000
b10011011 c
0,
10
#3140000
1,
00
#3150000
b10011100 c
0,
10
#3160000
1,
00
#3170000
b10011101 c
0,
10
#3180000
1,
00
#3190000
b10011110 c
0,
10
#3200000
1,
00
#3210000
b10011111 c
0,
10
#3220000
1,
00
#3230000
b10100000 c
0,
10
#3240000
1,
00
#3250000
b10100001 c
0,
10
#3260000
1,
00
#3270000
b10100010 c
0,
10
#3280000
1,
00
#3290000
b10100011 c
0,
10
#3300000
1,
00
#3310000
b10100100 c
0,
10
#3320000
1,
00
#3330000
b10100101 c
0,
10
#3340000
1,
00
#3350000
b10100110 c
0,
10
#3360000
1,
00
#3370000
b10100111 c
0,
10
#3380000
1,
00
#3390000
b10101000 c
0,
10
#3400000
1,
00
#3410000
b10101001 c
0,
10
#3420000
1,
00
#3430000
b10101010 c
0,
10
#3440000
1,
00
#3450000
b10101011 c
0,
10
#3460000
1,
00
#3470000
b10101100 c
0,
10
#3480000
1,
00
#3490000
b10101101 c
0,
10
#3500000
1,
00
#3510000
b10101110 c
0,
10
#3520000
1,
00
#3530000
b10101111 c
0,
10
#3540000
1,
00
#3550000
b10110000 c
0,
10
#3560000
1,
00
#3570000
b10110001 c
0,
10
#3580000
1,
00
#3590000
b10110010 c
0,
10
#3600000
1,
00
#3610000
b10110011 c
0,
10
#3620000
1,
00
#3630000
b10110100 c
0,
10
#3640000
1,
00
#3650000
b10110101 c
0,
10
#3660000
1,
00
#3670000
b10110110 c
0,
10
#3680000
1,
00
#3690000
b10110111 c
0,
10
#3700000
1,
00
#3710000
b10111000 c
0,
10
#3720000
1,
00
#3730000
b10111001 c
0,
10
#3740000
1,
00
#3750000
b10111010 c
0,
10
#3760000
1,
00
#3770000
b10111011 c
0,
10
#3780000
1,
00
#3790000
b10111100 c
0,
10
#3800000
1,
00
#3810000
b10111101 c
0,
10
#3820000
1,
00
#3830000
b10111110 c
0,
10
#3840000
1,
00
#3850000
b10111111 c
0,
10
#3860000
1,
00
#3870000
b11000000 c
0,
10
#3880000
1,
00
#3890000
b11000001 c
0,
10
#3900000
1,
00
#3910000
b11000010 c
0,
10
#3920000
1,
00
#3930000
b11000011 c
0,
10
#3940000
1,
00
#3950000
b11000100 c
0,
10
#3960000
1,
00
#3970000
b11000101 c
0,
10
#3980000
1,
00
#3990000
b11000110 c
0,
10
#4000000
1,
00
#4010000
b11000111 c
0,
10
#4020000
1,
00
#4030000
b11001000 c
0,
10
#4040000
1,
00
#4050000
b11001001 c
0,
10
#4060000
1,
00
#4070000
b11001010 c
0,
10
#4080000
1,
00
#4090000
b11001011 c
0,
10
#4100000
1,
00
#4110000
b11001100 c
0,
10
#4120000
1,
00
#4130000
b11001101 c
0,
10
#4140000
1,
00
#4150000
b11001110 c
0,
10
#4160000
1,
00
#4170000
b11001111 c
0,
10
#4180000
1,
00
#4190000
b11010000 c
0,
10
#4200000
1,
00
#4210000
b11010001 c
0,
10
#4220000
1,
00
#4230000
b11010010 c
0,
10
#4240000
1,
00
#4250000
b11010011 c
0,
10
#4260000
1,
00
#4270000
b11010100 c
0,
10
#4280000
1,
00
#4290000
b11010101 c
0,
10
#4300000
1,
00
#4310000
b11010110 c
0,
10
#4320000
1,
00
#4330000
b11010111 c
0,
10
#4340000
1,
00
#4350000
b11011000 c
0,
10
#4360000
1,
00
#4370000
b11011001 c
0,
10
#4380000
1,
00
#4390000
b11011010 c
0,
10
#4400000
1,
00
#4410000
b11011011 c
0,
10
#4420000
1,
00
#4430000
b11011100 c
0,
10
#4440000
1,
00
#4450000
b11011101 c
0,
10
#4460000
1,
00
#4470000
b11011110 c
0,
10
#4480000
1,
00
#4490000
b11011111 c
0,
10
#4500000
1,
00
#4510000
b11100000 c
0,
10
#4520000
1,
00
#4530000
b11100001 c
0,
10
#4540000
1,
00
#4550000
b11100010 c
0,
10
#4560000
1,
00
#4570000
b11100011 c
0,
10
#4580000
1,
00
#4590000
b11100100 c
0,
10
#4600000
1,
00
#4610000
b11100101 c
0,
10
#4620000
1,
00
#4630000
b11100110 c
0,
10
#4640000
1,
00
#4650000
b11100111 c
0,
10
#4660000
1,
00
#4670000
b11101000 c
0,
10
#4680000
1,
00
#4690000
b11101001 c
0,
10
#4700000
1,
00
#4710000
b11101010 c
0,
10
#4720000
1,
00
#4730000
b11101011 c
0,
10
#4740000
1,
00
#4750000
b11101100 c
0,
10
#4760000
1,
00
#4770000
b11101101 c
0,
10
#4780000
1,
00
#4790000
b11101110 c
0,
10
#4800000
1,
00
#4810000
b11101111 c
0,
10
#4820000
1,
00
#4830000
b11110000 c
0,
10
#4840000
1,
00
#4850000
b11110001 c
0,
10
#4860000
1,
00
#4870000
b11110010 c
0,
10
#4880000
1,
00
#4890000
b11110011 c
0,
10
#4900000
1,
00
#4910000
b11110100 c
0,
10
#4920000
1,
00
#4930000
b11110101 c
0,
10
#4940000
1,
00
#4950000
b11110110 c
0,
10
#4960000
1,
00
#4970000
b11110111 c
0,
10
#4980000
1,
00
#4990000
b11111000 c
0,
10
#5000000
1,
00
#5010000
b11111001 c
0,
10
#5020000
1,
00
#5030000
b11111010 c
0,
10
#5040000
1,
00
#5050000
b11111011 c
0,
10
#5060000
1,
00
#5070000
b11111100 c
0,
10
#5080000
1,
00
#5090000
b11111101 c
0,
10
#5100000
1,
00
#5110000
b11111110 c
0,
10
#5120000
1,
00
#5130000
b11111111 c
0,
10
#5140000
1,
00
#5150000
b100000000 c
0,
10
#5160000
1,
00
#5170000
b100000001 c
0,
10
#5180000
1,
00
#5190000
b100000010 c
0,
10
#5200000
1,
00
#5210000
b100000011 c
0,
10
#5220000
1,
00
#5230000
b100000100 c
0,
10
#5240000
1,
00
#5250000
b100000101 c
0,
10
#5260000
1,
00
#5270000
b100000110 c
0,
10
#5280000
1,
00
#5290000
b100000111 c
0,
10
#5300000
1,
00
#5310000
b100001000 c
0,
10
#5320000
1,
00
#5330000
b100001001 c
0,
10
#5340000
1,
00
#5350000
b100001010 c
0,
10
#5360000
1,
00
#5370000
b100001011 c
0,
10
#5380000
1,
00
#5390000
b100001100 c
0,
10
#5400000
1,
00
#5410000
b100001101 c
0,
10
#5420000
1,
00
#5430000
b100001110 c
0,
10
#5440000
1,
00
#5450000
b100001111 c
0,
10
#5460000
1,
00
#5470000
b100010000 c
0,
10
#5480000
1,
00
#5490000
b100010001 c
0,
10
#5500000
1,
00
#5510000
b100010010 c
0,
10
#5520000
1,
00
#5530000
b100010011 c
0,
10
#5540000
1,
00
#5550000
b100010100 c
0,
10
#5560000
1,
00
#5570000
b100010101 c
0,
10
#5580000
1,
00
#5590000
b100010110 c
0,
10
#5600000
1,
00
#5610000
b100010111 c
0,
10
#5620000
1,
00
#5630000
b100011000 c
0,
10
#5640000
1,
00
#5650000
b100011001 c
0,
10
#5660000
1,
00
#5670000
b100011010 c
0,
10
#5680000
1,
00
#5690000
b100011011 c
0,
10
#5700000
1,
00
#5710000
b100011100 c
0,
10
#5720000
1,
00
#5730000
b100011101 c
0,
10
#5740000
1,
00
#5750000
b100011110 c
0,
10
#5760000
1,
00
#5770000
b100011111 c
0,
10
#5780000
1,
00
#5790000
b100100000 c
0,
10
#5800000
1,
00
#5810000
b100100001 c
0,
10
#5820000
1,
00
#5830000
b100100010 c
0,
10
#5840000
1,
00
#5850000
b100100011 c
0,
10
#5860000
1,
00
#5870000
b100100100 c
0,
10
#5880000
1,
00
#5890000
b100100101 c
0,
10
#5900000
1,
00
#5910000
b100100110 c
0,
10
#5920000
1,
00
#5930000
b100100111 c
0,
10
#5940000
1,
00
#5950000
b100101000 c
0,
10
#5960000
1,
00
#5970000
b100101001 c
0,
10
#5980000
1,
00
#5990000
b100101010 c
0,
10
#6000000
1,
00
#6010000
b100101011 c
0,
10
#6020000
1,
00
#6030000
b100101100 c
0,
10
#6040000
1,
00
#6050000
b100101101 c
0,
10
#6060000
1,
00
#6070000
b100101110 c
0,
10
#6080000
1,
00
#6090000
b100101111 c
0,
10
#6100000
1,
00
#6110000
b100110000 c
0,
10
#6120000
1,
00
#6130000
b100110001 c
0,
10
#6140000
1,
00
#6150000
b100110010 c
0,
10
#6160000
1,
00
#6170000
b100110011 c
0,
10
#6180000
1,
00
#6190000
b100110100 c
0,
10
#6200000
1,
00
#6210000
b100110101 c
0,
10
#6220000
1,
00
#6230000
b100110110 c
0,
10
#6240000
1,
00
#6250000
b100110111 c
0,
10
#6260000
1,
00
#6270000
b100111000 c
0,
10
#6280000
1,
00
#6290000
b100111001 c
0,
10
#6300000
1,
00
#6310000
b100111010 c
0,
10
#6320000
1,
00
#6330000
b100111011 c
0,
10
#6340000
1,
00
#6350000
b100111100 c
0,
10
#6360000
1,
00
#6370000
b100111101 c
0,
10
#6380000
1,
00
#6390000
b100111110 c
0,
10
#6400000
1,
00
#6410000
b100111111 c
0,
10
#6420000
1,
00
#6430000
b101000000 c
0,
10
#6440000
1,
00
#6450000
b101000001 c
0,
10
#6460000
1,
00
#6470000
b101000010 c
0,
10
#6480000
1,
00
#6490000
b101000011 c
0,
10
#6500000
1,
00
#6510000
b101000100 c
0,
10
#6520000
1,
00
#6530000
b101000101 c
0,
10
#6540000
1,
00
#6550000
b101000110 c
0,
10
#6560000
1,
00
#6570000
b101000111 c
0,
10
#6580000
1,
00
#6590000
b101001000 c
0,
10
#6600000
1,
00
#6610000
b101001001 c
0,
10
#6620000
1,
00
#6630000
b101001010 c
0,
10
#6640000
1,
00
#6650000
b101001011 c
0,
10
#6660000
1,
00
#6670000
b101001100 c
0,
10
#6680000
1,
00
#6690000
b101001101 c
0,
10
#6700000
1,
00
#6710000
b101001110 c
0,
10
#6720000
1,
00
