test/sdram_tb.vcd
$date
	Fri Oct 27 16:25:01 2023
$end
$version
	Icarus Verilog
$end
$timescale
	1ps
$end
$scope module sdram_tb $end
$var wire 16 ! dq [15:0] $end
$var wire 1 " we_n $end
$var wire 3 # sdram_cmd [2:0] $end
$var wire 1 $ ras_n $end
$var wire 1 % p0_ready $end
$var wire 128 & p0_q [127:0] $end
$var wire 1 ' p0_available $end
$var wire 1 ( init_complete $end
$var wire 2 ) dqm [1:0] $end
$var wire 1 * cs_n $end
$var wire 1 + cke $end
$var wire 1 , chip_clk $end
$var wire 1 - cas_n $end
$var wire 2 . ba [1:0] $end
$var wire 13 / addr [12:0] $end
$var reg 1 0 clk $end
$var reg 25 1 p0_addr [24:0] $end
$var reg 2 2 p0_byte_en [1:0] $end
$var reg 16 3 p0_data [15:0] $end
$var reg 1 4 p0_rd_req $end
$var reg 1 5 p0_wr_req $end
$var reg 1 6 reset $end
$scope module sdram $end
$var wire 1 , SDRAM_CLK $end
$var wire 16 7 SDRAM_DQ [15:0] $end
$var wire 1 0 clk $end
$var wire 3 8 concrete_burst_length [2:0] $end
$var wire 13 9 configured_mode [12:0] $end
$var wire 25 : p0_addr [24:0] $end
$var wire 1 ' p0_available $end
$var wire 2 ; p0_byte_en [1:0] $end
$var wire 16 < p0_data [15:0] $end
$var wire 1 4 p0_rd_req $end
$var wire 1 = p0_rd_start $end
$var wire 1 > p0_req $end
$var wire 1 ? p0_req_queue $end
$var wire 1 5 p0_wr_req $end
$var wire 1 @ p0_wr_start $end
$var wire 1 A port_req $end
$var wire 1 6 reset $end
$var wire 1 B sdram_clk $end
$var wire 25 C p0_addr_current [24:0] $end
$var wire 1 ( init_complete $end
$var wire 1 " SDRAM_nWE $end
$var wire 1 $ SDRAM_nRAS $end
$var wire 1 * SDRAM_nCS $end
$var wire 1 - SDRAM_nCAS $end
$var parameter 32 D BANK_WIDTH $end
$var parameter 32 E BURST_LENGTH $end
$var parameter 32 F BURST_TYPE $end
$var parameter 32 G CAS_LATENCY $end
$var real 1 H CLOCK_PERIOD_NANO_SEC $end
$var parameter 32 I CLOCK_SPEED_MHZ $end
$var parameter 32 J COL_WIDTH $end
$var parameter 33 K CYCLES_AFTER_WRITE_FOR_NEXT_COMMAND $end
$var parameter 33 L CYCLES_BETWEEN_ACTIVE_COMMAND $end
$var parameter 33 M CYCLES_FOR_ACTIVE_ROW $end
$var parameter 33 N CYCLES_FOR_AUTOREFRESH $end
$var parameter 33 O CYCLES_PER_REFRESH $end
$var parameter 34 P CYCLES_UNTIL_CLEAR_INHIBIT $end
$var parameter 36 Q CYCLES_UNTIL_INIT_PRECHARGE_END $end
$var parameter 37 R CYCLES_UNTIL_REFRESH1_END $end
$var parameter 38 S CYCLES_UNTIL_REFRESH2_END $end
$var parameter 33 T CYCLES_UNTIL_START_INHIBIT $end
$var parameter 32 U DATA_WIDTH $end
$var parameter 32 V DQM_WIDTH $end
$var parameter 32 W P0_BURST_LENGTH $end
$var parameter 64 X P0_OUTPUT_WIDTH $end
$var parameter 32 Y PORT_ADDR_WIDTH $end
$var parameter 32 Z PRECHARGE_BIT $end
$var parameter 32 [ ROW_WIDTH $end
$var parameter 32 \ SETTING_INHIBIT_DELAY_MICRO_SEC $end
$var parameter 32 ] SETTING_REFRESH_TIMER_NANO_SEC $end
$var parameter 32 ^ SETTING_T_CK_MIN_CLOCK_CYCLE_TIME_NANO_SEC $end
$var parameter 32 _ SETTING_T_MRD_MIN_LOAD_MODE_CLOCK_CYCLES $end
$var parameter 32 ` SETTING_T_RAS_MIN_ROW_ACTIVE_TIME_NANO_SEC $end
$var parameter 32 a SETTING_T_RCD_MIN_READ_WRITE_DELAY_NANO_SEC $end
$var parameter 32 b SETTING_T_RC_MIN_ACTIVE_TO_ACTIVE_PERIOD_NANO_SEC $end
$var parameter 32 c SETTING_T_RC_MIN_ROW_CYCLE_TIME_NANO_SEC $end
$var parameter 32 d SETTING_T_RFC_MIN_AUTOREFRESH_PERIOD_NANO_SEC $end
$var parameter 32 e SETTING_T_RP_MIN_PRECHARGE_CMD_PERIOD_NANO_SEC $end
$var parameter 32 f SETTING_T_WR_MIN_WRITE_AUTO_PRECHARGE_RECOVERY_NANO_SEC $end
$var parameter 32 g SETTING_USE_FAST_INPUT_REGISTER $end
$var parameter 32 h WRITE_BURST $end
$var reg 13 i SDRAM_A [12:0] $end
$var reg 2 j SDRAM_BA [1:0] $end
$var reg 1 + SDRAM_CKE $end
$var reg 2 k SDRAM_DQM [1:0] $end
$var reg 2 l active_port [1:0] $end
$var reg 32 m delay_counter [31:0] $end
$var reg 1 n dq_output $end
$var reg 25 o p0_addr_queue [24:0] $end
$var reg 2 p p0_byte_en_queue [1:0] $end
$var reg 16 q p0_data_queue [15:0] $end
$var reg 128 r p0_q [127:0] $end
$var reg 1 s p0_rd_prev $end
$var reg 1 t p0_rd_queue $end
$var reg 1 % p0_ready $end
$var reg 1 u p0_wr_prev $end
$var reg 1 v p0_wr_queue $end
$var reg 4 w read_counter [3:0] $end
$var reg 16 x refresh_counter [15:0] $end
$var reg 16 y sdram_data [15:0] $end
$var reg 16 z sdram_dq_reg [15:0] $end
$var reg 2 { current_io_operation [1:0] $end
$var reg 3 | delay_state [2:0] $end
$var reg 4 } sdram_command [3:0] $end
$var reg 3 ~ state [2:0] $end
$scope function get_active_port $end
$var reg 28 !" selection [27:0] $end
$upscope $end
$scope begin $unm_blk_22 $end
$var reg 28 "" active_port_entries [27:0] $end
$upscope $end
$scope begin $unm_blk_23 $end
$var reg 28 #" active_port_entries [27:0] $end
$upscope $end
$scope begin $unm_blk_26 $end
$var reg 4 $" expected_count [3:0] $end
$var reg 128 %" temp [127:0] $end
$upscope $end
$scope task set_active_command $end
$var reg 25 &" addr [24:0] $end
$var reg 2 '" port [1:0] $end
$upscope $end
$upscope $end
$scope module sdram0 $end
$var wire 1 (" Active_enable $end
$var wire 13 )" Addr [12:0] $end
$var wire 1 *" Aref_enable $end
$var wire 2 +" Ba [1:0] $end
$var wire 1 ," Burst_length_1 $end
$var wire 1 -" Burst_length_2 $end
$var wire 1 ." Burst_length_4 $end
$var wire 1 /" Burst_length_8 $end
$var wire 1 0" Burst_length_f $end
$var wire 1 1" Burst_term $end
$var wire 1 - Cas_n $end
$var wire 1 + Cke $end
$var wire 1 , Clk $end
$var wire 1 * Cs_n $end
$var wire 1 2" Debug $end
$var wire 16 3" Dq [15:0] $end
$var wire 1 4" Dq_chk $end
$var wire 2 5" Dqm [1:0] $end
$var wire 1 6" Mode_reg_enable $end
$var wire 1 7" Prech_enable $end
$var wire 1 $ Ras_n $end
$var wire 1 8" Read_enable $end
$var wire 1 " We_n $end
$var wire 1 9" Write_enable $end
$var wire 1 :" Write_burst_mode $end
$var wire 3 ;" Cas_latency [2:0] $end
$var parameter 32 <" ADDR_BITS $end
$var parameter 32 =" BA_BITS $end
$var parameter 32 >" COL_BITS $end
$var parameter 32 ?" DM_BITS $end
$var parameter 32 @" DQ_BITS $end
$var parameter 32 A" ROW_BITS $end
$var parameter 33 B" mem_sizes $end
$var real 1 C" tAC1 $end
$var real 1 D" tAC2 $end
$var real 1 E" tAC3 $end
$var real 1 F" tAH $end
$var real 1 G" tAS $end
$var real 1 H" tCH $end
$var real 1 I" tCK $end
$var real 1 J" tCK1_min $end
$var real 1 K" tCK2_min $end
$var real 1 L" tCK3 $end
$var real 1 M" tCK3_min $end
$var real 1 N" tCKH $end
$var real 1 O" tCKS $end
$var real 1 P" tCL $end
$var real 1 Q" tCMH $end
$var real 1 R" tCMS $end
$var real 1 S" tDH $end
$var real 1 T" tDS $end
$var real 1 U" tHZ1 $end
$var real 1 V" tHZ2 $end
$var real 1 W" tHZ3 $end
$var real 1 X" tMRD $end
$var real 1 Y" tOH $end
$var real 1 Z" tRAS $end
$var real 1 [" tRC $end
$var real 1 \" tRCD $end
$var real 1 ]" tRFC $end
$var real 1 ^" tRP $end
$var real 1 _" tRRD $end
$var real 1 `" tWRa $end
$var real 1 a" tWRm $end
$var reg 1 b" Act_b0 $end
$var reg 1 c" Act_b1 $end
$var reg 1 d" Act_b2 $end
$var reg 1 e" Act_b3 $end
$var reg 13 f" B0_row_addr [12:0] $end
$var reg 13 g" B1_row_addr [12:0] $end
$var reg 13 h" B2_row_addr [12:0] $end
$var reg 13 i" B3_row_addr [12:0] $end
$var reg 2 j" Bank [1:0] $end
$var reg 10 k" Burst_counter [9:0] $end
$var reg 1 l" CkeZ $end
$var reg 10 m" Col [9:0] $end
$var reg 10 n" Col_brst [9:0] $end
$var reg 10 o" Col_temp [9:0] $end
$var reg 1 p" Data_in_enable $end
$var reg 1 q" Data_out_enable $end
$var reg 16 r" Dq_dqm [15:0] $end
$var reg 16 s" Dq_reg [15:0] $end
$var reg 2 t" Dqm_reg0 [1:0] $end
$var reg 2 u" Dqm_reg1 [1:0] $end
$var reg 64 v" MRD_chk [63:0] $end
$var reg 13 w" Mode_reg [12:0] $end
$var reg 1 x" Pc_b0 $end
$var reg 1 y" Pc_b1 $end
$var reg 1 z" Pc_b2 $end
$var reg 1 {" Pc_b3 $end
$var reg 2 |" Prev_bank [1:0] $end
$var reg 64 }" RAS_chk0 [63:0] $end
$var reg 64 ~" RAS_chk1 [63:0] $end
$var reg 64 !# RAS_chk2 [63:0] $end
$var reg 64 "# RAS_chk3 [63:0] $end
$var reg 64 ## RCD_chk0 [63:0] $end
$var reg 64 $# RCD_chk1 [63:0] $end
$var reg 64 %# RCD_chk2 [63:0] $end
$var reg 64 &# RCD_chk3 [63:0] $end
$var reg 64 '# RC_chk0 [63:0] $end
$var reg 64 (# RC_chk1 [63:0] $end
$var reg 64 )# RC_chk2 [63:0] $end
$var reg 64 *# RC_chk3 [63:0] $end
$var reg 64 +# RFC_chk [63:0] $end
$var reg 64 ,# RP_chk0 [63:0] $end
$var reg 64 -# RP_chk1 [63:0] $end
$var reg 64 .# RP_chk2 [63:0] $end
$var reg 64 /# RP_chk3 [63:0] $end
$var reg 64 0# RRD_chk [63:0] $end
$var reg 2 1# RW_interrupt_bank [1:0] $end
$var reg 13 2# Row [12:0] $end
$var reg 1 3# Sys_clk $end
$var reg 64 4# tAC [63:0] $end
$var reg 64 5# tHZ [63:0] $end
$scope task Burst_decode $end
$upscope $end
$upscope $end
$upscope $end
$enddefinitions $end
$comment Show the parameter values. $end
$dumpall
r15 a"
r15 `"
r12 _"
r18 ^"
r80 ]"
r18 \"
r60 ["
r48 Z"
r2.5 Y"
r2 X"
r6 W"
r6 V"
r6 U"
r1.5 T"
r0.8 S"
r1.5 R"
r0.8 Q"
r2.5 P"
r1.5 O"
r0.8 N"
r6 M"
r7.5 L"
r12 K"
r12 J"
r6 I"
r2.5 H"
r1.5 G"
r0.8 F"
r5.5 E"
r6 D"
r22 C"
b11111111111111111111111 B"
b1101 A"
b10000 @"
b10 ?"
b1010 >"
b10 ="
b1101 <"
b0 h
b1 g
b1111 f
b10010 e
b1010000 d
b111100 c
b111100 b
b10010 a
b110000 `
b10 _
b110 ^
b1110101001100 ]
b1100100 \
b1101 [
b1010 Z
b11001 Y
b10000000 X
b1000 W
b10 V
b10000 U
b1001110001001 T
b10011110010011 S
b10011110001010 R
b10011110000001 Q
b10011101110101 P
b1011101111 O
b1001 N
b10 M
b111 L
b100 K
b1010 J
b1100100 I
r10 H
b10 G
b0 F
b1000 E
b10 D
$end
#0
$dumpvars
bx 5#
bx 4#
x3#
bx 2#
bx 1#
b0 0#
b0 /#
b0 .#
b0 -#
b0 ,#
b0 +#
b0 *#
b0 )#
b0 (#
b0 '#
b0 &#
b0 %#
b0 $#
b0 ##
b0 "#
b0 !#
b0 ~"
b0 }"
bx |"
0{"
0z"
0y"
0x"
bx w"
b0 v"
bx u"
bx t"
bz s"
bx r"
0q"
0p"
bx o"
bx n"
bx m"
xl"
bx k"
bx j"
bx i"
bx h"
bx g"
bx f"
1e"
1d"
1c"
1b"
bx ;"
x:"
09"
08"
07"
16"
bx 5"
04"
bz 3"
12"
01"
x0"
x/"
x."
x-"
x,"
bx +"
0*"
bx )"
0("
bx '"
bx &"
bx %"
bx $"
bx #"
bx ""
bx !"
b0 ~
b0 }
b0 |
b0 {
bx z
b0 y
b0 x
b0 w
0v
0u
0t
0s
bx r
b0 q
b0 p
b0 o
0n
b0 m
b0 l
bx k
bx j
bx i
b0 C
1B
0A
0@
0?
0>
0=
b0 <
b0 ;
b0 :
b1000100011 9
b11 8
bz 7
16
05
04
b0 3
b0 2
b0 1
00
bx /
bx .
0-
1,
x+
0*
bx )
0(
0'
bx &
0%
0$
b0 #
0"
bz !
$end
#10000
0("
06"
0*"
1$
1-
b111 #
1"
b0 &
b0 r
b111 }
b1 |
0+
0,
0B
10
#20000
bz z
0l"
1,
1B
00
#30000
03#
0,
0B
10
#40000
1,
1B
00
06
#50000
b1 m
0,
0B
10
#60000
1,
1B
00
#70000
b10 m
0,
0B
10
#80000
1,
1B
00
#90000
b11 m
0,
0B
10
#100000
1,
1B
00
#110000
b100 m
0,
0B
10
#120000
1,
1B
00
#130000
b101 m
0,
0B
10
#140000
1,
1B
00
#150000
b110 m
0,
0B
10
#160000
1,
1B
00
#170000
b111 m
0,
0B
10
#180000
1,
1B
00
#190000
b1000 m
0,
0B
10
#200000
1,
1B
00
#210000
b1001 m
0,
0B
10
#220000
1,
1B
00
#230000
b1010 m
0,
0B
10
#240000
1,
1B
00
#250000
b1011 m
0,
0B
10
#260000
1,
1B
00
#270000
b1100 m
0,
0B
10
#280000
1,
1B
00
#290000
b1101 m
0,
0B
10
#300000
1,
1B
00
#310000
b1110 m
0,
0B
10
#320000
1,
1B
00
#330000
b1111 m
0,
0B
10
#340000
1,
1B
00
#350000
b10000 m
0,
0B
10
#360000
1,
1B
00
#370000
b10001 m
0,
0B
10
#380000
1,
1B
00
#390000
b10010 m
0,
0B
10
#400000
1,
1B
00
#410000
b10011 m
0,
0B
10
#420000
1,
1B
00
#430000
b10100 m
0,
0B
10
#440000
1,
1B
00
#450000
b10101 m
0,
0B
10
#460000
1,
1B
00
#470000
b10110 m
0,
0B
10
#480000
1,
1B
00
#490000
b10111 m
0,
0B
10
#500000
1,
1B
00
#510000
b11000 m
0,
0B
10
#520000
1,
1B
00
#530000
b11001 m
0,
0B
10
#540000
1,
1B
00
#550000
b11010 m
0,
0B
10
#560000
1,
1B
00
#570000
b11011 m
0,
0B
10
#580000
1,
1B
00
#590000
b11100 m
0,
0B
10
#600000
1,
1B
00
#610000
b11101 m
0,
0B
10
#620000
1,
1B
00
#630000
b11110 m
0,
0B
10
#640000
1,
1B
00
#650000
b11111 m
0,
0B
10
#660000
1,
1B
00
#670000
b100000 m
0,
0B
10
#680000
1,
1B
00
#690000
b100001 m
0,
0B
10
#700000
1,
1B
00
#710000
b100010 m
0,
0B
10
#720000
1,
1B
00
#730000
b100011 m
0,
0B
10
#740000
1,
1B
00
#750000
b100100 m
0,
0B
10
#760000
1,
1B
00
#770000
b100101 m
0,
0B
10
#780000
1,
1B
00
#790000
b100110 m
0,
0B
10
#800000
1,
1B
00
#810000
b100111 m
0,
0B
10
#820000
1,
1B
00
#830000
b101000 m
0,
0B
10
#840000
1,
1B
00
#850000
b101001 m
0,
0B
10
#860000
1,
1B
00
#870000
b101010 m
0,
0B
10
#880000
1,
1B
00
#890000
b101011 m
0,
0B
10
#900000
1,
1B
00
#910000
b101100 m
0,
0B
10
#920000
1,
1B
00
#930000
b101101 m
0,
0B
10
#940000
1,
1B
00
#950000
b101110 m
0,
0B
10
#960000
1,
1B
00
#970000
b101111 m
0,
0B
10
#980000
1,
1B
00
#990000
b110000 m
0,
0B
10
#1000000
1,
1B
00
#1010000
b110001 m
0,
0B
10
#1020000
1,
1B
00
#1030000
b110010 m
0,
0B
10
#1040000
1,
1B
00
#1050000
b110011 m
0,
0B
10
#1060000
1,
1B
00
#1070000
b110100 m
0,
0B
10
#1080000
1,
1B
00
#1090000
b110101 m
0,
0B
10
#1100000
1,
1B
00
#1110000
b110110 m
0,
0B
10
#1120000
1,
1B
00
#1130000
b110111 m
0,
0B
10
#1140000
1,
1B
00
#1150000
b111000 m
0,
0B
10
#1160000
1,
1B
00
#1170000
b111001 m
0,
0B
10
#1180000
1,
1B
00
#1190000
b111010 m
0,
0B
10
#1200000
1,
1B
00
#1210000
b111011 m
0,
0B
10
#1220000
1,
1B
00
#1230000
b111100 m
0,
0B
10
#1240000
1,
1B
00
#1250000
b111101 m
0,
0B
10
#1260000
1,
1B
00
#1270000
b111110 m
0,
0B
10
#1280000
1,
1B
00
#1290000
b111111 m
0,
0B
10
#1300000
1,
1B
00
#1310000
b1000000 m
0,
0B
10
#1320000
1,
1B
00
#1330000
b1000001 m
0,
0B
10
#1340000
1,
1B
00
#1350000
b1000010 m
0,
0B
10
#1360000
1,
1B
00
#1370000
b1000011 m
0,
0B
10
#1380000
1,
1B
00
#1390000
b1000100 m
0,
0B
10
#1400000
1,
1B
00
#1410000
b1000101 m
0,
0B
10
#1420000
1,
1B
00
#1430000
b1000110 m
0,
0B
10
#1440000
1,
1B
00
#1450000
b1000111 m
0,
0B
10
#1460000
1,
1B
00
#1470000
b1001000 m
0,
0B
10
#1480000
1,
1B
00
#1490000
b1001001 m
0,
0B
10
#1500000
1,
1B
00
#1510000
b1001010 m
0,
0B
10
#1520000
1,
1B
00
#1530000
b1001011 m
0,
0B
10
#1540000
1,
1B
00
#1550000
b1001100 m
0,
0B
10
#1560000
1,
1B
00
#1570000
b1001101 m
0,
0B
10
#1580000
1,
1B
00
#1590000
b1001110 m
0,
0B
10
#1600000
1,
1B
00
#1610000
b1001111 m
0,
0B
10
#1620000
1,
1B
00
#1630000
b1010000 m
0,
0B
10
#1640000
1,
1B
00
#1650000
b1010001 m
0,
0B
10
#1660000
1,
1B
00
#1670000
b1010010 m
0,
0B
10
#1680000
1,
1B
00
#1690000
b1010011 m
0,
0B
10
#1700000
1,
1B
00
#1710000
b1010100 m
0,
0B
10
#1720000
1,
1B
00
#1730000
b1010101 m
0,
0B
10
#1740000
1,
1B
00
#1750000
b1010110 m
0,
0B
10
#1760000
1,
1B
00
#1770000
b1010111 m
0,
0B
10
#1780000
1,
1B
00
#1790000
b1011000 m
0,
0B
10
#1800000
1,
1B
00
#1810000
b1011001 m
0,
0B
10
#1820000
1,
1B
00
#1830000
b1011010 m
0,
0B
10
#1840000
1,
1B
00
#1850000
b1011011 m
0,
0B
10
#1860000
1,
1B
00
#1870000
b1011100 m
0,
0B
10
#1880000
1,
1B
00
#1890000
b1011101 m
0,
0B
10
#1900000
1,
1B
00
#1910000
b1011110 m
0,
0B
10
#1920000
1,
1B
00
#1930000
b1011111 m
0,
0B
10
#1940000
1,
1B
00
#1950000
b1100000 m
0,
0B
10
#1960000
1,
1B
00
#1970000
b1100001 m
0,
0B
10
#1980000
1,
1B
00
#1990000
b1100010 m
0,
0B
10
#2000000
1,
1B
00
#2010000
b1100011 m
0,
0B
10
#2020000
1,
1B
00
#2030000
b1100100 m
0,
0B
10
#2040000
1,
1B
00
#2050000
b1100101 m
0,
0B
10
#2060000
1,
1B
00
#2070000
b1100110 m
0,
0B
10
#2080000
1,
1B
00
#2090000
b1100111 m
0,
0B
10
#2100000
1,
1B
00
#2110000
b1101000 m
0,
0B
10
#2120000
1,
1B
00
#2130000
b1101001 m
0,
0B
10
#2140000
1,
1B
00
#2150000
b1101010 m
0,
0B
10
#2160000
1,
1B
00
#2170000
b1101011 m
0,
0B
10
#2180000
1,
1B
00
#2190000
b1101100 m
0,
0B
10
#2200000
1,
1B
00
#2210000
b1101101 m
0,
0B
10
#2220000
1,
1B
00
#2230000
b1101110 m
0,
0B
10
#2240000
1,
1B
00
#2250000
b1101111 m
0,
0B
10
#2260000
1,
1B
00
#2270000
b1110000 m
0,
0B
10
#2280000
1,
1B
00
#2290000
b1110001 m
0,
0B
10
#2300000
1,
1B
00
#2310000
b1110010 m
0,
0B
10
#2320000
1,
1B
00
#2330000
b1110011 m
0,
0B
10
#2340000
1,
1B
00
#2350000
b1110100 m
0,
0B
10
#2360000
1,
1B
00
#2370000
b1110101 m
0,
0B
10
#2380000
1,
1B
00
#2390000
b1110110 m
0,
0B
10
#2400000
1,
1B
00
#2410000
b1110111 m
0,
0B
10
#2420000
1,
1B
00
#2430000
b1111000 m
0,
0B
10
#2440000
1,
1B
00
#2450000
b1111001 m
0,
0B
10
#2460000
1,
1B
00
#2470000
b1111010 m
0,
0B
10
#2480000
1,
1B
00
#2490000
b1111011 m
0,
0B
10
#2500000
1,
1B
00
#2510000
b1111100 m
0,
0B
10
#2520000
1,
1B
00
#2530000
b1111101 m
0,
0B
10
#2540000
1,
1B
00
#2550000
b1111110 m
0,
0B
10
#2560000
1,
1B
00
#2570000
b1111111 m
0,
0B
10
#2580000
1,
1B
00
#2590000
b10000000 m
0,
0B
10
#2600000
1,
1B
00
#2610000
b10000001 m
0,
0B
10
#2620000
1,
1B
00
#2630000
b10000010 m
0,
0B
10
#2640000
1,
1B
00
#2650000
b10000011 m
0,
0B
10
#2660000
1,
1B
00
#2670000
b10000100 m
0,
0B
10
#2680000
1,
1B
00
#2690000
b10000101 m
0,
0B
10
#2700000
1,
1B
00
#2710000
b10000110 m
0,
0B
10
#2720000
1,
1B
00
#2730000
b10000111 m
0,
0B
10
#2740000
1,
1B
00
#2750000
b10001000 m
0,
0B
10
#2760000
1,
1B
00
#2770000
b10001001 m
0,
0B
10
#2780000
1,
1B
00
#2790000
b10001010 m
0,
0B
10
#2800000
1,
1B
00
#2810000
b10001011 m
0,
0B
10
#2820000
1,
1B
00
#2830000
b10001100 m
0,
0B
10
#2840000
1,
1B
00
#2850000
b10001101 m
0,
0B
10
#2860000
1,
1B
00
#2870000
b10001110 m
0,
0B
10
#2880000
1,
1B
00
#2890000
b10001111 m
0,
0B
10
#2900000
1,
1B
00
#2910000
b10010000 m
0,
0B
10
#2920000
1,
1B
00
#2930000
b10010001 m
0,
0B
10
#2940000
1,
1B
00
#2950000
b10010010 m
0,
0B
10
#2960000
1,
1B
00
#2970000
b10010011 m
0,
0B
10
#2980000
1,
1B
00
#2990000
b10010100 m
0,
0B
10
#3000000
1,
1B
00
#3010000
b10010101 m
0,
0B
10
#3020000
1,
1B
00
#3030000
b10010110 m
0,
0B
10
#3040000
1,
1B
00
#3050000
b10010111 m
0,
0B
10
#3060000
1,
1B
00
#3070000
b10011000 m
0,
0B
10
#3080000
1,
1B
00
#3090000
b10011001 m
0,
0B
10
#3100000
1,
1B
00
#3110000
b10011010 m
0,
0B
10
#3120000
1,
1B
00
#3130000
b10011011 m
0,
0B
10
#3140000
1,
1B
00
#3150000
b10011100 m
0,
0B
10
#3160000
1,
1B
00
#3170000
b10011101 m
0,
0B
10
#3180000
1,
1B
00
#3190000
b10011110 m
0,
0B
10
#3200000
1,
1B
00
#3210000
b10011111 m
0,
0B
10
#3220000
1,
1B
00
#3230000
b10100000 m
0,
0B
10
#3240000
1,
1B
00
#3250000
b10100001 m
0,
0B
10
#3260000
1,
1B
00
#3270000
b10100010 m
0,
0B
10
#3280000
1,
1B
00
#3290000
b10100011 m
0,
0B
10
#3300000
1,
1B
00
#3310000
b10100100 m
0,
0B
10
#3320000
1,
1B
00
#3330000
b10100101 m
0,
0B
10
#3340000
1,
1B
00
#3350000
b10100110 m
0,
0B
10
#3360000
1,
1B
00
#3370000
b10100111 m
0,
0B
10
#3380000
1,
1B
00
#3390000
b10101000 m
0,
0B
10
#3400000
1,
1B
00
#3410000
b10101001 m
0,
0B
10
#3420000
1,
1B
00
#3430000
b10101010 m
0,
0B
10
#3440000
1,
1B
00
#3450000
b10101011 m
0,
0B
10
#3460000
1,
1B
00
#3470000
b10101100 m
0,
0B
10
#3480000
1,
1B
00
#3490000
b10101101 m
0,
0B
10
#3500000
1,
1B
00
#3510000
b10101110 m
0,
0B
10
#3520000
1,
1B
00
#3530000
b10101111 m
0,
0B
10
#3540000
1,
1B
00
#3550000
b10110000 m
0,
0B
10
#3560000
1,
1B
00
#3570000
b10110001 m
0,
0B
10
#3580000
1,
1B
00
#3590000
b10110010 m
0,
0B
10
#3600000
1,
1B
00
#3610000
b10110011 m
0,
0B
10
#3620000
1,
1B
00
#3630000
b10110100 m
0,
0B
10
#3640000
1,
1B
00
#3650000
b10110101 m
0,
0B
10
#3660000
1,
1B
00
#3670000
b10110110 m
0,
0B
10
#3680000
1,
1B
00
#3690000
b10110111 m
0,
0B
10
#3700000
1,
1B
00
#3710000
b10111000 m
0,
0B
10
#3720000
1,
1B
00
#3730000
b10111001 m
0,
0B
10
#3740000
1,
1B
00
#3750000
b10111010 m
0,
0B
10
#3760000
1,
1B
00
#3770000
b10111011 m
0,
0B
10
#3780000
1,
1B
00
#3790000
b10111100 m
0,
0B
10
#3800000
1,
1B
00
#3810000
b10111101 m
0,
0B
10
#3820000
1,
1B
00
#3830000
b10111110 m
0,
0B
10
#3840000
1,
1B
00
#3850000
b10111111 m
0,
0B
10
#3860000
1,
1B
00
#3870000
b11000000 m
0,
0B
10
#3880000
1,
1B
00
#3890000
b11000001 m
0,
0B
10
#3900000
1,
1B
00
#3910000
b11000010 m
0,
0B
10
#3920000
1,
1B
00
#3930000
b11000011 m
0,
0B
10
#3940000
1,
1B
00
#3950000
b11000100 m
0,
0B
10
#3960000
1,
1B
00
#3970000
b11000101 m
0,
0B
10
#3980000
1,
1B
00
#3990000
b11000110 m
0,
0B
10
#4000000
1,
1B
00
#4010000
b11000111 m
0,
0B
10
#4020000
1,
1B
00
#4030000
b11001000 m
0,
0B
10
#4040000
1,
1B
00
#4050000
b11001001 m
0,
0B
10
#4060000
1,
1B
00
#4070000
b11001010 m
0,
0B
10
#4080000
1,
1B
00
#4090000
b11001011 m
0,
0B
10
#4100000
1,
1B
00
#4110000
b11001100 m
0,
0B
10
#4120000
1,
1B
00
#4130000
b11001101 m
0,
0B
10
#4140000
1,
1B
00
#4150000
b11001110 m
0,
0B
10
#4160000
1,
1B
00
#4170000
b11001111 m
0,
0B
10
#4180000
1,
1B
00
#4190000
b11010000 m
0,
0B
10
#4200000
1,
1B
00
#4210000
b11010001 m
0,
0B
10
#4220000
1,
1B
00
#4230000
b11010010 m
0,
0B
10
#4240000
1,
1B
00
#4250000
b11010011 m
0,
0B
10
#4260000
1,
1B
00
#4270000
b11010100 m
0,
0B
10
#4280000
1,
1B
00
#4290000
b11010101 m
0,
0B
10
#4300000
1,
1B
00
#4310000
b11010110 m
0,
0B
10
#4320000
1,
1B
00
#4330000
b11010111 m
0,
0B
10
#4340000
1,
1B
00
#4350000
b11011000 m
0,
0B
10
#4360000
1,
1B
00
#4370000
b11011001 m
0,
0B
10
#4380000
1,
1B
00
#4390000
b11011010 m
0,
0B
10
#4400000
1,
1B
00
#4410000
b11011011 m
0,
0B
10
#4420000
1,
1B
00
#4430000
b11011100 m
0,
0B
10
#4440000
1,
1B
00
#4450000
b11011101 m
0,
0B
10
#4460000
1,
1B
00
#4470000
b11011110 m
0,
0B
10
#4480000
1,
1B
00
#4490000
b11011111 m
0,
0B
10
#4500000
1,
1B
00
#4510000
b11100000 m
0,
0B
10
#4520000
1,
1B
00
#4530000
b11100001 m
0,
0B
10
#4540000
1,
1B
00
#4550000
b11100010 m
0,
0B
10
#4560000
1,
1B
00
#4570000
b11100011 m
0,
0B
10
#4580000
1,
1B
00
#4590000
b11100100 m
0,
0B
10
#4600000
1,
1B
00
#4610000
b11100101 m
0,
0B
10
#4620000
1,
1B
00
#4630000
b11100110 m
0,
0B
10
#4640000
1,
1B
00
#4650000
b11100111 m
0,
0B
10
#4660000
1,
1B
00
#4670000
b11101000 m
0,
0B
10
#4680000
1,
1B
00
#4690000
b11101001 m
0,
0B
10
#4700000
1,
1B
00
#4710000
b11101010 m
0,
0B
10
#4720000
1,
1B
00
#4730000
b11101011 m
0,
0B
10
#4740000
1,
1B
00
#4750000
b11101100 m
0,
0B
10
#4760000
1,
1B
00
#4770000
b11101101 m
0,
0B
10
#4780000
1,
1B
00
#4790000
b11101110 m
0,
0B
10
#4800000
1,
1B
00
#4810000
b11101111 m
0,
0B
10
#4820000
1,
1B
00
#4830000
b11110000 m
0,
0B
10
#4840000
1,
1B
00
#4850000
b11110001 m
0,
0B
10
#4860000
1,
1B
00
#4870000
b11110010 m
0,
0B
10
#4880000
1,
1B
00
#4890000
b11110011 m
0,
0B
10
#4900000
1,
1B
00
#4910000
b11110100 m
0,
0B
10
#4920000
1,
1B
00
#4930000
b11110101 m
0,
0B
10
#4940000
1,
1B
00
#4950000
b11110110 m
0,
0B
10
#4960000
1,
1B
00
#4970000
b11110111 m
0,
0B
10
#4980000
1,
1B
00
#4990000
b11111000 m
0,
0B
10
#5000000
1,
1B
00
#5010000
b11111001 m
0,
0B
10
#5020000
1,
1B
00
#5030000
b11111010 m
0,
0B
10
#5040000
1,
1B
00
#5050000
b11111011 m
0,
0B
10
#5060000
1,
1B
00
#5070000
b11111100 m
0,
0B
10
#5080000
1,
1B
00
#5090000
b11111101 m
0,
0B
10
#5100000
1,
1B
00
#5110000
b11111110 m
0,
0B
10
#5120000
1,
1B
00
#5130000
b11111111 m
0,
0B
10
#5140000
1,
1B
00
#5150000
b100000000 m
0,
0B
10
#5160000
1,
1B
00
#5170000
b100000001 m
0,
0B
10
#5180000
1,
1B
00
#5190000
b100000010 m
0,
0B
10
#5200000
1,
1B
00
#5210000
b100000011 m
0,
0B
10
#5220000
1,
1B
00
#5230000
b100000100 m
0,
0B
10
#5240000
1,
1B
00
#5250000
b100000101 m
0,
0B
10
#5260000
1,
1B
00
#5270000
b100000110 m
0,
0B
10
#5280000
1,
1B
00
#5290000
b100000111 m
0,
0B
10
#5300000
1,
1B
00
