test/sdram_tb.log
INFO: ../sdram.sv:551: Instantiated SDRAM with the following settings
      Time: 0  Scope: sdram_tb.sdram
INFO: ../sdram.sv:552:   Clock speed 100.000000, period 10.000000
      Time: 0  Scope: sdram_tb.sdram
INFO: ../sdram.sv:558: --------------------
      Time: 0  Scope: sdram_tb.sdram
INFO: ../sdram.sv:559: Configured values:
      Time: 0  Scope: sdram_tb.sdram
INFO: ../sdram.sv:560:   CAS Latency 00000003
      Time: 0  Scope: sdram_tb.sdram
INFO: ../sdram.sv:566:   Burst length 00000001
      Time: 0  Scope: sdram_tb.sdram
INFO: ../sdram.sv:572:   Burst type  Sequential
      Time: 0  Scope: sdram_tb.sdram
INFO: ../sdram.sv:579:   Write burst Single word write
      Time: 0  Scope: sdram_tb.sdram
INFO: ../sdram.sv:586: --------------------
      Time: 0  Scope: sdram_tb.sdram
INFO: ../sdram.sv:587: Port values:
      Time: 0  Scope: sdram_tb.sdram
INFO: ../sdram.sv:588:   Port 0 burst length           1, port width                    32
      Time: 0  Scope: sdram_tb.sdram
INFO: ../sdram.sv:594: --------------------
      Time: 0  Scope: sdram_tb.sdram
INFO: ../sdram.sv:595: Delays:
      Time: 0  Scope: sdram_tb.sdram
INFO: ../sdram.sv:596:   Cycles until start inhibit 5001.000000, clear inhibit 10101.000000
      Time: 0  Scope: sdram_tb.sdram
INFO: ../sdram.sv:599:   Cycles between autorefresh instances 751.000000
      Time: 0  Scope: sdram_tb.sdram
INFO: ../sdram.sv:601:   CYCLES_FOR_AUTOREFRESH 9.000000
      Time: 0  Scope: sdram_tb.sdram
INFO: ../sdram.sv:602:   CYCLES_AFTER_WRITE_FOR_NEXT_COMMAND 4.000000
      Time: 0  Scope: sdram_tb.sdram
INFO: ../sdram.sv:604:   Cycles until between active commands 7.000000, command duration 2.000000
      Time: 0  Scope: sdram_tb.sdram
VCD info: dumpfile sdram_tb.vcd opened for output.
Time: 0.0 ns | CMD: 0 SDRAM_DQ: zzzzzzzz SDRAM_DQ_o: 00000000 SDRAM_A: xxx SDRAM_DQM: xxxx SDRAM_BA: xx SDRAM_nCS: 0 SDRAM_nWE: 0 SDRAM_nRAS: 0 SDRAM_nCAS: 0 SDRAM_CKE: x
Time: 10.0 ns | CMD: 0 SDRAM_DQ: zzzzzzzz SDRAM_DQ_o: 00000000 SDRAM_A: xxx SDRAM_DQM: xxxx SDRAM_BA: xx SDRAM_nCS: 0 SDRAM_nWE: 0 SDRAM_nRAS: 0 SDRAM_nCAS: 0 SDRAM_CKE: 0
Time: 10.0 ns | Port 0 | RD: 0 WR: 0 ADDR: 000000 DIN: 00000000 DOUT: 00000000 BUSY: 0
Time: 10.0 ns | CMD: 7 SDRAM_DQ: zzzzzzzz SDRAM_DQ_o: 00000000 SDRAM_A: xxx SDRAM_DQM: xxxx SDRAM_BA: xx SDRAM_nCS: 0 SDRAM_nWE: 1 SDRAM_nRAS: 1 SDRAM_nCAS: 1 SDRAM_CKE: 0
Time: 50050.0 ns | CMD: 7 SDRAM_DQ: zzzzzzzz SDRAM_DQ_o: 00000000 SDRAM_A: xxx SDRAM_DQM: xxxx SDRAM_BA: xx SDRAM_nCS: 0 SDRAM_nWE: 1 SDRAM_nRAS: 1 SDRAM_nCAS: 1 SDRAM_CKE: 1
Time: 101050.0 ns | CMD: 2 SDRAM_DQ: zzzzzzzz SDRAM_DQ_o: 00000000 SDRAM_A: Xxx SDRAM_DQM: xxxx SDRAM_BA: xx SDRAM_nCS: 0 SDRAM_nWE: 0 SDRAM_nRAS: 0 SDRAM_nCAS: 1 SDRAM_CKE: 1
Time: 101060.0 ns | CMD: 7 SDRAM_DQ: zzzzzzzz SDRAM_DQ_o: 00000000 SDRAM_A: Xxx SDRAM_DQM: xxxx SDRAM_BA: xx SDRAM_nCS: 0 SDRAM_nWE: 1 SDRAM_nRAS: 1 SDRAM_nCAS: 1 SDRAM_CKE: 1
Time: 101170.0 ns | CMD: 1 SDRAM_DQ: zzzzzzzz SDRAM_DQ_o: 00000000 SDRAM_A: Xxx SDRAM_DQM: xxxx SDRAM_BA: xx SDRAM_nCS: 0 SDRAM_nWE: 1 SDRAM_nRAS: 0 SDRAM_nCAS: 0 SDRAM_CKE: 1
sdram_tb.sdram0 : at time  101175.0 ns AREF : Auto Refresh
Time: 101180.0 ns | CMD: 7 SDRAM_DQ: zzzzzzzz SDRAM_DQ_o: 00000000 SDRAM_A: Xxx SDRAM_DQM: xxxx SDRAM_BA: xx SDRAM_nCS: 0 SDRAM_nWE: 1 SDRAM_nRAS: 1 SDRAM_nCAS: 1 SDRAM_CKE: 1
Time: 101260.0 ns | CMD: 1 SDRAM_DQ: zzzzzzzz SDRAM_DQ_o: 00000000 SDRAM_A: Xxx SDRAM_DQM: xxxx SDRAM_BA: xx SDRAM_nCS: 0 SDRAM_nWE: 1 SDRAM_nRAS: 0 SDRAM_nCAS: 0 SDRAM_CKE: 1
sdram_tb.sdram0 : at time  101265.0 ns AREF : Auto Refresh
Time: 101270.0 ns | CMD: 7 SDRAM_DQ: zzzzzzzz SDRAM_DQ_o: 00000000 SDRAM_A: Xxx SDRAM_DQM: xxxx SDRAM_BA: xx SDRAM_nCS: 0 SDRAM_nWE: 1 SDRAM_nRAS: 1 SDRAM_nCAS: 1 SDRAM_CKE: 1
Time: 101350.0 ns | CMD: 0 SDRAM_DQ: zzzzzzzz SDRAM_DQ_o: 00000000 SDRAM_A: 230 SDRAM_DQM: xxxx SDRAM_BA: 00 SDRAM_nCS: 0 SDRAM_nWE: 0 SDRAM_nRAS: 0 SDRAM_nCAS: 0 SDRAM_CKE: 1
sdram_tb.sdram0 : at time  101355.0 ns LMR  : Load Mode Register
sdram_tb.sdram0 :                             CAS Latency      = 3
sdram_tb.sdram0 :                             Burst Length     = 1
sdram_tb.sdram0 :                             Burst Type       = Sequential
sdram_tb.sdram0 :                             Write Burst Mode = Single Location Access
Time: 101360.0 ns | CMD: 7 SDRAM_DQ: zzzzzzzz SDRAM_DQ_o: 00000000 SDRAM_A: 230 SDRAM_DQM: xxxx SDRAM_BA: 00 SDRAM_nCS: 0 SDRAM_nWE: 1 SDRAM_nRAS: 1 SDRAM_nCAS: 1 SDRAM_CKE: 1
Init complete at  101370.0 ns
Write 1 at  101390.0 ns
Time: 101390.0 ns | Port 0 | RD: 0 WR: 1 ADDR: 002020 DIN: 00001234 DOUT: 00000000 BUSY: 0
Time: 101390.0 ns | CMD: 3 SDRAM_DQ: zzzzzzzz SDRAM_DQ_o: 00000000 SDRAM_A: 020 SDRAM_DQM: xxxx SDRAM_BA: 00 SDRAM_nCS: 0 SDRAM_nWE: 1 SDRAM_nRAS: 0 SDRAM_nCAS: 1 SDRAM_CKE: 1
sdram_tb.sdram0 : at time  101395.0 ns ACT  : Bank = 0 Row =   32
Time: 101400.0 ns | CMD: 7 SDRAM_DQ: zzzzzzzz SDRAM_DQ_o: 00000000 SDRAM_A: 020 SDRAM_DQM: xxxx SDRAM_BA: 00 SDRAM_nCS: 0 SDRAM_nWE: 1 SDRAM_nRAS: 1 SDRAM_nCAS: 1 SDRAM_CKE: 1
Time: 101410.0 ns | Port 0 | RD: 0 WR: 1 ADDR: 000000 DIN: 00000000 DOUT: 00000000 BUSY: 0
Time: 101410.0 ns | CMD: 4 SDRAM_DQ: zzzzzzzz SDRAM_DQ_o: 00001234 SDRAM_A: 420 SDRAM_DQM: 0000 SDRAM_BA: 00 SDRAM_nCS: 0 SDRAM_nWE: 0 SDRAM_nRAS: 1 SDRAM_nCAS: 0 SDRAM_CKE: 1
sdram_tb.sdram0 : at time  101415.0 ns WRITE: Bank = 0 Row =   32, Col =  32, Data =       4660
Time: 101420.0 ns | CMD: 7 SDRAM_DQ: zzzzzzzz SDRAM_DQ_o: 00001234 SDRAM_A: 420 SDRAM_DQM: 0000 SDRAM_BA: 00 SDRAM_nCS: 0 SDRAM_nWE: 1 SDRAM_nRAS: 1 SDRAM_nCAS: 1 SDRAM_CKE: 1
Time: 101430.0 ns | Port 0 | RD: 0 WR: 0 ADDR: 000000 DIN: 00000000 DOUT: 00000000 BUSY: 0
sdram_tb.sdram0 : at time  101445.0 ns NOTE : Start Internal Auto Precharge for Bank 0
sdram_tb.sdram0 : tWRa=6
Time: 101460.0 ns | Port 0 | RD: 0 WR: 0 ADDR: 000000 DIN: 00000000 DOUT: 00000000 BUSY: 1
Write 2 at  101470.0 ns
Time: 101470.0 ns | Port 0 | RD: 0 WR: 1 ADDR: 002021 DIN: 00005678 DOUT: 00000000 BUSY: 1
Time: 101470.0 ns | Port 0 | RD: 0 WR: 1 ADDR: 002021 DIN: 00005678 DOUT: 00000000 BUSY: 0
Time: 101470.0 ns | CMD: 3 SDRAM_DQ: zzzzzzzz SDRAM_DQ_o: 00001234 SDRAM_A: 020 SDRAM_DQM: 0000 SDRAM_BA: 00 SDRAM_nCS: 0 SDRAM_nWE: 1 SDRAM_nRAS: 0 SDRAM_nCAS: 1 SDRAM_CKE: 1
sdram_tb.sdram0 : at time  101475.0 ns ACT  : Bank = 0 Row =   32
Time: 101480.0 ns | CMD: 7 SDRAM_DQ: zzzzzzzz SDRAM_DQ_o: 00001234 SDRAM_A: 020 SDRAM_DQM: 0000 SDRAM_BA: 00 SDRAM_nCS: 0 SDRAM_nWE: 1 SDRAM_nRAS: 1 SDRAM_nCAS: 1 SDRAM_CKE: 1
Time: 101490.0 ns | Port 0 | RD: 0 WR: 1 ADDR: 000000 DIN: 00000000 DOUT: 00000000 BUSY: 0
Time: 101490.0 ns | CMD: 4 SDRAM_DQ: zzzzzzzz SDRAM_DQ_o: 00005678 SDRAM_A: 421 SDRAM_DQM: 0000 SDRAM_BA: 00 SDRAM_nCS: 0 SDRAM_nWE: 0 SDRAM_nRAS: 1 SDRAM_nCAS: 0 SDRAM_CKE: 1
sdram_tb.sdram0 : at time  101495.0 ns WRITE: Bank = 0 Row =   32, Col =  33, Data =      22136
Time: 101500.0 ns | CMD: 7 SDRAM_DQ: zzzzzzzz SDRAM_DQ_o: 00005678 SDRAM_A: 421 SDRAM_DQM: 0000 SDRAM_BA: 00 SDRAM_nCS: 0 SDRAM_nWE: 1 SDRAM_nRAS: 1 SDRAM_nCAS: 1 SDRAM_CKE: 1
Time: 101510.0 ns | Port 0 | RD: 0 WR: 0 ADDR: 000000 DIN: 00000000 DOUT: 00000000 BUSY: 0
sdram_tb.sdram0 : at time  101525.0 ns NOTE : Start Internal Auto Precharge for Bank 0
sdram_tb.sdram0 : tWRa=6
Time: 101540.0 ns | Port 0 | RD: 0 WR: 0 ADDR: 000000 DIN: 00000000 DOUT: 00000000 BUSY: 1
Write 3 at  101550.0 ns
Time: 101550.0 ns | Port 0 | RD: 0 WR: 1 ADDR: 002022 DIN: 00009abc DOUT: 00000000 BUSY: 1
Time: 101550.0 ns | Port 0 | RD: 0 WR: 1 ADDR: 002022 DIN: 00009abc DOUT: 00000000 BUSY: 0
Time: 101550.0 ns | CMD: 3 SDRAM_DQ: zzzzzzzz SDRAM_DQ_o: 00005678 SDRAM_A: 020 SDRAM_DQM: 0000 SDRAM_BA: 00 SDRAM_nCS: 0 SDRAM_nWE: 1 SDRAM_nRAS: 0 SDRAM_nCAS: 1 SDRAM_CKE: 1
sdram_tb.sdram0 : at time  101555.0 ns ACT  : Bank = 0 Row =   32
Time: 101560.0 ns | CMD: 7 SDRAM_DQ: zzzzzzzz SDRAM_DQ_o: 00005678 SDRAM_A: 020 SDRAM_DQM: 0000 SDRAM_BA: 00 SDRAM_nCS: 0 SDRAM_nWE: 1 SDRAM_nRAS: 1 SDRAM_nCAS: 1 SDRAM_CKE: 1
Time: 101570.0 ns | Port 0 | RD: 0 WR: 0 ADDR: 000000 DIN: 00000000 DOUT: 00000000 BUSY: 0
Time: 101570.0 ns | CMD: 4 SDRAM_DQ: zzzzzzzz SDRAM_DQ_o: 00009abc SDRAM_A: 422 SDRAM_DQM: 0000 SDRAM_BA: 00 SDRAM_nCS: 0 SDRAM_nWE: 0 SDRAM_nRAS: 1 SDRAM_nCAS: 0 SDRAM_CKE: 1
sdram_tb.sdram0 : at time  101575.0 ns WRITE: Bank = 0 Row =   32, Col =  34, Data =      39612
Time: 101580.0 ns | CMD: 7 SDRAM_DQ: zzzzzzzz SDRAM_DQ_o: 00009abc SDRAM_A: 422 SDRAM_DQM: 0000 SDRAM_BA: 00 SDRAM_nCS: 0 SDRAM_nWE: 1 SDRAM_nRAS: 1 SDRAM_nCAS: 1 SDRAM_CKE: 1
sdram_tb.sdram0 : at time  101605.0 ns NOTE : Start Internal Auto Precharge for Bank 0
sdram_tb.sdram0 : tWRa=6
Time: 101620.0 ns | Port 0 | RD: 0 WR: 0 ADDR: 000000 DIN: 00000000 DOUT: 00000000 BUSY: 1
Time: 101630.0 ns | Port 0 | RD: 0 WR: 0 ADDR: 000000 DIN: 00000000 DOUT: 00000000 BUSY: 0
Write 4 at  101640.0 ns
Time: 101640.0 ns | Port 0 | RD: 0 WR: 1 ADDR: 002023 DIN: 0000def0 DOUT: 00000000 BUSY: 0
Time: 101640.0 ns | CMD: 3 SDRAM_DQ: zzzzzzzz SDRAM_DQ_o: 00009abc SDRAM_A: 020 SDRAM_DQM: 0000 SDRAM_BA: 00 SDRAM_nCS: 0 SDRAM_nWE: 1 SDRAM_nRAS: 0 SDRAM_nCAS: 1 SDRAM_CKE: 1
sdram_tb.sdram0 : at time  101645.0 ns ACT  : Bank = 0 Row =   32
Time: 101650.0 ns | CMD: 7 SDRAM_DQ: zzzzzzzz SDRAM_DQ_o: 00009abc SDRAM_A: 020 SDRAM_DQM: 0000 SDRAM_BA: 00 SDRAM_nCS: 0 SDRAM_nWE: 1 SDRAM_nRAS: 1 SDRAM_nCAS: 1 SDRAM_CKE: 1
Time: 101660.0 ns | Port 0 | RD: 0 WR: 0 ADDR: 000000 DIN: 00000000 DOUT: 00000000 BUSY: 0
Time: 101660.0 ns | CMD: 4 SDRAM_DQ: zzzzzzzz SDRAM_DQ_o: 0000def0 SDRAM_A: 423 SDRAM_DQM: 0000 SDRAM_BA: 00 SDRAM_nCS: 0 SDRAM_nWE: 0 SDRAM_nRAS: 1 SDRAM_nCAS: 0 SDRAM_CKE: 1
sdram_tb.sdram0 : at time  101665.0 ns WRITE: Bank = 0 Row =   32, Col =  35, Data =      57072
Time: 101670.0 ns | CMD: 7 SDRAM_DQ: zzzzzzzz SDRAM_DQ_o: 0000def0 SDRAM_A: 423 SDRAM_DQM: 0000 SDRAM_BA: 00 SDRAM_nCS: 0 SDRAM_nWE: 1 SDRAM_nRAS: 1 SDRAM_nCAS: 1 SDRAM_CKE: 1
sdram_tb.sdram0 : at time  101695.0 ns NOTE : Start Internal Auto Precharge for Bank 0
sdram_tb.sdram0 : tWRa=6
Time: 101710.0 ns | Port 0 | RD: 0 WR: 0 ADDR: 000000 DIN: 00000000 DOUT: 00000000 BUSY: 1
Time: 101720.0 ns | Port 0 | RD: 0 WR: 0 ADDR: 000000 DIN: 00000000 DOUT: 00000000 BUSY: 0
Write 5 at  101730.0 ns
Time: 101730.0 ns | Port 0 | RD: 0 WR: 1 ADDR: 002024 DIN: 0000fedc DOUT: 00000000 BUSY: 0
Time: 101730.0 ns | CMD: 3 SDRAM_DQ: zzzzzzzz SDRAM_DQ_o: 0000def0 SDRAM_A: 020 SDRAM_DQM: 0000 SDRAM_BA: 00 SDRAM_nCS: 0 SDRAM_nWE: 1 SDRAM_nRAS: 0 SDRAM_nCAS: 1 SDRAM_CKE: 1
sdram_tb.sdram0 : at time  101735.0 ns ACT  : Bank = 0 Row =   32
Time: 101740.0 ns | CMD: 7 SDRAM_DQ: zzzzzzzz SDRAM_DQ_o: 0000def0 SDRAM_A: 020 SDRAM_DQM: 0000 SDRAM_BA: 00 SDRAM_nCS: 0 SDRAM_nWE: 1 SDRAM_nRAS: 1 SDRAM_nCAS: 1 SDRAM_CKE: 1
Time: 101750.0 ns | Port 0 | RD: 0 WR: 0 ADDR: 000000 DIN: 00000000 DOUT: 00000000 BUSY: 0
Time: 101750.0 ns | CMD: 4 SDRAM_DQ: zzzzzzzz SDRAM_DQ_o: 0000fedc SDRAM_A: 424 SDRAM_DQM: 0000 SDRAM_BA: 00 SDRAM_nCS: 0 SDRAM_nWE: 0 SDRAM_nRAS: 1 SDRAM_nCAS: 0 SDRAM_CKE: 1
sdram_tb.sdram0 : at time  101755.0 ns WRITE: Bank = 0 Row =   32, Col =  36, Data =      65244
Time: 101760.0 ns | CMD: 7 SDRAM_DQ: zzzzzzzz SDRAM_DQ_o: 0000fedc SDRAM_A: 424 SDRAM_DQM: 0000 SDRAM_BA: 00 SDRAM_nCS: 0 SDRAM_nWE: 1 SDRAM_nRAS: 1 SDRAM_nCAS: 1 SDRAM_CKE: 1
sdram_tb.sdram0 : at time  101785.0 ns NOTE : Start Internal Auto Precharge for Bank 0
sdram_tb.sdram0 : tWRa=6
Time: 101800.0 ns | Port 0 | RD: 0 WR: 0 ADDR: 000000 DIN: 00000000 DOUT: 00000000 BUSY: 1
Time: 101810.0 ns | Port 0 | RD: 0 WR: 0 ADDR: 000000 DIN: 00000000 DOUT: 00000000 BUSY: 0
Write 6 at  101820.0 ns
Time: 101820.0 ns | Port 0 | RD: 0 WR: 1 ADDR: 002025 DIN: 0000ba98 DOUT: 00000000 BUSY: 0
Time: 101820.0 ns | CMD: 3 SDRAM_DQ: zzzzzzzz SDRAM_DQ_o: 0000fedc SDRAM_A: 020 SDRAM_DQM: 0000 SDRAM_BA: 00 SDRAM_nCS: 0 SDRAM_nWE: 1 SDRAM_nRAS: 0 SDRAM_nCAS: 1 SDRAM_CKE: 1
sdram_tb.sdram0 : at time  101825.0 ns ACT  : Bank = 0 Row =   32
Time: 101830.0 ns | CMD: 7 SDRAM_DQ: zzzzzzzz SDRAM_DQ_o: 0000fedc SDRAM_A: 020 SDRAM_DQM: 0000 SDRAM_BA: 00 SDRAM_nCS: 0 SDRAM_nWE: 1 SDRAM_nRAS: 1 SDRAM_nCAS: 1 SDRAM_CKE: 1
Time: 101840.0 ns | Port 0 | RD: 0 WR: 0 ADDR: 000000 DIN: 00000000 DOUT: 00000000 BUSY: 0
Time: 101840.0 ns | CMD: 4 SDRAM_DQ: zzzzzzzz SDRAM_DQ_o: 0000ba98 SDRAM_A: 425 SDRAM_DQM: 0000 SDRAM_BA: 00 SDRAM_nCS: 0 SDRAM_nWE: 0 SDRAM_nRAS: 1 SDRAM_nCAS: 0 SDRAM_CKE: 1
sdram_tb.sdram0 : at time  101845.0 ns WRITE: Bank = 0 Row =   32, Col =  37, Data =      47768
Time: 101850.0 ns | CMD: 7 SDRAM_DQ: zzzzzzzz SDRAM_DQ_o: 0000ba98 SDRAM_A: 425 SDRAM_DQM: 0000 SDRAM_BA: 00 SDRAM_nCS: 0 SDRAM_nWE: 1 SDRAM_nRAS: 1 SDRAM_nCAS: 1 SDRAM_CKE: 1
sdram_tb.sdram0 : at time  101875.0 ns NOTE : Start Internal Auto Precharge for Bank 0
sdram_tb.sdram0 : tWRa=6
Time: 101890.0 ns | Port 0 | RD: 0 WR: 0 ADDR: 000000 DIN: 00000000 DOUT: 00000000 BUSY: 1
Time: 101900.0 ns | Port 0 | RD: 0 WR: 0 ADDR: 000000 DIN: 00000000 DOUT: 00000000 BUSY: 0
Write 7 at  101910.0 ns
Time: 101910.0 ns | Port 0 | RD: 0 WR: 1 ADDR: 002026 DIN: 00007654 DOUT: 00000000 BUSY: 0
Time: 101910.0 ns | CMD: 3 SDRAM_DQ: zzzzzzzz SDRAM_DQ_o: 0000ba98 SDRAM_A: 020 SDRAM_DQM: 0000 SDRAM_BA: 00 SDRAM_nCS: 0 SDRAM_nWE: 1 SDRAM_nRAS: 0 SDRAM_nCAS: 1 SDRAM_CKE: 1
sdram_tb.sdram0 : at time  101915.0 ns ACT  : Bank = 0 Row =   32
Time: 101920.0 ns | CMD: 7 SDRAM_DQ: zzzzzzzz SDRAM_DQ_o: 0000ba98 SDRAM_A: 020 SDRAM_DQM: 0000 SDRAM_BA: 00 SDRAM_nCS: 0 SDRAM_nWE: 1 SDRAM_nRAS: 1 SDRAM_nCAS: 1 SDRAM_CKE: 1
Time: 101930.0 ns | Port 0 | RD: 0 WR: 0 ADDR: 000000 DIN: 00000000 DOUT: 00000000 BUSY: 0
Time: 101930.0 ns | CMD: 4 SDRAM_DQ: zzzzzzzz SDRAM_DQ_o: 00007654 SDRAM_A: 426 SDRAM_DQM: 0000 SDRAM_BA: 00 SDRAM_nCS: 0 SDRAM_nWE: 0 SDRAM_nRAS: 1 SDRAM_nCAS: 0 SDRAM_CKE: 1
sdram_tb.sdram0 : at time  101935.0 ns WRITE: Bank = 0 Row =   32, Col =  38, Data =      30292
Time: 101940.0 ns | CMD: 7 SDRAM_DQ: zzzzzzzz SDRAM_DQ_o: 00007654 SDRAM_A: 426 SDRAM_DQM: 0000 SDRAM_BA: 00 SDRAM_nCS: 0 SDRAM_nWE: 1 SDRAM_nRAS: 1 SDRAM_nCAS: 1 SDRAM_CKE: 1
sdram_tb.sdram0 : at time  101965.0 ns NOTE : Start Internal Auto Precharge for Bank 0
sdram_tb.sdram0 : tWRa=6
Time: 101980.0 ns | Port 0 | RD: 0 WR: 0 ADDR: 000000 DIN: 00000000 DOUT: 00000000 BUSY: 1
Time: 101990.0 ns | Port 0 | RD: 0 WR: 0 ADDR: 000000 DIN: 00000000 DOUT: 00000000 BUSY: 0
Write 8 at  102000.0 ns
Time: 102000.0 ns | Port 0 | RD: 0 WR: 1 ADDR: 002027 DIN: 00003210 DOUT: 00000000 BUSY: 0
Time: 102000.0 ns | CMD: 3 SDRAM_DQ: zzzzzzzz SDRAM_DQ_o: 00007654 SDRAM_A: 020 SDRAM_DQM: 0000 SDRAM_BA: 00 SDRAM_nCS: 0 SDRAM_nWE: 1 SDRAM_nRAS: 0 SDRAM_nCAS: 1 SDRAM_CKE: 1
sdram_tb.sdram0 : at time  102005.0 ns ACT  : Bank = 0 Row =   32
Time: 102010.0 ns | CMD: 7 SDRAM_DQ: zzzzzzzz SDRAM_DQ_o: 00007654 SDRAM_A: 020 SDRAM_DQM: 0000 SDRAM_BA: 00 SDRAM_nCS: 0 SDRAM_nWE: 1 SDRAM_nRAS: 1 SDRAM_nCAS: 1 SDRAM_CKE: 1
Time: 102020.0 ns | Port 0 | RD: 0 WR: 0 ADDR: 000000 DIN: 00000000 DOUT: 00000000 BUSY: 0
Time: 102020.0 ns | CMD: 4 SDRAM_DQ: zzzzzzzz SDRAM_DQ_o: 00003210 SDRAM_A: 427 SDRAM_DQM: 0000 SDRAM_BA: 00 SDRAM_nCS: 0 SDRAM_nWE: 0 SDRAM_nRAS: 1 SDRAM_nCAS: 0 SDRAM_CKE: 1
sdram_tb.sdram0 : at time  102025.0 ns WRITE: Bank = 0 Row =   32, Col =  39, Data =      12816
Time: 102030.0 ns | CMD: 7 SDRAM_DQ: zzzzzzzz SDRAM_DQ_o: 00003210 SDRAM_A: 427 SDRAM_DQM: 0000 SDRAM_BA: 00 SDRAM_nCS: 0 SDRAM_nWE: 1 SDRAM_nRAS: 1 SDRAM_nCAS: 1 SDRAM_CKE: 1
sdram_tb.sdram0 : at time  102055.0 ns NOTE : Start Internal Auto Precharge for Bank 0
sdram_tb.sdram0 : tWRa=6
Time: 102070.0 ns | Port 0 | RD: 0 WR: 0 ADDR: 000000 DIN: 00000000 DOUT: 00000000 BUSY: 1
Time: 102080.0 ns | Port 0 | RD: 0 WR: 0 ADDR: 000000 DIN: 00000000 DOUT: 00000000 BUSY: 0
Read 1 at  102090.0 ns
Time: 102090.0 ns | Port 0 | RD: 1 WR: 0 ADDR: 002020 DIN: 0000ffff DOUT: 00000000 BUSY: 0
Time: 102090.0 ns | CMD: 3 SDRAM_DQ: zzzzzzzz SDRAM_DQ_o: 00003210 SDRAM_A: 020 SDRAM_DQM: 0000 SDRAM_BA: 00 SDRAM_nCS: 0 SDRAM_nWE: 1 SDRAM_nRAS: 0 SDRAM_nCAS: 1 SDRAM_CKE: 1
sdram_tb.sdram0 : at time  102095.0 ns ACT  : Bank = 0 Row =   32
Time: 102100.0 ns | CMD: 7 SDRAM_DQ: zzzzzzzz SDRAM_DQ_o: 00003210 SDRAM_A: 020 SDRAM_DQM: 0000 SDRAM_BA: 00 SDRAM_nCS: 0 SDRAM_nWE: 1 SDRAM_nRAS: 1 SDRAM_nCAS: 1 SDRAM_CKE: 1
Time: 102110.0 ns | Port 0 | RD: 0 WR: 0 ADDR: 000000 DIN: 0000ffff DOUT: 00000000 BUSY: 0
Time: 102110.0 ns | CMD: 5 SDRAM_DQ: zzzzzzzz SDRAM_DQ_o: 00003210 SDRAM_A: 420 SDRAM_DQM: 0000 SDRAM_BA: 00 SDRAM_nCS: 0 SDRAM_nWE: 1 SDRAM_nRAS: 1 SDRAM_nCAS: 0 SDRAM_CKE: 1
Time: 102120.0 ns | CMD: 7 SDRAM_DQ: zzzzzzzz SDRAM_DQ_o: 00003210 SDRAM_A: 420 SDRAM_DQM: 0000 SDRAM_BA: 00 SDRAM_nCS: 0 SDRAM_nWE: 1 SDRAM_nRAS: 1 SDRAM_nCAS: 1 SDRAM_CKE: 1
sdram_tb.sdram0 : at time  102140.0 ns READ : Bank = 0 Row =   32, Col =  32, Data =       4660
Time: 102140.0 ns | CMD: 7 SDRAM_DQ: 00001234 SDRAM_DQ_o: 00003210 SDRAM_A: 420 SDRAM_DQM: 0000 SDRAM_BA: 00 SDRAM_nCS: 0 SDRAM_nWE: 1 SDRAM_nRAS: 1 SDRAM_nCAS: 1 SDRAM_CKE: 1
sdram_tb.sdram0 : at time  102145.0 ns NOTE : Start Internal Auto Precharge for Bank 0
Time: 102148.0 ns | CMD: 7 SDRAM_DQ: zzzzzzzz SDRAM_DQ_o: 00003210 SDRAM_A: 420 SDRAM_DQM: 0000 SDRAM_BA: 00 SDRAM_nCS: 0 SDRAM_nWE: 1 SDRAM_nRAS: 1 SDRAM_nCAS: 1 SDRAM_CKE: 1
Time: 102150.0 ns | Port 0 | RD: 0 WR: 0 ADDR: 000000 DIN: 0000ffff DOUT: zzzzzzzz BUSY: 1
sdram_tb.sv:262: $finish called at 103150000 (1ps)
