test/sdram_tb.log
INFO: ../sdram.sv:559: Instantiated SDRAM with the following settings
      Time: 0  Scope: sdram_tb.sdram
INFO: ../sdram.sv:560:   Clock speed 100.000000, period 10.000000
      Time: 0  Scope: sdram_tb.sdram
INFO: ../sdram.sv:566: --------------------
      Time: 0  Scope: sdram_tb.sdram
INFO: ../sdram.sv:567: Configured values:
      Time: 0  Scope: sdram_tb.sdram
INFO: ../sdram.sv:568:   CAS Latency 00000002
      Time: 0  Scope: sdram_tb.sdram
INFO: ../sdram.sv:574:   Burst length 00000008
      Time: 0  Scope: sdram_tb.sdram
INFO: ../sdram.sv:580:   Burst type  Sequential
      Time: 0  Scope: sdram_tb.sdram
INFO: ../sdram.sv:587:   Write burst Single word write
      Time: 0  Scope: sdram_tb.sdram
INFO: ../sdram.sv:594: --------------------
      Time: 0  Scope: sdram_tb.sdram
INFO: ../sdram.sv:595: Port values:
      Time: 0  Scope: sdram_tb.sdram
INFO: ../sdram.sv:596:   Port 0 burst length           8, port width                  128
      Time: 0  Scope: sdram_tb.sdram
INFO: ../sdram.sv:602: --------------------
      Time: 0  Scope: sdram_tb.sdram
INFO: ../sdram.sv:603: Delays:
      Time: 0  Scope: sdram_tb.sdram
INFO: ../sdram.sv:604:   Cycles until start inhibit 5001.000000, clear inhibit 10101.000000
      Time: 0  Scope: sdram_tb.sdram
INFO: ../sdram.sv:607:   Cycles between autorefresh instances 751.000000
      Time: 0  Scope: sdram_tb.sdram
INFO: ../sdram.sv:609:   CYCLES_FOR_AUTOREFRESH 9.000000
      Time: 0  Scope: sdram_tb.sdram
INFO: ../sdram.sv:610:   CYCLES_AFTER_WRITE_FOR_NEXT_COMMAND 4.000000
      Time: 0  Scope: sdram_tb.sdram
INFO: ../sdram.sv:612:   Cycles until between active commands 7.000000, command duration 2.000000
      Time: 0  Scope: sdram_tb.sdram
VCD info: dumpfile sdram_tb.vcd opened for output.
Time: 0.0 ns | CMD: 0 SDRAM_DQ: zzzz SDRAM_A: xxxx SDRAM_DQM: xx SDRAM_BA: xx SDRAM_nCS: 0 SDRAM_nWE: 0 SDRAM_nRAS: 0 SDRAM_nCAS: 0 SDRAM_CKE: x
Time: 0.0 ns | Port 0 | RD: 0 WR: 0 ADDR: 0000000 DIN: 0000 DOUT: xxxxxxxxxxxxxxxxxxxxxxxxxxxxxxxx READY: 0 AVAIL: 0
Time: 10.0 ns | CMD: 0 SDRAM_DQ: zzzz SDRAM_A: xxxx SDRAM_DQM: xx SDRAM_BA: xx SDRAM_nCS: 0 SDRAM_nWE: 0 SDRAM_nRAS: 0 SDRAM_nCAS: 0 SDRAM_CKE: 0
Time: 10.0 ns | Port 0 | RD: 0 WR: 0 ADDR: 0000000 DIN: 0000 DOUT: 00000000000000000000000000000000 READY: 0 AVAIL: 0
Time: 10.0 ns | CMD: 7 SDRAM_DQ: zzzz SDRAM_A: xxxx SDRAM_DQM: xx SDRAM_BA: xx SDRAM_nCS: 0 SDRAM_nWE: 1 SDRAM_nRAS: 1 SDRAM_nCAS: 1 SDRAM_CKE: 0
Time: 100070.0 ns | CMD: 7 SDRAM_DQ: zzzz SDRAM_A: xxxx SDRAM_DQM: xx SDRAM_BA: xx SDRAM_nCS: 0 SDRAM_nWE: 1 SDRAM_nRAS: 1 SDRAM_nCAS: 1 SDRAM_CKE: 1
Time: 202070.0 ns | CMD: 2 SDRAM_DQ: zzzz SDRAM_A: xXxx SDRAM_DQM: xx SDRAM_BA: xx SDRAM_nCS: 0 SDRAM_nWE: 0 SDRAM_nRAS: 0 SDRAM_nCAS: 1 SDRAM_CKE: 1
Time: 202090.0 ns | CMD: 7 SDRAM_DQ: zzzz SDRAM_A: xXxx SDRAM_DQM: xx SDRAM_BA: xx SDRAM_nCS: 0 SDRAM_nWE: 1 SDRAM_nRAS: 1 SDRAM_nCAS: 1 SDRAM_CKE: 1
Time: 202310.0 ns | CMD: 1 SDRAM_DQ: zzzz SDRAM_A: xXxx SDRAM_DQM: xx SDRAM_BA: xx SDRAM_nCS: 0 SDRAM_nWE: 1 SDRAM_nRAS: 0 SDRAM_nCAS: 0 SDRAM_CKE: 1
sdram_tb.sdram0 : at time  202320.0 ns AREF : Auto Refresh
Time: 202330.0 ns | CMD: 7 SDRAM_DQ: zzzz SDRAM_A: xXxx SDRAM_DQM: xx SDRAM_BA: xx SDRAM_nCS: 0 SDRAM_nWE: 1 SDRAM_nRAS: 1 SDRAM_nCAS: 1 SDRAM_CKE: 1
Time: 202490.0 ns | CMD: 1 SDRAM_DQ: zzzz SDRAM_A: xXxx SDRAM_DQM: xx SDRAM_BA: xx SDRAM_nCS: 0 SDRAM_nWE: 1 SDRAM_nRAS: 0 SDRAM_nCAS: 0 SDRAM_CKE: 1
sdram_tb.sdram0 : at time  202500.0 ns AREF : Auto Refresh
Time: 202510.0 ns | CMD: 7 SDRAM_DQ: zzzz SDRAM_A: xXxx SDRAM_DQM: xx SDRAM_BA: xx SDRAM_nCS: 0 SDRAM_nWE: 1 SDRAM_nRAS: 1 SDRAM_nCAS: 1 SDRAM_CKE: 1
Time: 202670.0 ns | CMD: 0 SDRAM_DQ: zzzz SDRAM_A: 0223 SDRAM_DQM: xx SDRAM_BA: 00 SDRAM_nCS: 0 SDRAM_nWE: 0 SDRAM_nRAS: 0 SDRAM_nCAS: 0 SDRAM_CKE: 1
sdram_tb.sdram0 : at time  202680.0 ns LMR  : Load Mode Register
sdram_tb.sdram0 :                             CAS Latency      = 2
sdram_tb.sdram0 :                             Burst Length     = 8
sdram_tb.sdram0 :                             Burst Type       = Sequential
sdram_tb.sdram0 :                             Write Burst Mode = Single Location Access
Time: 202690.0 ns | CMD: 7 SDRAM_DQ: zzzz SDRAM_A: 0223 SDRAM_DQM: xx SDRAM_BA: 00 SDRAM_nCS: 0 SDRAM_nWE: 1 SDRAM_nRAS: 1 SDRAM_nCAS: 1 SDRAM_CKE: 1
Init complete at  202710.0 ns
Time: 202710.0 ns | Port 0 | RD: 0 WR: 0 ADDR: 0000000 DIN: 0000 DOUT: 00000000000000000000000000000000 READY: 0 AVAIL: 1
Time: 202720.0 ns | Port 0 | RD: 0 WR: 1 ADDR: 0322020 DIN: 1234 DOUT: 00000000000000000000000000000000 READY: 0 AVAIL: 1
Time: 202720.0 ns | Port 0 | RD: 0 WR: 1 ADDR: 0322020 DIN: 1234 DOUT: 00000000000000000000000000000000 READY: 0 AVAIL: 0
Time: 202730.0 ns | CMD: 3 SDRAM_DQ: zzzz SDRAM_A: 0c88 SDRAM_DQM: xx SDRAM_BA: 00 SDRAM_nCS: 0 SDRAM_nWE: 1 SDRAM_nRAS: 0 SDRAM_nCAS: 1 SDRAM_CKE: 1
Time: 202740.0 ns | Port 0 | RD: 0 WR: 1 ADDR: 0000000 DIN: 0000 DOUT: 00000000000000000000000000000000 READY: 0 AVAIL: 0
sdram_tb.sdram0 : at time  202740.0 ns ACT  : Bank = 0 Row = 3208
Time: 202750.0 ns | CMD: 7 SDRAM_DQ: zzzz SDRAM_A: 0c88 SDRAM_DQM: xx SDRAM_BA: 00 SDRAM_nCS: 0 SDRAM_nWE: 1 SDRAM_nRAS: 1 SDRAM_nCAS: 1 SDRAM_CKE: 1
Time: 202760.0 ns | Port 0 | RD: 0 WR: 0 ADDR: 0000000 DIN: 0000 DOUT: 00000000000000000000000000000000 READY: 0 AVAIL: 0
Time: 202770.0 ns | CMD: 4 SDRAM_DQ: zzzz SDRAM_A: 0420 SDRAM_DQM: 00 SDRAM_BA: 00 SDRAM_nCS: 0 SDRAM_nWE: 0 SDRAM_nRAS: 1 SDRAM_nCAS: 0 SDRAM_CKE: 1
Time: 202770.0 ns | CMD: 4 SDRAM_DQ: 1234 SDRAM_A: 0420 SDRAM_DQM: 00 SDRAM_BA: 00 SDRAM_nCS: 0 SDRAM_nWE: 0 SDRAM_nRAS: 1 SDRAM_nCAS: 0 SDRAM_CKE: 1
sdram_tb.sdram0 : at time  202780.0 ns WRITE: Bank = 0 Row = 3208, Col =   32, Data = 1234
Time: 202790.0 ns | CMD: 7 SDRAM_DQ: 1234 SDRAM_A: 0420 SDRAM_DQM: 00 SDRAM_BA: 00 SDRAM_nCS: 0 SDRAM_nWE: 1 SDRAM_nRAS: 1 SDRAM_nCAS: 1 SDRAM_CKE: 1
sdram_tb.sdram0 : at time  202800.0 ns NOTE : Start Internal Auto Precharge for Bank 0
Time: 202830.0 ns | Port 0 | RD: 0 WR: 0 ADDR: 0000000 DIN: 0000 DOUT: 00000000000000000000000000000000 READY: 1 AVAIL: 1
Time: 202840.0 ns | Port 0 | RD: 0 WR: 1 ADDR: 0322021 DIN: 5678 DOUT: 00000000000000000000000000000000 READY: 1 AVAIL: 1
Time: 202840.0 ns | Port 0 | RD: 0 WR: 1 ADDR: 0322021 DIN: 5678 DOUT: 00000000000000000000000000000000 READY: 1 AVAIL: 0
Time: 202850.0 ns | Port 0 | RD: 0 WR: 1 ADDR: 0322021 DIN: 5678 DOUT: 00000000000000000000000000000000 READY: 0 AVAIL: 0
Time: 202850.0 ns | CMD: 3 SDRAM_DQ: zzzz SDRAM_A: 0c88 SDRAM_DQM: 00 SDRAM_BA: 00 SDRAM_nCS: 0 SDRAM_nWE: 1 SDRAM_nRAS: 0 SDRAM_nCAS: 1 SDRAM_CKE: 1
Time: 202860.0 ns | Port 0 | RD: 0 WR: 0 ADDR: 0000000 DIN: 0000 DOUT: 00000000000000000000000000000000 READY: 0 AVAIL: 0
sdram_tb.sdram0 : at time  202860.0 ns ACT  : Bank = 0 Row = 3208
Time: 202870.0 ns | CMD: 7 SDRAM_DQ: zzzz SDRAM_A: 0c88 SDRAM_DQM: 00 SDRAM_BA: 00 SDRAM_nCS: 0 SDRAM_nWE: 1 SDRAM_nRAS: 1 SDRAM_nCAS: 1 SDRAM_CKE: 1
Time: 202890.0 ns | CMD: 4 SDRAM_DQ: zzzz SDRAM_A: 0421 SDRAM_DQM: 00 SDRAM_BA: 00 SDRAM_nCS: 0 SDRAM_nWE: 0 SDRAM_nRAS: 1 SDRAM_nCAS: 0 SDRAM_CKE: 1
Time: 202890.0 ns | CMD: 4 SDRAM_DQ: 5678 SDRAM_A: 0421 SDRAM_DQM: 00 SDRAM_BA: 00 SDRAM_nCS: 0 SDRAM_nWE: 0 SDRAM_nRAS: 1 SDRAM_nCAS: 0 SDRAM_CKE: 1
sdram_tb.sdram0 : at time  202900.0 ns WRITE: Bank = 0 Row = 3208, Col =   33, Data = 5678
Time: 202910.0 ns | CMD: 7 SDRAM_DQ: 5678 SDRAM_A: 0421 SDRAM_DQM: 00 SDRAM_BA: 00 SDRAM_nCS: 0 SDRAM_nWE: 1 SDRAM_nRAS: 1 SDRAM_nCAS: 1 SDRAM_CKE: 1
sdram_tb.sdram0 : at time  202920.0 ns NOTE : Start Internal Auto Precharge for Bank 0
Time: 202950.0 ns | Port 0 | RD: 0 WR: 0 ADDR: 0000000 DIN: 0000 DOUT: 00000000000000000000000000000000 READY: 1 AVAIL: 1
Time: 202960.0 ns | Port 0 | RD: 0 WR: 1 ADDR: 0322022 DIN: 9abc DOUT: 00000000000000000000000000000000 READY: 1 AVAIL: 1
Time: 202960.0 ns | Port 0 | RD: 0 WR: 1 ADDR: 0322022 DIN: 9abc DOUT: 00000000000000000000000000000000 READY: 1 AVAIL: 0
Time: 202970.0 ns | Port 0 | RD: 0 WR: 1 ADDR: 0322022 DIN: 9abc DOUT: 00000000000000000000000000000000 READY: 0 AVAIL: 0
Time: 202970.0 ns | CMD: 3 SDRAM_DQ: zzzz SDRAM_A: 0c88 SDRAM_DQM: 00 SDRAM_BA: 00 SDRAM_nCS: 0 SDRAM_nWE: 1 SDRAM_nRAS: 0 SDRAM_nCAS: 1 SDRAM_CKE: 1
Time: 202980.0 ns | Port 0 | RD: 0 WR: 0 ADDR: 0000000 DIN: 0000 DOUT: 00000000000000000000000000000000 READY: 0 AVAIL: 0
sdram_tb.sdram0 : at time  202980.0 ns ACT  : Bank = 0 Row = 3208
Time: 202990.0 ns | CMD: 7 SDRAM_DQ: zzzz SDRAM_A: 0c88 SDRAM_DQM: 00 SDRAM_BA: 00 SDRAM_nCS: 0 SDRAM_nWE: 1 SDRAM_nRAS: 1 SDRAM_nCAS: 1 SDRAM_CKE: 1
Time: 203010.0 ns | CMD: 4 SDRAM_DQ: zzzz SDRAM_A: 0422 SDRAM_DQM: 00 SDRAM_BA: 00 SDRAM_nCS: 0 SDRAM_nWE: 0 SDRAM_nRAS: 1 SDRAM_nCAS: 0 SDRAM_CKE: 1
Time: 203010.0 ns | CMD: 4 SDRAM_DQ: 9abc SDRAM_A: 0422 SDRAM_DQM: 00 SDRAM_BA: 00 SDRAM_nCS: 0 SDRAM_nWE: 0 SDRAM_nRAS: 1 SDRAM_nCAS: 0 SDRAM_CKE: 1
sdram_tb.sdram0 : at time  203020.0 ns WRITE: Bank = 0 Row = 3208, Col =   34, Data = 9abc
Time: 203030.0 ns | CMD: 7 SDRAM_DQ: 9abc SDRAM_A: 0422 SDRAM_DQM: 00 SDRAM_BA: 00 SDRAM_nCS: 0 SDRAM_nWE: 1 SDRAM_nRAS: 1 SDRAM_nCAS: 1 SDRAM_CKE: 1
sdram_tb.sdram0 : at time  203040.0 ns NOTE : Start Internal Auto Precharge for Bank 0
Time: 203070.0 ns | Port 0 | RD: 0 WR: 0 ADDR: 0000000 DIN: 0000 DOUT: 00000000000000000000000000000000 READY: 1 AVAIL: 1
Time: 203080.0 ns | Port 0 | RD: 0 WR: 1 ADDR: 0322023 DIN: def0 DOUT: 00000000000000000000000000000000 READY: 1 AVAIL: 1
Time: 203080.0 ns | Port 0 | RD: 0 WR: 1 ADDR: 0322023 DIN: def0 DOUT: 00000000000000000000000000000000 READY: 1 AVAIL: 0
Time: 203090.0 ns | Port 0 | RD: 0 WR: 1 ADDR: 0322023 DIN: def0 DOUT: 00000000000000000000000000000000 READY: 0 AVAIL: 0
Time: 203090.0 ns | CMD: 3 SDRAM_DQ: zzzz SDRAM_A: 0c88 SDRAM_DQM: 00 SDRAM_BA: 00 SDRAM_nCS: 0 SDRAM_nWE: 1 SDRAM_nRAS: 0 SDRAM_nCAS: 1 SDRAM_CKE: 1
Time: 203100.0 ns | Port 0 | RD: 0 WR: 0 ADDR: 0000000 DIN: 0000 DOUT: 00000000000000000000000000000000 READY: 0 AVAIL: 0
sdram_tb.sdram0 : at time  203100.0 ns ACT  : Bank = 0 Row = 3208
Time: 203110.0 ns | CMD: 7 SDRAM_DQ: zzzz SDRAM_A: 0c88 SDRAM_DQM: 00 SDRAM_BA: 00 SDRAM_nCS: 0 SDRAM_nWE: 1 SDRAM_nRAS: 1 SDRAM_nCAS: 1 SDRAM_CKE: 1
Time: 203130.0 ns | CMD: 4 SDRAM_DQ: zzzz SDRAM_A: 0423 SDRAM_DQM: 00 SDRAM_BA: 00 SDRAM_nCS: 0 SDRAM_nWE: 0 SDRAM_nRAS: 1 SDRAM_nCAS: 0 SDRAM_CKE: 1
Time: 203130.0 ns | CMD: 4 SDRAM_DQ: def0 SDRAM_A: 0423 SDRAM_DQM: 00 SDRAM_BA: 00 SDRAM_nCS: 0 SDRAM_nWE: 0 SDRAM_nRAS: 1 SDRAM_nCAS: 0 SDRAM_CKE: 1
sdram_tb.sdram0 : at time  203140.0 ns WRITE: Bank = 0 Row = 3208, Col =   35, Data = def0
Time: 203150.0 ns | CMD: 7 SDRAM_DQ: def0 SDRAM_A: 0423 SDRAM_DQM: 00 SDRAM_BA: 00 SDRAM_nCS: 0 SDRAM_nWE: 1 SDRAM_nRAS: 1 SDRAM_nCAS: 1 SDRAM_CKE: 1
sdram_tb.sdram0 : at time  203160.0 ns NOTE : Start Internal Auto Precharge for Bank 0
Time: 203190.0 ns | Port 0 | RD: 0 WR: 0 ADDR: 0000000 DIN: 0000 DOUT: 00000000000000000000000000000000 READY: 1 AVAIL: 1
Time: 203200.0 ns | Port 0 | RD: 0 WR: 1 ADDR: 0322024 DIN: fedc DOUT: 00000000000000000000000000000000 READY: 1 AVAIL: 1
Time: 203200.0 ns | Port 0 | RD: 0 WR: 1 ADDR: 0322024 DIN: fedc DOUT: 00000000000000000000000000000000 READY: 1 AVAIL: 0
Time: 203210.0 ns | Port 0 | RD: 0 WR: 1 ADDR: 0322024 DIN: fedc DOUT: 00000000000000000000000000000000 READY: 0 AVAIL: 0
Time: 203210.0 ns | CMD: 3 SDRAM_DQ: zzzz SDRAM_A: 0c88 SDRAM_DQM: 00 SDRAM_BA: 00 SDRAM_nCS: 0 SDRAM_nWE: 1 SDRAM_nRAS: 0 SDRAM_nCAS: 1 SDRAM_CKE: 1
Time: 203220.0 ns | Port 0 | RD: 0 WR: 0 ADDR: 0000000 DIN: 0000 DOUT: 00000000000000000000000000000000 READY: 0 AVAIL: 0
sdram_tb.sdram0 : at time  203220.0 ns ACT  : Bank = 0 Row = 3208
Time: 203230.0 ns | CMD: 7 SDRAM_DQ: zzzz SDRAM_A: 0c88 SDRAM_DQM: 00 SDRAM_BA: 00 SDRAM_nCS: 0 SDRAM_nWE: 1 SDRAM_nRAS: 1 SDRAM_nCAS: 1 SDRAM_CKE: 1
Time: 203250.0 ns | CMD: 4 SDRAM_DQ: zzzz SDRAM_A: 0424 SDRAM_DQM: 00 SDRAM_BA: 00 SDRAM_nCS: 0 SDRAM_nWE: 0 SDRAM_nRAS: 1 SDRAM_nCAS: 0 SDRAM_CKE: 1
Time: 203250.0 ns | CMD: 4 SDRAM_DQ: fedc SDRAM_A: 0424 SDRAM_DQM: 00 SDRAM_BA: 00 SDRAM_nCS: 0 SDRAM_nWE: 0 SDRAM_nRAS: 1 SDRAM_nCAS: 0 SDRAM_CKE: 1
sdram_tb.sdram0 : at time  203260.0 ns WRITE: Bank = 0 Row = 3208, Col =   36, Data = fedc
Time: 203270.0 ns | CMD: 7 SDRAM_DQ: fedc SDRAM_A: 0424 SDRAM_DQM: 00 SDRAM_BA: 00 SDRAM_nCS: 0 SDRAM_nWE: 1 SDRAM_nRAS: 1 SDRAM_nCAS: 1 SDRAM_CKE: 1
sdram_tb.sdram0 : at time  203280.0 ns NOTE : Start Internal Auto Precharge for Bank 0
Time: 203310.0 ns | Port 0 | RD: 0 WR: 0 ADDR: 0000000 DIN: 0000 DOUT: 00000000000000000000000000000000 READY: 1 AVAIL: 1
Time: 203320.0 ns | Port 0 | RD: 0 WR: 1 ADDR: 0322025 DIN: ba98 DOUT: 00000000000000000000000000000000 READY: 1 AVAIL: 1
Time: 203320.0 ns | Port 0 | RD: 0 WR: 1 ADDR: 0322025 DIN: ba98 DOUT: 00000000000000000000000000000000 READY: 1 AVAIL: 0
Time: 203330.0 ns | Port 0 | RD: 0 WR: 1 ADDR: 0322025 DIN: ba98 DOUT: 00000000000000000000000000000000 READY: 0 AVAIL: 0
Time: 203330.0 ns | CMD: 3 SDRAM_DQ: zzzz SDRAM_A: 0c88 SDRAM_DQM: 00 SDRAM_BA: 00 SDRAM_nCS: 0 SDRAM_nWE: 1 SDRAM_nRAS: 0 SDRAM_nCAS: 1 SDRAM_CKE: 1
Time: 203340.0 ns | Port 0 | RD: 0 WR: 0 ADDR: 0000000 DIN: 0000 DOUT: 00000000000000000000000000000000 READY: 0 AVAIL: 0
sdram_tb.sdram0 : at time  203340.0 ns ACT  : Bank = 0 Row = 3208
Time: 203350.0 ns | CMD: 7 SDRAM_DQ: zzzz SDRAM_A: 0c88 SDRAM_DQM: 00 SDRAM_BA: 00 SDRAM_nCS: 0 SDRAM_nWE: 1 SDRAM_nRAS: 1 SDRAM_nCAS: 1 SDRAM_CKE: 1
Time: 203370.0 ns | CMD: 4 SDRAM_DQ: zzzz SDRAM_A: 0425 SDRAM_DQM: 00 SDRAM_BA: 00 SDRAM_nCS: 0 SDRAM_nWE: 0 SDRAM_nRAS: 1 SDRAM_nCAS: 0 SDRAM_CKE: 1
Time: 203370.0 ns | CMD: 4 SDRAM_DQ: ba98 SDRAM_A: 0425 SDRAM_DQM: 00 SDRAM_BA: 00 SDRAM_nCS: 0 SDRAM_nWE: 0 SDRAM_nRAS: 1 SDRAM_nCAS: 0 SDRAM_CKE: 1
sdram_tb.sdram0 : at time  203380.0 ns WRITE: Bank = 0 Row = 3208, Col =   37, Data = ba98
Time: 203390.0 ns | CMD: 7 SDRAM_DQ: ba98 SDRAM_A: 0425 SDRAM_DQM: 00 SDRAM_BA: 00 SDRAM_nCS: 0 SDRAM_nWE: 1 SDRAM_nRAS: 1 SDRAM_nCAS: 1 SDRAM_CKE: 1
sdram_tb.sdram0 : at time  203400.0 ns NOTE : Start Internal Auto Precharge for Bank 0
Time: 203430.0 ns | Port 0 | RD: 0 WR: 0 ADDR: 0000000 DIN: 0000 DOUT: 00000000000000000000000000000000 READY: 1 AVAIL: 1
Time: 203440.0 ns | Port 0 | RD: 0 WR: 1 ADDR: 0322026 DIN: 7654 DOUT: 00000000000000000000000000000000 READY: 1 AVAIL: 1
Time: 203440.0 ns | Port 0 | RD: 0 WR: 1 ADDR: 0322026 DIN: 7654 DOUT: 00000000000000000000000000000000 READY: 1 AVAIL: 0
Time: 203450.0 ns | Port 0 | RD: 0 WR: 1 ADDR: 0322026 DIN: 7654 DOUT: 00000000000000000000000000000000 READY: 0 AVAIL: 0
Time: 203450.0 ns | CMD: 3 SDRAM_DQ: zzzz SDRAM_A: 0c88 SDRAM_DQM: 00 SDRAM_BA: 00 SDRAM_nCS: 0 SDRAM_nWE: 1 SDRAM_nRAS: 0 SDRAM_nCAS: 1 SDRAM_CKE: 1
Time: 203460.0 ns | Port 0 | RD: 0 WR: 0 ADDR: 0000000 DIN: 0000 DOUT: 00000000000000000000000000000000 READY: 0 AVAIL: 0
sdram_tb.sdram0 : at time  203460.0 ns ACT  : Bank = 0 Row = 3208
Time: 203470.0 ns | CMD: 7 SDRAM_DQ: zzzz SDRAM_A: 0c88 SDRAM_DQM: 00 SDRAM_BA: 00 SDRAM_nCS: 0 SDRAM_nWE: 1 SDRAM_nRAS: 1 SDRAM_nCAS: 1 SDRAM_CKE: 1
Time: 203490.0 ns | CMD: 4 SDRAM_DQ: zzzz SDRAM_A: 0426 SDRAM_DQM: 00 SDRAM_BA: 00 SDRAM_nCS: 0 SDRAM_nWE: 0 SDRAM_nRAS: 1 SDRAM_nCAS: 0 SDRAM_CKE: 1
Time: 203490.0 ns | CMD: 4 SDRAM_DQ: 7654 SDRAM_A: 0426 SDRAM_DQM: 00 SDRAM_BA: 00 SDRAM_nCS: 0 SDRAM_nWE: 0 SDRAM_nRAS: 1 SDRAM_nCAS: 0 SDRAM_CKE: 1
sdram_tb.sdram0 : at time  203500.0 ns WRITE: Bank = 0 Row = 3208, Col =   38, Data = 7654
Time: 203510.0 ns | CMD: 7 SDRAM_DQ: 7654 SDRAM_A: 0426 SDRAM_DQM: 00 SDRAM_BA: 00 SDRAM_nCS: 0 SDRAM_nWE: 1 SDRAM_nRAS: 1 SDRAM_nCAS: 1 SDRAM_CKE: 1
sdram_tb.sdram0 : at time  203520.0 ns NOTE : Start Internal Auto Precharge for Bank 0
Time: 203550.0 ns | Port 0 | RD: 0 WR: 0 ADDR: 0000000 DIN: 0000 DOUT: 00000000000000000000000000000000 READY: 1 AVAIL: 1
Time: 203560.0 ns | Port 0 | RD: 0 WR: 1 ADDR: 0322027 DIN: 3210 DOUT: 00000000000000000000000000000000 READY: 1 AVAIL: 1
Time: 203560.0 ns | Port 0 | RD: 0 WR: 1 ADDR: 0322027 DIN: 3210 DOUT: 00000000000000000000000000000000 READY: 1 AVAIL: 0
Time: 203570.0 ns | Port 0 | RD: 0 WR: 1 ADDR: 0322027 DIN: 3210 DOUT: 00000000000000000000000000000000 READY: 0 AVAIL: 0
Time: 203570.0 ns | CMD: 3 SDRAM_DQ: zzzz SDRAM_A: 0c88 SDRAM_DQM: 00 SDRAM_BA: 00 SDRAM_nCS: 0 SDRAM_nWE: 1 SDRAM_nRAS: 0 SDRAM_nCAS: 1 SDRAM_CKE: 1
Time: 203580.0 ns | Port 0 | RD: 0 WR: 0 ADDR: 0000000 DIN: 0000 DOUT: 00000000000000000000000000000000 READY: 0 AVAIL: 0
sdram_tb.sdram0 : at time  203580.0 ns ACT  : Bank = 0 Row = 3208
Time: 203590.0 ns | CMD: 7 SDRAM_DQ: zzzz SDRAM_A: 0c88 SDRAM_DQM: 00 SDRAM_BA: 00 SDRAM_nCS: 0 SDRAM_nWE: 1 SDRAM_nRAS: 1 SDRAM_nCAS: 1 SDRAM_CKE: 1
Time: 203610.0 ns | CMD: 4 SDRAM_DQ: zzzz SDRAM_A: 0427 SDRAM_DQM: 00 SDRAM_BA: 00 SDRAM_nCS: 0 SDRAM_nWE: 0 SDRAM_nRAS: 1 SDRAM_nCAS: 0 SDRAM_CKE: 1
Time: 203610.0 ns | CMD: 4 SDRAM_DQ: 3210 SDRAM_A: 0427 SDRAM_DQM: 00 SDRAM_BA: 00 SDRAM_nCS: 0 SDRAM_nWE: 0 SDRAM_nRAS: 1 SDRAM_nCAS: 0 SDRAM_CKE: 1
sdram_tb.sdram0 : at time  203620.0 ns WRITE: Bank = 0 Row = 3208, Col =   39, Data = 3210
Time: 203630.0 ns | CMD: 7 SDRAM_DQ: 3210 SDRAM_A: 0427 SDRAM_DQM: 00 SDRAM_BA: 00 SDRAM_nCS: 0 SDRAM_nWE: 1 SDRAM_nRAS: 1 SDRAM_nCAS: 1 SDRAM_CKE: 1
sdram_tb.sdram0 : at time  203640.0 ns NOTE : Start Internal Auto Precharge for Bank 0
Time: 203670.0 ns | Port 0 | RD: 0 WR: 0 ADDR: 0000000 DIN: 0000 DOUT: 00000000000000000000000000000000 READY: 1 AVAIL: 1
Time: 203680.0 ns | Port 0 | RD: 1 WR: 0 ADDR: 0322020 DIN: ffff DOUT: 00000000000000000000000000000000 READY: 1 AVAIL: 1
Time: 203680.0 ns | Port 0 | RD: 1 WR: 0 ADDR: 0322020 DIN: ffff DOUT: 00000000000000000000000000000000 READY: 1 AVAIL: 0
Time: 203690.0 ns | Port 0 | RD: 1 WR: 0 ADDR: 0322020 DIN: ffff DOUT: 00000000000000000000000000000000 READY: 0 AVAIL: 0
Time: 203690.0 ns | CMD: 3 SDRAM_DQ: zzzz SDRAM_A: 0c88 SDRAM_DQM: 00 SDRAM_BA: 00 SDRAM_nCS: 0 SDRAM_nWE: 1 SDRAM_nRAS: 0 SDRAM_nCAS: 1 SDRAM_CKE: 1
Time: 203700.0 ns | Port 0 | RD: 0 WR: 0 ADDR: 0000000 DIN: ffff DOUT: 00000000000000000000000000000000 READY: 0 AVAIL: 0
sdram_tb.sdram0 : at time  203700.0 ns ACT  : Bank = 0 Row = 3208
Time: 203710.0 ns | CMD: 7 SDRAM_DQ: zzzz SDRAM_A: 0c88 SDRAM_DQM: 00 SDRAM_BA: 00 SDRAM_nCS: 0 SDRAM_nWE: 1 SDRAM_nRAS: 1 SDRAM_nCAS: 1 SDRAM_CKE: 1
Time: 203730.0 ns | CMD: 5 SDRAM_DQ: zzzz SDRAM_A: 0420 SDRAM_DQM: 00 SDRAM_BA: 00 SDRAM_nCS: 0 SDRAM_nWE: 1 SDRAM_nRAS: 1 SDRAM_nCAS: 0 SDRAM_CKE: 1
Time: 203750.0 ns | CMD: 7 SDRAM_DQ: zzzz SDRAM_A: 0420 SDRAM_DQM: 00 SDRAM_BA: 00 SDRAM_nCS: 0 SDRAM_nWE: 1 SDRAM_nRAS: 1 SDRAM_nCAS: 1 SDRAM_CKE: 1
sdram_tb.sdram0 : at time  203766.0 ns READ : Bank = 0 Row = 3208, Col =   32, Dqm = 00, Data = 1234
Time: 203766.0 ns | CMD: 7 SDRAM_DQ: 1234 SDRAM_A: 0420 SDRAM_DQM: 00 SDRAM_BA: 00 SDRAM_nCS: 0 SDRAM_nWE: 1 SDRAM_nRAS: 1 SDRAM_nCAS: 1 SDRAM_CKE: 1
sdram_tb.sdram0 : at time  203786.0 ns READ : Bank = 0 Row = 3208, Col =   33, Dqm = 00, Data = 5678
Time: 203786.0 ns | CMD: 7 SDRAM_DQ: 5678 SDRAM_A: 0420 SDRAM_DQM: 00 SDRAM_BA: 00 SDRAM_nCS: 0 SDRAM_nWE: 1 SDRAM_nRAS: 1 SDRAM_nCAS: 1 SDRAM_CKE: 1
Time: 203790.0 ns | Port 0 | RD: 0 WR: 0 ADDR: 0000000 DIN: ffff DOUT: 00000000000000000000000000001234 READY: 0 AVAIL: 0
sdram_tb.sdram0 : at time  203806.0 ns READ : Bank = 0 Row = 3208, Col =   34, Dqm = 00, Data = 9abc
Time: 203806.0 ns | CMD: 7 SDRAM_DQ: 9abc SDRAM_A: 0420 SDRAM_DQM: 00 SDRAM_BA: 00 SDRAM_nCS: 0 SDRAM_nWE: 1 SDRAM_nRAS: 1 SDRAM_nCAS: 1 SDRAM_CKE: 1
Time: 203810.0 ns | Port 0 | RD: 0 WR: 0 ADDR: 0000000 DIN: ffff DOUT: 00000000000000000000000056781234 READY: 0 AVAIL: 0
sdram_tb.sdram0 : at time  203826.0 ns READ : Bank = 0 Row = 3208, Col =   35, Dqm = 00, Data = def0
Time: 203826.0 ns | CMD: 7 SDRAM_DQ: def0 SDRAM_A: 0420 SDRAM_DQM: 00 SDRAM_BA: 00 SDRAM_nCS: 0 SDRAM_nWE: 1 SDRAM_nRAS: 1 SDRAM_nCAS: 1 SDRAM_CKE: 1
Time: 203830.0 ns | Port 0 | RD: 0 WR: 0 ADDR: 0000000 DIN: ffff DOUT: 000000000000000000009abc56781234 READY: 0 AVAIL: 0
sdram_tb.sdram0 : at time  203846.0 ns READ : Bank = 0 Row = 3208, Col =   36, Dqm = 00, Data = fedc
