test/sdram32_tb.vcd
$date
	Fri Oct 27 21:27:17 2023
$end
$version
	Icarus Verilog
$end
$timescale
	1ps
$end
$scope module sdram32_tb $end
$var wire 32 ! dq [31:0] $end
$var wire 1 " p0_available $end
$var wire 32 # p0_q [31:0] $end
$var wire 1 $ p0_ready $end
$var wire 1 % we_n $end
$var wire 3 & sdram_cmd [2:0] $end
$var wire 1 ' ras_n $end
$var wire 1 ( init_complete $end
$var wire 4 ) dqm [3:0] $end
$var wire 1 * cs_n $end
$var wire 1 + cke $end
$var wire 1 , chip_clk $end
$var wire 1 - cas_n $end
$var wire 2 . ba [1:0] $end
$var wire 11 / addr [10:0] $end
$var parameter 32 0 DATA_WIDTH $end
$var parameter 32 1 DQM_WIDTH $end
$var parameter 32 2 NUM_PORTS $end
$var parameter 32 3 PORT_ADDR_WIDTH $end
$var parameter 32 4 PORT_OUTPUT_WIDTH $end
$var reg 1 5 clk $end
$var reg 21 6 p0_addr [20:0] $end
$var reg 4 7 p0_byte_en [3:0] $end
$var reg 32 8 p0_data [31:0] $end
$var reg 1 9 p0_rd_req $end
$var reg 1 : p0_wr_req $end
$var reg 1 ; reset $end
$scope module sdram $end
$var wire 1 , SDRAM_CLK $end
$var wire 32 < SDRAM_DQ [31:0] $end
$var wire 1 5 clk $end
$var wire 3 = concrete_burst_length [2:0] $end
$var wire 13 > configured_mode [12:0] $end
$var wire 1 ; reset $end
$var wire 1 ? sdram_clk $end
$var wire 1 ( init_complete $end
$var wire 1 % SDRAM_nWE $end
$var wire 1 ' SDRAM_nRAS $end
$var wire 1 * SDRAM_nCS $end
$var wire 1 - SDRAM_nCAS $end
$var parameter 32 @ BANK_WIDTH $end
$var parameter 32 A BURST_LENGTH $end
$var parameter 32 B BURST_TYPE $end
$var parameter 32 C CAS_LATENCY $end
$var real 1 D CLOCK_PERIOD_NANO_SEC $end
$var parameter 32 E CLOCK_SPEED_MHZ $end
$var parameter 32 F COL_WIDTH $end
$var parameter 33 G CYCLES_AFTER_WRITE_FOR_NEXT_COMMAND $end
$var parameter 33 H CYCLES_BETWEEN_ACTIVE_COMMAND $end
$var parameter 33 I CYCLES_FOR_ACTIVE_ROW $end
$var parameter 33 J CYCLES_FOR_AUTOREFRESH $end
$var parameter 33 K CYCLES_PER_REFRESH $end
$var parameter 34 L CYCLES_UNTIL_CLEAR_INHIBIT $end
$var parameter 36 M CYCLES_UNTIL_INIT_PRECHARGE_END $end
$var parameter 37 N CYCLES_UNTIL_REFRESH1_END $end
$var parameter 38 O CYCLES_UNTIL_REFRESH2_END $end
$var parameter 33 P CYCLES_UNTIL_START_INHIBIT $end
$var parameter 32 Q DATA_WIDTH $end
$var parameter 32 R DQM_WIDTH $end
$var parameter 32 S NUM_PORTS $end
$var parameter 32 T PORT_ADDR_WIDTH $end
$var parameter 33 U PORT_BITS $end
$var parameter 32 V PORT_BURST_LENGTH $end
$var parameter 32 W PORT_OUTPUT_WIDTH $end
$var parameter 32 X PRECHARGE_BIT $end
$var parameter 32 Y ROW_WIDTH $end
$var parameter 32 Z SETTING_INHIBIT_DELAY_MICRO_SEC $end
$var parameter 32 [ SETTING_REFRESH_TIMER_NANO_SEC $end
$var parameter 32 \ SETTING_T_CK_MIN_CLOCK_CYCLE_TIME_NANO_SEC $end
$var parameter 32 ] SETTING_T_MRD_MIN_LOAD_MODE_CLOCK_CYCLES $end
$var parameter 32 ^ SETTING_T_RAS_MIN_ROW_ACTIVE_TIME_NANO_SEC $end
$var parameter 32 _ SETTING_T_RCD_MIN_READ_WRITE_DELAY_NANO_SEC $end
$var parameter 32 ` SETTING_T_RC_MIN_ACTIVE_TO_ACTIVE_PERIOD_NANO_SEC $end
$var parameter 32 a SETTING_T_RC_MIN_ROW_CYCLE_TIME_NANO_SEC $end
$var parameter 32 b SETTING_T_RFC_MIN_AUTOREFRESH_PERIOD_NANO_SEC $end
$var parameter 32 c SETTING_T_RP_MIN_PRECHARGE_CMD_PERIOD_NANO_SEC $end
$var parameter 32 d SETTING_T_WR_MIN_WRITE_AUTO_PRECHARGE_RECOVERY_NANO_SEC $end
$var parameter 32 e SETTING_USE_FAST_INPUT_REGISTER $end
$var parameter 32 f WRITE_BURST $end
$var reg 11 g SDRAM_A [10:0] $end
$var reg 2 h SDRAM_BA [1:0] $end
$var reg 1 + SDRAM_CKE $end
$var reg 4 i SDRAM_DQM [3:0] $end
$var reg 1 j active_port $end
$var reg 32 k delay_counter [31:0] $end
$var reg 1 l dq_output $end
$var reg 4 m read_counter [3:0] $end
$var reg 16 n refresh_counter [15:0] $end
$var reg 32 o sdram_data [31:0] $end
$var reg 32 p sdram_dq_reg [31:0] $end
$var reg 2 q current_io_operation [1:0] $end
$var reg 3 r delay_state [2:0] $end
$var reg 4 s sdram_command [3:0] $end
$var reg 3 t state [2:0] $end
$scope function get_active_port $end
$var reg 45 u selection [44:0] $end
$upscope $end
$scope function get_priority_port $end
$scope begin $ivl_for_loop0 $end
$var integer 32 v i [31:0] $end
$scope begin priority_loop $end
$upscope $end
$upscope $end
$upscope $end
$scope function port_rd_pending $end
$scope begin $ivl_for_loop2 $end
$var integer 32 w i [31:0] $end
$scope begin pending_loop $end
$upscope $end
$upscope $end
$upscope $end
$scope function port_wr_pending $end
$scope begin $ivl_for_loop1 $end
$var integer 32 x i [31:0] $end
$scope begin pending_loop $end
$upscope $end
$upscope $end
$upscope $end
$scope begin port_loop[0] $end
$var parameter 2 y i $end
$upscope $end
$scope begin $ivl_for_loop3 $end
$var integer 32 z i [31:0] $end
$upscope $end
$scope begin $ivl_for_loop4 $end
$var integer 32 { i [31:0] $end
$upscope $end
$scope begin $ivl_for_loop5 $end
$var integer 32 | i [31:0] $end
$upscope $end
$scope begin $unm_blk_27 $end
$var reg 45 } active_port_entries [44:0] $end
$upscope $end
$scope begin $unm_blk_28 $end
$var reg 45 ~ active_port_entries [44:0] $end
$upscope $end
$scope begin $unm_blk_31 $end
$var reg 4 !" expected_count [3:0] $end
$var reg 32 "" temp [31:0] $end
$upscope $end
$scope task set_active_command $end
$var reg 1 #" port $end
$upscope $end
$upscope $end
$scope module sdram0 $end
$var wire 1 $" Active_enable $end
$var wire 11 %" Addr [10:0] $end
$var wire 1 &" Aref_enable $end
$var wire 2 '" Ba [1:0] $end
$var wire 1 (" Burst_length_1 $end
$var wire 1 )" Burst_length_2 $end
$var wire 1 *" Burst_length_4 $end
$var wire 1 +" Burst_length_8 $end
$var wire 1 ," Burst_length_f $end
$var wire 1 -" Burst_term $end
$var wire 1 ." Cas_latency_1 $end
$var wire 1 /" Cas_latency_2 $end
$var wire 1 0" Cas_latency_3 $end
$var wire 1 - Cas_n $end
$var wire 1 + Cke $end
$var wire 1 , Clk $end
$var wire 1 * Cs_n $end
$var wire 1 1" Debug $end
$var wire 32 2" Dq [31:0] $end
$var wire 1 3" Dq_chk $end
$var wire 4 4" Dqm [3:0] $end
$var wire 1 5" Mode_reg_enable $end
$var wire 1 6" Prech_enable $end
$var wire 1 ' Ras_n $end
$var wire 1 7" Read_enable $end
$var wire 1 % We_n $end
$var wire 1 8" Write_enable $end
$var wire 1 9" Write_burst_mode $end
$var parameter 32 :" addr_bits $end
$var parameter 32 ;" col_bits $end
$var parameter 32 <" data_bits $end
$var parameter 32 =" mem_sizes $end
$var real 1 >" tAC $end
$var real 1 ?" tAH $end
$var real 1 @" tAS $end
$var real 1 A" tCH $end
$var real 1 B" tCK $end
$var real 1 C" tCKH $end
$var real 1 D" tCKS $end
$var real 1 E" tCL $end
$var real 1 F" tCMH $end
$var real 1 G" tCMS $end
$var real 1 H" tDH $end
$var real 1 I" tDS $end
$var real 1 J" tHZ $end
$var real 1 K" tMRD $end
$var real 1 L" tOH $end
$var real 1 M" tRAS $end
$var real 1 N" tRC $end
$var real 1 O" tRCD $end
$var real 1 P" tRFC $end
$var real 1 Q" tRP $end
$var real 1 R" tRRD $end
$var real 1 S" tWRa $end
$var real 1 T" tWRm $end
$var reg 1 U" Act_b0 $end
$var reg 1 V" Act_b1 $end
$var reg 1 W" Act_b2 $end
$var reg 1 X" Act_b3 $end
$var reg 11 Y" B0_row_addr [10:0] $end
$var reg 11 Z" B1_row_addr [10:0] $end
$var reg 11 [" B2_row_addr [10:0] $end
$var reg 11 \" B3_row_addr [10:0] $end
$var reg 2 ]" Bank [1:0] $end
$var reg 8 ^" Burst_counter [7:0] $end
$var reg 1 _" CkeZ $end
$var reg 8 `" Col [7:0] $end
$var reg 8 a" Col_brst [7:0] $end
$var reg 8 b" Col_temp [7:0] $end
$var reg 1 c" Data_in_enable $end
$var reg 1 d" Data_out_enable $end
$var reg 32 e" Dq_dqm [31:0] $end
$var reg 32 f" Dq_reg [31:0] $end
$var reg 4 g" Dqm_reg0 [3:0] $end
$var reg 4 h" Dqm_reg1 [3:0] $end
$var reg 64 i" MRD_chk [63:0] $end
$var reg 11 j" Mode_reg [10:0] $end
$var reg 1 k" Pc_b0 $end
$var reg 1 l" Pc_b1 $end
$var reg 1 m" Pc_b2 $end
$var reg 1 n" Pc_b3 $end
$var reg 2 o" Prev_bank [1:0] $end
$var reg 64 p" RAS_chk0 [63:0] $end
$var reg 64 q" RAS_chk1 [63:0] $end
$var reg 64 r" RAS_chk2 [63:0] $end
$var reg 64 s" RAS_chk3 [63:0] $end
$var reg 64 t" RCD_chk0 [63:0] $end
$var reg 64 u" RCD_chk1 [63:0] $end
$var reg 64 v" RCD_chk2 [63:0] $end
$var reg 64 w" RCD_chk3 [63:0] $end
$var reg 64 x" RC_chk0 [63:0] $end
$var reg 64 y" RC_chk1 [63:0] $end
$var reg 64 z" RC_chk2 [63:0] $end
$var reg 64 {" RC_chk3 [63:0] $end
$var reg 64 |" RFC_chk [63:0] $end
$var reg 64 }" RP_chk0 [63:0] $end
$var reg 64 ~" RP_chk1 [63:0] $end
$var reg 64 !# RP_chk2 [63:0] $end
$var reg 64 "# RP_chk3 [63:0] $end
$var reg 64 ## RRD_chk [63:0] $end
$var reg 2 $# RW_interrupt_bank [1:0] $end
$var reg 11 %# Row [10:0] $end
$var reg 1 &# Sys_clk $end
$scope task Burst_decode $end
$upscope $end
$upscope $end
$upscope $end
$enddefinitions $end
$comment Show the parameter values. $end
$dumpall
r12 T"
r6 S"
r12 R"
r18 Q"
r60 P"
r18 O"
r60 N"
r42 M"
r2.5 L"
r2 K"
r5.5 J"
r1.5 I"
r1 H"
r1.5 G"
r1 F"
r2.5 E"
r1.5 D"
r1 C"
r6 B"
r2.5 A"
r1.5 @"
r1 ?"
r5.5 >"
b1111111111111111111 ="
b100000 <"
b1000 ;"
b1011 :"
b0 y
b0 f
b1 e
b10000 d
b10010 c
b1010000 b
b111100 a
b111100 `
b10010 _
b110000 ^
b10 ]
b110 \
b11101010011000 [
b1100100 Z
b1011 Y
b1010 X
b100000 W
b1 V
b0 U
b10101 T
b1 S
b100 R
b100000 Q
b1001110001001 P
b10011110010011 O
b10011110001010 N
b10011110000001 M
b10011101110101 L
b10111011101 K
b1001 J
b10 I
b111 H
b100 G
b1001 F
b1100100 E
r10 D
b10 C
b0 B
b1 A
b10 @
b100000 4
b10101 3
b1 2
b100 1
b100000 0
$end
#0
$dumpvars
x&#
bx %#
bx $#
b0 ##
b0 "#
b0 !#
b0 ~"
b0 }"
b0 |"
b0 {"
b0 z"
b0 y"
b0 x"
b0 w"
b0 v"
b0 u"
b0 t"
b0 s"
b0 r"
b0 q"
b0 p"
bx o"
0n"
0m"
0l"
0k"
bx j"
b0 i"
bx h"
bx g"
bz f"
bx e"
0d"
0c"
bx b"
bx a"
bx `"
x_"
bx ^"
bx ]"
bx \"
bx ["
bx Z"
bx Y"
1X"
1W"
1V"
1U"
x9"
08"
07"
06"
15"
bx 4"
03"
bz 2"
11"
x0"
x/"
x."
0-"
x,"
x+"
x*"
x)"
x("
bx '"
0&"
bx %"
0$"
x#"
bx ""
bx !"
bx ~
bx }
b0 |
b0 {
b0 z
b0 x
b0 w
b0 v
bx u
b0 t
b0 s
b0 r
b0 q
bx p
b0 o
b0 n
b0 m
0l
b0 k
0j
bx i
bx h
bx g
0?
b1000100000 >
b0 =
bz <
1;
0:
09
b0 8
b0 7
b0 6
15
bx /
bx .
0-
0,
x+
0*
bx )
0(
0'
b0 &
0%
x$
bx #
0"
bz !
$end
#5000
bz p
1,
1?
05
#10000
0$"
05"
0&"
1'
1-
b111 &
1%
b0 #
0$
b111 s
b1 r
0+
0&#
b1 z
0,
0?
15
#15000
b1 i"
0_"
x&#
1,
1?
05
#20000
0&#
b1 z
0,
0?
15
#25000
1,
1?
05
#30000
b1 z
0,
0?
15
#35000
1,
1?
05
#40000
b1 k
b1 {
0,
0?
15
0;
#45000
1,
1?
05
#50000
b10 k
b1 {
0,
0?
15
#55000
1,
1?
05
#60000
b11 k
b1 {
0,
0?
15
#65000
1,
1?
05
#70000
b100 k
b1 {
0,
0?
15
#75000
1,
1?
05
#80000
b101 k
b1 {
0,
0?
15
#85000
1,
1?
05
#90000
b110 k
b1 {
0,
0?
15
#95000
1,
1?
05
#100000
b111 k
b1 {
0,
0?
15
#105000
1,
1?
05
#110000
b1000 k
b1 {
0,
0?
15
#115000
1,
1?
05
#120000
b1001 k
b1 {
0,
0?
15
#125000
1,
1?
05
#130000
b1010 k
b1 {
0,
0?
15
#135000
1,
1?
05
#140000
b1011 k
b1 {
0,
0?
15
#145000
1,
1?
05
#150000
b1100 k
b1 {
0,
0?
15
#155000
1,
1?
05
#160000
b1101 k
b1 {
0,
0?
15
#165000
1,
1?
05
#170000
b1110 k
b1 {
0,
0?
15
#175000
1,
1?
05
#180000
b1111 k
b1 {
0,
0?
15
#185000
1,
1?
05
#190000
b10000 k
b1 {
0,
0?
15
#195000
1,
1?
05
#200000
b10001 k
b1 {
0,
0?
15
#205000
1,
1?
05
#210000
b10010 k
b1 {
0,
0?
15
#215000
1,
1?
05
#220000
b10011 k
b1 {
0,
0?
15
#225000
1,
1?
05
#230000
b10100 k
b1 {
0,
0?
15
#235000
1,
1?
05
#240000
b10101 k
b1 {
0,
0?
15
#245000
1,
1?
05
#250000
b10110 k
b1 {
0,
0?
15
#255000
1,
1?
05
#260000
b10111 k
b1 {
0,
0?
15
#265000
1,
1?
05
#270000
b11000 k
b1 {
0,
0?
15
#275000
1,
1?
05
#280000
b11001 k
b1 {
0,
0?
15
#285000
1,
1?
05
#290000
b11010 k
b1 {
0,
0?
15
#295000
1,
1?
05
#300000
b11011 k
b1 {
0,
0?
15
#305000
1,
1?
05
#310000
b11100 k
b1 {
0,
0?
15
#315000
1,
1?
05
#320000
b11101 k
b1 {
0,
0?
15
#325000
1,
1?
05
#330000
b11110 k
b1 {
0,
0?
15
#335000
1,
1?
05
#340000
b11111 k
b1 {
0,
0?
15
#345000
1,
1?
05
#350000
b100000 k
b1 {
0,
0?
15
#355000
1,
1?
05
#360000
b100001 k
b1 {
0,
0?
15
#365000
1,
1?
05
#370000
b100010 k
b1 {
0,
0?
15
#375000
1,
1?
05
#380000
b100011 k
b1 {
0,
0?
15
#385000
1,
1?
05
#390000
b100100 k
b1 {
0,
0?
15
#395000
1,
1?
05
#400000
b100101 k
b1 {
0,
0?
15
#405000
1,
1?
05
#410000
b100110 k
b1 {
0,
0?
15
#415000
1,
1?
05
#420000
b100111 k
b1 {
0,
0?
15
#425000
1,
1?
05
#430000
b101000 k
b1 {
0,
0?
15
#435000
1,
1?
05
#440000
b101001 k
b1 {
0,
0?
15
#445000
1,
1?
05
#450000
b101010 k
b1 {
0,
0?
15
#455000
1,
1?
05
#460000
b101011 k
b1 {
0,
0?
15
#465000
1,
1?
05
#470000
b101100 k
b1 {
0,
0?
15
#475000
1,
1?
05
#480000
b101101 k
b1 {
0,
0?
15
#485000
1,
1?
05
#490000
b101110 k
b1 {
0,
0?
15
#495000
1,
1?
05
#500000
b101111 k
b1 {
0,
0?
15
#505000
1,
1?
05
#510000
b110000 k
b1 {
0,
0?
15
#515000
1,
1?
05
#520000
b110001 k
b1 {
0,
0?
15
#525000
1,
1?
05
#530000
b110010 k
b1 {
0,
0?
15
#535000
1,
1?
05
#540000
b110011 k
b1 {
0,
0?
15
#545000
1,
1?
05
#550000
b110100 k
b1 {
0,
0?
15
#555000
1,
1?
05
#560000
b110101 k
b1 {
0,
0?
15
#565000
1,
1?
05
#570000
b110110 k
b1 {
0,
0?
15
#575000
1,
1?
05
#580000
b110111 k
b1 {
0,
0?
15
#585000
1,
1?
05
#590000
b111000 k
b1 {
0,
0?
15
#595000
1,
1?
05
#600000
b111001 k
b1 {
0,
0?
15
#605000
1,
1?
05
#610000
b111010 k
b1 {
0,
0?
15
#615000
1,
1?
05
#620000
b111011 k
b1 {
0,
0?
15
#625000
1,
1?
05
#630000
b111100 k
b1 {
0,
0?
15
#635000
1,
1?
05
#640000
b111101 k
b1 {
0,
0?
15
#645000
1,
1?
05
#650000
b111110 k
b1 {
0,
0?
15
#655000
1,
1?
05
#660000
b111111 k
b1 {
0,
0?
15
#665000
1,
1?
05
#670000
b1000000 k
b1 {
0,
0?
15
#675000
1,
1?
05
#680000
b1000001 k
b1 {
0,
0?
15
#685000
1,
1?
05
#690000
b1000010 k
b1 {
0,
0?
15
#695000
1,
1?
05
#700000
b1000011 k
b1 {
0,
0?
15
#705000
1,
1?
05
#710000
b1000100 k
b1 {
0,
0?
15
#715000
1,
1?
05
#720000
b1000101 k
b1 {
0,
0?
15
#725000
1,
1?
05
#730000
b1000110 k
b1 {
0,
0?
15
#735000
1,
1?
05
#740000
b1000111 k
b1 {
0,
0?
15
#745000
1,
1?
05
#750000
b1001000 k
b1 {
0,
0?
15
#755000
1,
1?
05
#760000
b1001001 k
b1 {
0,
0?
15
#765000
1,
1?
05
#770000
b1001010 k
b1 {
0,
0?
15
#775000
1,
1?
05
#780000
b1001011 k
b1 {
0,
0?
15
#785000
1,
1?
05
#790000
b1001100 k
b1 {
0,
0?
15
#795000
1,
1?
05
#800000
b1001101 k
b1 {
0,
0?
15
#805000
1,
1?
05
#810000
b1001110 k
b1 {
0,
0?
15
#815000
1,
1?
05
#820000
b1001111 k
b1 {
0,
0?
15
#825000
1,
1?
05
#830000
b1010000 k
b1 {
0,
0?
15
#835000
1,
1?
05
#840000
b1010001 k
b1 {
0,
0?
15
#845000
1,
1?
05
#850000
b1010010 k
b1 {
0,
0?
15
#855000
1,
1?
05
#860000
b1010011 k
b1 {
0,
0?
15
#865000
1,
1?
05
#870000
b1010100 k
b1 {
0,
0?
15
#875000
1,
1?
05
#880000
b1010101 k
b1 {
0,
0?
15
#885000
1,
1?
05
#890000
b1010110 k
b1 {
0,
0?
15
#895000
1,
1?
05
#900000
b1010111 k
b1 {
0,
0?
15
#905000
1,
1?
05
#910000
b1011000 k
b1 {
0,
0?
15
#915000
1,
1?
05
#920000
b1011001 k
b1 {
0,
0?
15
#925000
1,
1?
05
#930000
b1011010 k
b1 {
0,
0?
15
#935000
1,
1?
05
#940000
b1011011 k
b1 {
0,
0?
15
#945000
1,
1?
05
#950000
b1011100 k
b1 {
0,
0?
15
#955000
1,
1?
05
#960000
b1011101 k
b1 {
0,
0?
15
#965000
1,
1?
05
#970000
b1011110 k
b1 {
0,
0?
15
#975000
1,
1?
05
#980000
b1011111 k
b1 {
0,
0?
15
#985000
1,
1?
05
#990000
b1100000 k
b1 {
0,
0?
15
#995000
1,
1?
05
#1000000
b1100001 k
b1 {
0,
0?
15
#1005000
1,
1?
05
#1010000
b1100010 k
b1 {
0,
0?
15
#1015000
1,
1?
05
#1020000
b1100011 k
b1 {
0,
0?
15
#1025000
1,
1?
05
#1030000
b1100100 k
b1 {
0,
0?
15
#1035000
1,
1?
05
#1040000
b1100101 k
b1 {
0,
0?
15
#1045000
1,
1?
05
#1050000
b1100110 k
b1 {
0,
0?
15
#1055000
1,
1?
05
#1060000
b1100111 k
b1 {
0,
0?
15
#1065000
1,
1?
05
#1070000
b1101000 k
b1 {
0,
0?
15
#1075000
1,
1?
05
#1080000
b1101001 k
b1 {
0,
0?
15
#1085000
1,
1?
05
#1090000
b1101010 k
b1 {
0,
0?
15
#1095000
1,
1?
05
#1100000
b1101011 k
b1 {
0,
0?
15
#1105000
1,
1?
05
#1110000
b1101100 k
b1 {
0,
0?
15
#1115000
1,
1?
05
#1120000
b1101101 k
b1 {
0,
0?
15
#1125000
1,
1?
05
#1130000
b1101110 k
b1 {
0,
0?
15
#1135000
1,
1?
05
#1140000
b1101111 k
b1 {
0,
0?
15
#1145000
1,
1?
05
#1150000
b1110000 k
b1 {
0,
0?
15
#1155000
1,
1?
05
#1160000
b1110001 k
b1 {
0,
0?
15
#1165000
1,
1?
05
#1170000
b1110010 k
b1 {
0,
0?
15
#1175000
1,
1?
05
#1180000
b1110011 k
b1 {
0,
0?
15
#1185000
1,
1?
05
#1190000
b1110100 k
b1 {
0,
0?
15
#1195000
1,
1?
05
#1200000
b1110101 k
b1 {
0,
0?
15
#1205000
1,
1?
05
#1210000
b1110110 k
b1 {
0,
0?
15
#1215000
1,
1?
05
#1220000
b1110111 k
b1 {
0,
0?
15
#1225000
1,
1?
05
#1230000
b1111000 k
b1 {
0,
0?
15
#1235000
1,
1?
05
#1240000
b1111001 k
b1 {
0,
0?
15
#1245000
1,
1?
05
#1250000
b1111010 k
b1 {
0,
0?
15
#1255000
1,
1?
05
#1260000
b1111011 k
b1 {
0,
0?
15
#1265000
1,
1?
05
#1270000
b1111100 k
b1 {
0,
0?
15
#1275000
1,
1?
05
#1280000
b1111101 k
b1 {
0,
0?
15
#1285000
1,
1?
05
#1290000
b1111110 k
b1 {
0,
0?
15
#1295000
1,
1?
05
#1300000
b1111111 k
b1 {
0,
0?
15
#1305000
1,
1?
05
#1310000
b10000000 k
b1 {
0,
0?
15
#1315000
1,
1?
05
#1320000
b10000001 k
b1 {
0,
0?
15
#1325000
1,
1?
05
#1330000
b10000010 k
b1 {
0,
0?
15
#1335000
1,
1?
05
#1340000
b10000011 k
b1 {
0,
0?
15
#1345000
1,
1?
05
#1350000
b10000100 k
b1 {
0,
0?
15
#1355000
1,
1?
05
#1360000
b10000101 k
b1 {
0,
0?
15
#1365000
1,
1?
05
#1370000
b10000110 k
b1 {
0,
0?
15
#1375000
1,
1?
05
#1380000
b10000111 k
b1 {
0,
0?
15
#1385000
1,
1?
05
#1390000
b10001000 k
b1 {
0,
0?
15
#1395000
1,
1?
05
#1400000
b10001001 k
b1 {
0,
0?
15
#1405000
1,
1?
05
#1410000
b10001010 k
b1 {
0,
0?
15
#1415000
1,
1?
05
#1420000
b10001011 k
b1 {
0,
0?
15
#1425000
1,
1?
05
#1430000
b10001100 k
b1 {
0,
0?
15
#1435000
1,
1?
05
#1440000
b10001101 k
b1 {
0,
0?
15
#1445000
1,
1?
05
#1450000
b10001110 k
b1 {
0,
0?
15
#1455000
1,
1?
05
#1460000
b10001111 k
b1 {
0,
0?
15
#1465000
1,
1?
05
#1470000
b10010000 k
b1 {
0,
0?
15
#1475000
1,
1?
05
#1480000
b10010001 k
b1 {
0,
0?
15
#1485000
1,
1?
05
#1490000
b10010010 k
b1 {
0,
0?
15
#1495000
1,
1?
05
#1500000
b10010011 k
b1 {
0,
0?
15
#1505000
1,
1?
05
#1510000
b10010100 k
b1 {
0,
0?
15
#1515000
1,
1?
05
#1520000
b10010101 k
b1 {
0,
0?
15
#1525000
1,
1?
05
#1530000
b10010110 k
b1 {
0,
0?
15
#1535000
1,
1?
05
#1540000
b10010111 k
b1 {
0,
0?
15
#1545000
1,
1?
05
#1550000
b10011000 k
b1 {
0,
0?
15
#1555000
1,
1?
05
#1560000
b10011001 k
b1 {
0,
0?
15
#1565000
1,
1?
05
#1570000
b10011010 k
b1 {
0,
0?
15
#1575000
1,
1?
05
#1580000
b10011011 k
b1 {
0,
0?
15
#1585000
1,
1?
05
#1590000
b10011100 k
b1 {
0,
0?
15
#1595000
1,
1?
05
#1600000
b10011101 k
b1 {
0,
0?
15
#1605000
1,
1?
05
#1610000
b10011110 k
b1 {
0,
0?
15
#1615000
1,
1?
05
#1620000
b10011111 k
b1 {
0,
0?
15
#1625000
1,
1?
05
#1630000
b10100000 k
b1 {
0,
0?
15
#1635000
1,
1?
05
#1640000
b10100001 k
b1 {
0,
0?
15
#1645000
1,
1?
05
#1650000
b10100010 k
b1 {
0,
0?
15
#1655000
1,
1?
05
#1660000
b10100011 k
b1 {
0,
0?
15
#1665000
1,
1?
05
#1670000
b10100100 k
b1 {
0,
0?
15
#1675000
1,
1?
05
#1680000
b10100101 k
b1 {
0,
0?
15
#1685000
1,
1?
05
#1690000
b10100110 k
b1 {
0,
0?
15
#1695000
1,
1?
05
#1700000
b10100111 k
b1 {
0,
0?
15
#1705000
1,
1?
05
#1710000
b10101000 k
b1 {
0,
0?
15
#1715000
1,
1?
05
#1720000
b10101001 k
b1 {
0,
0?
15
#1725000
1,
1?
05
#1730000
b10101010 k
b1 {
0,
0?
15
#1735000
1,
1?
05
#1740000
b10101011 k
b1 {
0,
0?
15
#1745000
1,
1?
05
#1750000
b10101100 k
b1 {
0,
0?
15
#1755000
1,
1?
05
#1760000
b10101101 k
b1 {
0,
0?
15
#1765000
1,
1?
05
#1770000
b10101110 k
b1 {
0,
0?
15
#1775000
1,
1?
05
#1780000
b10101111 k
b1 {
0,
0?
15
#1785000
1,
1?
05
#1790000
b10110000 k
b1 {
0,
0?
15
#1795000
1,
1?
05
#1800000
b10110001 k
b1 {
0,
0?
15
#1805000
1,
1?
05
#1810000
b10110010 k
b1 {
0,
0?
15
#1815000
1,
1?
05
#1820000
b10110011 k
b1 {
0,
0?
15
#1825000
1,
1?
05
#1830000
b10110100 k
b1 {
0,
0?
15
#1835000
1,
1?
05
#1840000
b10110101 k
b1 {
0,
0?
15
#1845000
1,
1?
05
#1850000
b10110110 k
b1 {
0,
0?
15
#1855000
1,
1?
05
#1860000
b10110111 k
b1 {
0,
0?
15
#1865000
1,
1?
05
#1870000
b10111000 k
b1 {
0,
0?
15
#1875000
1,
1?
05
#1880000
b10111001 k
b1 {
0,
0?
15
#1885000
1,
1?
05
#1890000
b10111010 k
b1 {
0,
0?
15
#1895000
1,
1?
05
#1900000
b10111011 k
b1 {
0,
0?
15
#1905000
1,
1?
05
#1910000
b10111100 k
b1 {
0,
0?
15
#1915000
1,
1?
05
#1920000
b10111101 k
b1 {
0,
0?
15
#1925000
1,
1?
05
#1930000
b10111110 k
b1 {
0,
0?
15
#1935000
1,
1?
05
#1940000
b10111111 k
b1 {
0,
0?
15
#1945000
1,
1?
05
#1950000
b11000000 k
b1 {
0,
0?
15
#1955000
1,
1?
05
#1960000
b11000001 k
b1 {
0,
0?
15
#1965000
1,
1?
05
#1970000
b11000010 k
b1 {
0,
0?
15
#1975000
1,
1?
05
#1980000
b11000011 k
b1 {
0,
0?
15
#1985000
1,
1?
05
#1990000
b11000100 k
b1 {
0,
0?
15
#1995000
1,
1?
05
#2000000
b11000101 k
b1 {
0,
0?
15
#2005000
1,
1?
05
#2010000
b11000110 k
b1 {
0,
0?
15
#2015000
1,
1?
05
#2020000
b11000111 k
b1 {
0,
0?
15
#2025000
1,
1?
05
#2030000
b11001000 k
b1 {
0,
0?
15
#2035000
1,
1?
05
#2040000
b11001001 k
b1 {
0,
0?
15
#2045000
1,
1?
05
#2050000
b11001010 k
b1 {
0,
0?
15
#2055000
1,
1?
05
#2060000
b11001011 k
b1 {
0,
0?
15
#2065000
1,
1?
05
#2070000
b11001100 k
b1 {
0,
0?
15
#2075000
1,
1?
05
#2080000
b11001101 k
b1 {
0,
0?
15
#2085000
1,
1?
05
#2090000
b11001110 k
b1 {
0,
0?
15
#2095000
1,
1?
05
#2100000
b11001111 k
b1 {
0,
0?
15
#2105000
1,
1?
05
#2110000
b11010000 k
b1 {
0,
0?
15
#2115000
1,
1?
05
#2120000
b11010001 k
b1 {
0,
0?
15
#2125000
1,
1?
05
#2130000
b11010010 k
b1 {
0,
0?
15
#2135000
1,
1?
05
#2140000
b11010011 k
b1 {
0,
0?
15
#2145000
1,
1?
05
#2150000
b11010100 k
b1 {
0,
0?
15
#2155000
1,
1?
05
#2160000
b11010101 k
b1 {
0,
0?
15
#2165000
1,
1?
05
#2170000
b11010110 k
b1 {
0,
0?
15
#2175000
1,
1?
05
#2180000
b11010111 k
b1 {
0,
0?
15
#2185000
1,
1?
05
#2190000
b11011000 k
b1 {
0,
0?
15
#2195000
1,
1?
05
#2200000
b11011001 k
b1 {
0,
0?
15
#2205000
1,
1?
05
#2210000
b11011010 k
b1 {
0,
0?
15
#2215000
1,
1?
05
#2220000
b11011011 k
b1 {
0,
0?
15
#2225000
1,
1?
05
#2230000
b11011100 k
b1 {
0,
0?
15
#2235000
1,
1?
05
#2240000
b11011101 k
b1 {
0,
0?
15
#2245000
1,
1?
05
#2250000
b11011110 k
b1 {
0,
0?
15
#2255000
1,
1?
05
#2260000
b11011111 k
b1 {
0,
0?
15
#2265000
1,
1?
05
#2270000
b11100000 k
b1 {
0,
0?
15
#2275000
1,
1?
05
#2280000
b11100001 k
b1 {
0,
0?
15
#2285000
1,
1?
05
#2290000
b11100010 k
b1 {
0,
0?
15
#2295000
1,
1?
05
#2300000
b11100011 k
b1 {
0,
0?
15
#2305000
1,
1?
05
#2310000
b11100100 k
b1 {
0,
0?
15
#2315000
1,
1?
05
#2320000
b11100101 k
b1 {
0,
0?
15
#2325000
1,
1?
05
#2330000
b11100110 k
b1 {
0,
0?
15
#2335000
1,
1?
05
#2340000
b11100111 k
b1 {
0,
0?
15
#2345000
1,
1?
05
#2350000
b11101000 k
b1 {
0,
0?
15
#2355000
1,
1?
05
#2360000
b11101001 k
b1 {
0,
0?
15
#2365000
1,
1?
05
#2370000
b11101010 k
b1 {
0,
0?
15
